Lab10/step_response.csv

#Digilent WaveForms Oscilloscope Acquisition
#Device Name: Discovery2
#Serial Number: SN:210321A189D7
#Date Time: 2025-04-28 09:56:42.755
#Sample rate: 1.5873e+06Hz
#Samples: 8192
#Trigger: Source: Channel 1 Type: Edge Condition: Rising Level: 0 V Hyst.: Auto HoldOff: 0 s
#Channel 1: Range: 500 mV/div Offset: 0 V Sample Mode: Average
#Channel 2: Range: 500 mV/div Offset: 10.7 V Sample Mode: Average
#Wavegen Channel 1: Enabled
#Mode: Simple
#Type: Square
#Frequency: 1 kHz
#Period: 1 ms
#Amplitude: 500 mV
#Offset: 0 V
#Symmetry: 50 %
#Phase: 0 °

Time (s),Channel 1 (V),Channel 2 (V)
-0.002580169655172414,0.4494399341328641,-9.868019188393692
-0.002579539655172414,0.4497721452306899,-9.824082560190849
-0.002578909655172414,0.4497721452306901,-9.776484546304392
-0.002578279655172414,0.4494399341328668,-9.732547918101524
-0.002577649655172414,0.455419733893732,-9.721563761050813
-0.002577019655172414,0.4620639558502518,-9.860696417026549
-0.002576389655172414,0.461731744752426,-9.99250630163508
-0.002575759655172414,0.4604029003611219,-10.12797757192731
-0.002575129655172414,0.4597384781654699,-10.23781914243447
-0.002574499655172414,0.4587418448719924,-10.34033794157444
-0.002573869655172414,0.4580774226763399,-10.41722704092949
-0.002573239655172414,0.4577452115785138,-10.49045475460096
-0.002572609655172414,0.4574130004806879,-10.54171415417094
-0.002571979655172414,0.456748578285036,-10.58931216805738
-0.002571349655172414,0.4567485782850358,-10.60761909647525
-0.002570719655172414,0.45641636718721,-10.62226463920953
-0.002570089655172414,0.456084156089384,-10.60395771079167
-0.002569459655172414,0.456084156089384,-10.59297355374096
-0.002568829655172414,0.455751944991558,-10.55635969690523
-0.002568199655172414,0.4540908895024265,-10.50876168301876
-0.002567569655172414,0.4507687785241681,-10.44651812639807
-0.002566939655172414,0.4524298340132981,-10.39892011251163
-0.002566309655172414,0.4520976229154716,-10.34399932725803
-0.002565679655172414,0.4511009896219941,-10.29640131337162
-0.002565049655172414,0.4461178231546042,-10.22683498538375
-0.002564419655172414,0.4457856120567784,-10.18289835718091
-0.002563789655172414,0.4457856120567782,-10.13530034329445
-0.002563159655172414,0.446117823154604,-10.09136371509157
-0.002562529655172414,0.4457856120567782,-10.04742708688872
-0.002561899655172414,0.4451211898611262,-9.996167687318714
-0.002561269655172414,0.445453400958952,-9.941246902065116
-0.002560639655172414,0.4451211898611262,-9.90097165954584
-0.002560009655172414,0.4451211898611262,-9.853373645659405
-0.002559379655172414,0.4451211898611262,-9.80943701745656
-0.002558749655172414,0.4457856120567782,-9.758177617886533
-0.002558119655172414,0.4457856120567782,-9.71790237536724
-0.002557489655172414,0.455751944991558,-9.75451623220296
-0.002556859655172414,0.4577452115785139,-9.908294430912985
-0.002556229655172414,0.4574130004806873,-10.04742708688878
-0.002555599655172414,0.456084156089384,-10.17191420013017
-0.002554969655172414,0.45475531169808,-10.27809438495376
-0.002554339655172414,0.4540908895024283,-10.37695179841016
-0.002553709655172414,0.4530942562089501,-10.45017951208164
-0.002553079655172414,0.4524298340132981,-10.50876168301879
-0.002552449655172414,0.4517654118176461,-10.56368246827237
-0.002551819655172414,0.4520976229154721,-10.59663493942452
-0.002551189655172414,0.4511009896219942,-10.61494186784238
-0.002550559655172414,0.4514332007198201,-10.61860325352595
-0.002549929655172414,0.4507687785241681,-10.60761909647524
-0.002549299655172414,0.4514332007198198,-10.58198939669025
-0.002548669655172414,0.4511009896219941,-10.53805276848737
-0.002548039655172414,0.4461178231546042,-10.47580921186665
-0.002547409655172414,0.4477788786437334,-10.42821119798023
-0.002546779655172414,0.4461178231546042,-10.3769517984102
-0.002546149655172414,0.4491077230350359,-10.33301517020731
-0.002545519655172414,0.4441245565676483,-10.27443299927019
-0.002544889655172414,0.4411346566872143,-10.21585082833303
-0.002544259655172414,0.4408024455893885,-10.16459142876305
-0.002543629655172414,0.4408024455893883,-10.10967064350945
-0.002542999655172414,0.4411346566872143,-10.06207262962301
-0.002542369655172414,0.4411346566872143,-10.01447461573659
-0.002541739655172414,0.4417990788828663,-9.974199373217282
-0.002541109655172414,0.4417990788828661,-9.930262745014399
-0.002540479655172414,0.4414668677850403,-9.889987502495124
-0.002539849655172414,0.4414668677850403,-9.842389488608688
-0.002539219655172414,0.4414668677850403,-9.791130089038704
-0.002538589655172414,0.4414668677850403,-9.747193460835817
-0.002537959655172414,0.4431279232741703,-9.710579604000097
-0.002537329655172414,0.454090889502423,-9.816759788823637
-0.002536699655172414,0.4530942562089501,-9.955892444799421
-0.002536069655172414,0.4520976229154718,-10.09502510077521
-0.002535439655172414,0.4514332007198201,-10.20852805696589
-0.002534809655172414,0.4504365674263421,-10.31836962747305
-0.002534179655172414,0.4494399341328638,-10.40258149819524
-0.002533549655172414,0.4487755119372122,-10.47580921186665
-0.002532919655172414,0.4484433008393862,-10.53072999712023
-0.002532289655172414,0.4474466675459086,-10.57466662532307
-0.002531659655172414,0.4471144564480822,-10.59663493942452
-0.002531029655172414,0.446782245350256,-10.61860325352595
-0.002530399655172414,0.4464500342524302,-10.60761909647524
-0.002529769655172414,0.4464500342524302,-10.59663493942452
-0.002529139655172414,0.4461178231546037,-10.56368246827236
-0.002528509655172414,0.4451211898611262,-10.52706861143665
-0.002527879655172414,0.4398058122959103,-10.45750228344879
-0.002527249655172414,0.4437923454698204,-10.41356565524594
-0.002526619655172414,0.4421312899806923,-10.35498348430877
-0.002525989655172414,0.4431279232741703,-10.31470824178948
-0.002525359655172414,0.4378125457089544,-10.25246468516875
-0.002524729655172414,0.4368159124154764,-10.20120528559875
-0.002524099655172414,0.4364837013176502,-10.14994588602872
-0.002523469655172414,0.4361514902198244,-10.10600925782587
-0.002522839655172414,0.4364837013176504,-10.05474985825587
-0.002522209655172414,0.4371481235133021,-10.00715184436945
-0.002521579655172414,0.4371481235133024,-9.959553830482992
-0.002520949655172414,0.4368159124154764,-9.908294430912985
-0.002520319655172414,0.4368159124154764,-9.860696417026549
-0.002519689655172414,0.4371481235133024,-9.824082560190829
-0.002519059655172414,0.4374803346111282,-9.772823160620801
-0.002518429655172414,0.4371481235133024,-9.728886532417956
-0.002517799655172414,0.4444567676654742,-9.725225146734385
-0.002517169655172414,0.4501043563285135,-9.8716805740772
-0.002516539655172414,0.4497721452306901,-10.010813230053
-0.002515909655172414,0.4484433008393862,-10.13896172897802
-0.002515279655172414,0.4474466675459086,-10.24880329948513
-0.002514649655172414,0.4457856120567782,-10.3513220986252
-0.002514019655172414,0.4444567676654738,-10.42821119798024
-0.002513389655172414,0.4434601343719963,-10.49777752596808
-0.002512759655172414,0.4434601343719963,-10.54903692553809
-0.002512129655172414,0.4437923454698221,-10.5966349394245
-0.002511499655172414,0.4424635010785183,-10.60761909647524
-0.002510869655172414,0.4421312899806923,-10.61494186784238
-0.002510239655172414,0.4421312899806923,-10.60761909647524
-0.002509609655172414,0.4424635010785183,-10.59663493942452
-0.002508979655172414,0.442131289980691,-10.55635969690521
-0.002508349655172414,0.4391413901002584,-10.50510029733522
-0.002507719655172414,0.4374803346111284,-10.4428567407145
-0.002507089655172414,0.4374803346111284,-10.39159734114451
-0.002506459655172414,0.4384769679046064,-10.34399932725805
-0.002505829655172414,0.4368159124154764,-10.29640131337162
-0.002505199655172414,0.4321649570459146,-10.23049637106735
-0.002504569655172414,0.4321649570459125,-10.18655974286446
-0.002503939655172414,0.4324971681437385,-10.13530034329443
-0.002503309655172414,0.4324971681437385,-10.08404094372444
-0.002502679655172414,0.4321649570459125,-10.03278154415443
-0.002502049655172414,0.4321649570459125,-9.992506301635121
-0.002501419655172414,0.4321649570459125,-9.948569673432276
-0.002500789655172414,0.4324971681437385,-9.897310273862269
-0.002500159655172414,0.08433993762225661,-9.846050874292283
-0.002499529655172414,-0.4588252073233997,-9.798452860405824
-0.002498899655172414,-0.4854020951494792,-9.75451623220294
-0.002498269655172414,-0.485734306247305,-9.710579604000097
-0.002497639655172414,-0.4804189286820891,-9.677627132847949
-0.002497009655172414,-0.4734424956277425,-9.816759788823751
-0.002496379655172414,-0.4717814401386133,-9.959553830482992
-0.002495749655172414,-0.4707848068451354,-10.10967064350945
-0.002495119655172414,-0.4717814401386129,-10.22317359970013
-0.002494489655172414,-0.4717814401386133,-10.34399932725805
-0.002493859655172414,-0.4717814401386132,-10.43187258366382
-0.002493229655172414,-0.4714492290407873,-10.51608445438594
-0.002492599655172414,-0.4711170179429613,-10.57466662532309
-0.002491969655172414,-0.4717814401386133,-10.63324879626025
-0.002491339655172414,-0.4717814401386133,-10.66253988172882
-0.002490709655172414,-0.4711170179429613,-10.69549235288097
-0.002490079655172414,-0.4717814401386131,-10.68816958151383
-0.002489449655172414,-0.4714492290407873,-10.68084681014668
-0.002488819655172414,-0.4721136512364393,-10.6515557246781
-0.002488189655172414,-0.4724458623342653,-10.6259260248931
-0.002487559655172414,-0.4764323955081772,-10.5600210825888
-0.002486929655172414,-0.475103551116874,-10.50876168301877
-0.002486299655172414,-0.4767646066060032,-10.45384089776521
-0.002485669655172414,-0.4790900842907852,-10.40624288387878
-0.002485039655172414,-0.4814155619755661,-10.34033794157451
-0.002484409655172414,-0.4810833508777411,-10.29640131337162
-0.002483779655172414,-0.4820799841712191,-10.23415775675089
-0.002483149655172414,-0.4814155619755671,-10.18289835718089
-0.002482519655172414,-0.4814155619755671,-10.13530034329445
-0.002481889655172414,-0.4817477730733929,-10.09868648645871
-0.002481259655172414,-0.4814155619755671,-10.05108847257229
-0.002480629655172414,-0.4814155619755671,-9.999829073002285
-0.002479999655172414,-0.4817477730733929,-9.95589244479944
-0.002479369655172414,-0.4814155619755671,-9.911955816596556
-0.002478739655172414,-0.4814155619755671,-9.860696417026549
-0.002478109655172414,-0.4814155619755671,-9.816759788823704
-0.002477479655172414,-0.4814155619755671,-9.765500389253676
-0.002476849655172414,-0.478757873192955,-9.73254791810159
-0.002476219655172414,-0.4694559624538314,-9.864357802710121
-0.002475589655172414,-0.4694559624538314,-10.04010431552158
-0.002474959655172414,-0.4694559624538314,-10.21585082833295
-0.002474329655172414,-0.4701203846494834,-10.35864486999234
-0.002473699655172414,-0.4707848068451354,-10.50510029733522
-0.002473069655172414,-0.4704525957473095,-10.6186032535259
-0.002472439655172414,-0.4701203846494834,-10.73210620971669
-0.002471809655172414,-0.4714492290407873,-10.80899530907174
-0.002471179655172414,-0.4714492290407873,-10.88954579411028
-0.002470549655172414,-0.4711170179429613,-10.94812796504744
-0.002469919655172414,-0.4721136512364389,-10.99572597893385
-0.002469289655172414,-0.4721136512364393,-11.01037152166816
-0.002468659655172414,-0.4717814401386133,-11.02867845008602
-0.002468029655172414,-0.4717814401386133,-11.02135567871888
-0.002467399655172414,-0.4717814401386133,-11.00671013598459
-0.002466769655172414,-0.471781440138614,-10.96643489346527
-0.002466139655172414,-0.4731102845299173,-10.91151410821172
-0.002465509655172414,-0.4810833508777411,-10.82730223748956
-0.002464879655172414,-0.4807511397799151,-10.77238145223595
-0.002464249655172414,-0.4807511397799151,-10.71379928129883
-0.002463619655172414,-0.4814155619755671,-10.66620126741239
-0.002462989655172414,-0.4810833508777413,-10.61128048215883
-0.002462359655172414,-0.4807511397799151,-10.56734385395595
-0.002461729655172414,-0.4804189286820891,-10.51608445438592
-0.002461099655172414,-0.4804189286820891,-10.4684864404995
-0.002460469655172414,-0.4804189286820891,-10.41722704092949
-0.002459839655172414,-0.481415561975567,-10.36596764135946
-0.002459209655172414,-0.4810833508777411,-10.31470824178948
-0.002458579655172414,-0.4804189286820891,-10.27077161358661
-0.002457949655172414,-0.4804189286820891,-10.21951221401663
-0.002457319655172414,-0.4800867175842631,-10.17923697149731
-0.002456689655172414,-0.4677949069647014,-10.28175577063733
-0.002456059655172414,-0.4684593291603534,-10.45017951208164
-0.002455429655172414,-0.4684593291603534,-10.61494186784238
-0.002454799655172414,-0.4691237513560057,-10.74675175245103
-0.002454169655172414,-0.4697881735516574,-10.87490025137599
-0.002453539655172414,-0.4704525957473094,-10.98108043619958
-0.002452909655172414,-0.4704525957473094,-11.07993784965598
-0.002452279655172414,-0.4707848068451354,-11.14950417764389
-0.002451649655172414,-0.4711170179429613,-11.21540911994819
-0.002451019655172414,-0.4717814401386133,-11.25568436246748
-0.002450389655172414,-0.4714492290407873,-11.2922982193032
-0.002449759655172414,-0.4714492290407873,-11.29962099067034
-0.002449129655172414,-0.4714492290407873,-11.29595960498678
-0.002448499655172414,-0.4714492290407873,-11.27399129088534
-0.002447869655172414,-0.4711170179429615,-11.23737743404964
-0.002447239655172414,-0.4727780734320913,-11.18611803447962
-0.002446609655172414,-0.4770968177038292,-11.11655170649175
-0.002445979655172414,-0.4761001844103517,-11.06163092123819
-0.002445349655172414,-0.4810833508777411,-10.99572597893387
-0.002444719655172414,-0.481415561975567,-10.9371438079967
-0.002444089655172414,-0.4810833508777411,-10.88588440842671
-0.002443459655172414,-0.4810833508777411,-10.83096362317313
-0.002442829655172414,-0.4807511397799153,-10.77970422360315
-0.002442199655172414,-0.4804189286820891,-10.72112205266597
-0.002441569655172414,-0.4800867175842631,-10.66986265309596
-0.002440939655172414,-0.480418928682089,-10.61860325352598
-0.002440309655172414,-0.4797545064864372,-10.57100523963952
-0.002439679655172414,-0.479422295388611,-10.51974584006949
-0.002439049655172414,-0.4790900842907852,-10.47214782618307
-0.002438419655172414,-0.4794222953886112,-10.41722704092949
-0.002437789655172414,-0.479754506486437,-10.36962902704308
-0.002437159655172414,-0.4694559624538314,-10.42821119798021
-0.002436529655172414,-0.4681271180625274,-10.60029632510809
-0.002435899655172414,-0.4684593291603533,-10.76139729518519
-0.002435269655172414,-0.4691237513560054,-10.89686856547743
-0.002434639655172414,-0.4694559624538316,-11.02135567871892
-0.002434009655172414,-0.4697881735516574,-11.12387447785889
-0.002433379655172414,-0.4704525957473094,-11.21540911994819
-0.002432749655172414,-0.4711170179429613,-11.27765267656894
-0.002432119655172414,-0.4711170179429613,-11.33257346182249
-0.002431489655172414,-0.4711170179429613,-11.36918731865822
-0.002430859655172414,-0.4707848068451355,-11.39847840412678
-0.002430229655172414,-0.4711170179429613,-11.40213978981036
-0.002429599655172414,-0.4714492290407872,-11.39115563275963
-0.002428969655172414,-0.4711170179429613,-11.36186454729107
-0.002428339655172414,-0.4707848068451354,-11.31792791908821
-0.002427709655172414,-0.475435762214699,-11.25568436246746
-0.002427079655172414,-0.4747713400190473,-11.20442496289748
-0.002426449655172414,-0.4754357622146992,-11.14218140627675
-0.002425819655172414,-0.480086717584261,-11.07627646397249
-0.002425189655172414,-0.4810833508777411,-11.01403290735173
-0.002424559655172414,-0.4810833508777408,-10.95911212209812
-0.002423929655172414,-0.4804189286820891,-10.89686856547743
-0.002423299655172414,-0.4800867175842631,-10.84194778022385
-0.002422669655172414,-0.4800867175842631,-10.78702699497024
-0.002422039655172414,-0.4800867175842631,-10.73576759540026
-0.002421409655172414,-0.4794222953886112,-10.68084681014668
-0.002420779655172414,-0.4790900842907854,-10.63324879626026
-0.002420149655172414,-0.4787578731929592,-10.58198939669023
-0.002419519655172414,-0.4790900842907852,-10.54171415417094
-0.002418889655172414,-0.4787578731929592,-10.49045475460093
-0.002418259655172414,-0.4794222953886112,-10.43919535503093
-0.002417629655172414,-0.4724458623342632,-10.44285674071457
-0.002416999655172414,-0.4677949069647014,-10.60395771079167
-0.002416369655172414,-0.4674626958668754,-10.76139729518526
-0.002415739655172414,-0.4681271180625272,-10.90419133684451
-0.002415109655172414,-0.4684593291603534,-11.02867845008602
-0.002414479655172414,-0.4691237513560054,-11.13852002059318
-0.002413849655172414,-0.4694559624538314,-11.22639327699891
-0.002413219655172414,-0.4697881735516574,-11.29595960498678
-0.002412589655172414,-0.4697881735516576,-11.35820316160752
-0.002411959655172414,-0.4704525957473094,-11.39847840412679
-0.002411329655172414,-0.4707848068451354,-11.42044671822822
-0.002410699655172414,-0.4707848068451354,-11.42776948959536
-0.002410069655172414,-0.4707848068451354,-11.41312394686108
-0.002409439655172414,-0.4704525957473094,-11.39481701844322
-0.002408809655172414,-0.4707848068451352,-11.35088039024038
-0.002408179655172414,-0.4744391289212213,-11.2922982193032
-0.002407549655172414,-0.4751035511168731,-11.23371604836603
-0.002406919655172414,-0.4747713400190473,-11.17879526311247
-0.002406289655172414,-0.4751035511168732,-11.12021309217532
-0.002405659655172414,-0.4807511397799126,-11.05430814987105
-0.002405029655172414,-0.4807511397799151,-10.9920645932503
-0.002404399655172414,-0.4804189286820891,-10.93348242231315
-0.002403769655172414,-0.4800867175842633,-10.87856163705959
-0.002403139655172414,-0.4800867175842631,-10.82730223748956
-0.002402509655172414,-0.479754506486437,-10.77238145223595
-0.002401879655172414,-0.4794222953886112,-10.72112205266597
-0.002401249655172414,-0.4797545064864372,-10.66986265309596
-0.002400619655172414,-0.480086717584263,-10.61860325352598
-0.002399989655172414,-0.4797545064864372,-10.56734385395595
-0.002399359655172414,-0.4797545064864372,-10.52340722575308
-0.002398729655172414,-0.4787578731929596,-10.46848644049953
-0.002398099655172414,-0.4787578731929592,-10.41356565524592
-0.002397469655172414,-0.4687915402581784,-10.46116366913243
-0.002396839655172414,-0.4664660625733975,-10.62958741057667
-0.002396209655172414,-0.4667982736712235,-10.78336560928669
-0.002395579655172414,-0.4671304847690497,-10.91883687957891
-0.002394949655172414,-0.4677949069647014,-11.03966260713674
-0.002394319655172414,-0.4684593291603534,-11.14584279196032
-0.002393689655172414,-0.4687915402581793,-11.24103881973315
-0.002393059655172414,-0.4691237513560054,-11.30694376203749
-0.002392429655172414,-0.4691237513560054,-11.36552593297466
-0.002391799655172414,-0.4691237513560054,-11.39847840412679
-0.002391169655172414,-0.4691237513560054,-11.42044671822822
-0.002390539655172414,-0.4694559624538316,-11.42410810391179
-0.002389909655172414,-0.4697881735516574,-11.40580117549394
-0.002389279655172414,-0.4694559624538314,-11.3838328613925
-0.002388649655172414,-0.4697881735516572,-11.33623484750609
-0.002388019655172414,-0.4747713400190473,-11.27765267656892
-0.002387389655172414,-0.4734424956277441,-11.22273189131531
-0.002386759655172414,-0.4751035511168732,-11.16048833469461
-0.002386129655172414,-0.4767646066060032,-11.09824477807389
-0.002385499655172414,-0.4797545064864372,-11.03600122145314
-0.002384869655172414,-0.4797545064864372,-10.98108043619958
-0.002384239655172414,-0.4794222953886112,-10.926159650946
-0.002383609655172414,-0.4794222953886112,-10.86757748000888
-0.002382979655172414,-0.4800867175842631,-10.81997946612242
-0.002382349655172414,-0.4797545064864372,-10.76505868086883
-0.002381719655172414,-0.4797545064864372,-10.71379928129883
-0.002381089655172414,-0.4797545064864372,-10.65521711036167
-0.002380459655172414,-0.4794222953886109,-10.60761909647522
-0.002379829655172414,-0.4787578731929592,-10.5600210825888
-0.002379199655172414,-0.4790900842907852,-10.50876168301879
-0.002378569655172414,-0.4787578731929594,-10.45750228344881
