Lab6/Data/tsk1_7.csv

X,CH1,Start,Increment,
Sequence,Volt,-1.968000e-05,2.000000e-09
0,-4.00e-01,
1,-2.00e+00,
2,-4.00e-01,
3,-4.00e-01,
4,-4.00e-01,
5,-4.00e-01,
6,-4.00e-01,
7,-4.00e-01,
8,-4.00e-01,
9,-4.00e-01,
10,-4.00e-01,
11,-4.00e-01,
12,-4.00e-01,
13,-4.00e-01,
14,-4.00e-01,
15,-4.00e-01,
16,-4.00e-01,
17,-4.00e-01,
18,-4.00e-01,
19,-4.00e-01,
20,-4.00e-01,
21,-2.00e+00,
22,-4.00e-01,
23,-4.00e-01,
24,-4.00e-01,
25,-4.00e-01,
26,-4.00e-01,
27,-4.00e-01,
28,-4.00e-01,
29,-4.00e-01,
30,-4.00e-01,
31,-4.00e-01,
32,-4.00e-01,
33,-2.00e+00,
34,-4.00e-01,
35,-4.00e-01,
36,-4.00e-01,
37,-4.00e-01,
38,-4.00e-01,
39,-4.00e-01,
40,4.00e-01,
41,-2.00e+00,
42,-4.00e-01,
43,-4.00e-01,
44,-4.00e-01,
45,-4.00e-01,
46,-4.00e-01,
47,-4.00e-01,
48,-4.00e-01,
49,-4.00e-01,
50,-4.00e-01,
51,-4.00e-01,
52,-4.00e-01,
53,-2.00e+00,
54,-4.00e-01,
55,-4.00e-01,
56,-4.00e-01,
57,-4.00e-01,
58,-4.00e-01,
59,-4.00e-01,
60,-4.00e-01,
61,-4.00e-01,
62,-4.00e-01,
63,-4.00e-01,
64,-4.00e-01,
65,-2.00e+00,
66,-4.00e-01,
67,-4.00e-01,
68,-4.00e-01,
69,-4.00e-01,
70,-4.00e-01,
71,-4.00e-01,
72,-4.00e-01,
73,-2.00e+00,
74,-4.00e-01,
75,-4.00e-01,
76,-4.00e-01,
77,-4.00e-01,
78,-4.00e-01,
79,-4.00e-01,
80,-4.00e-01,
81,-4.00e-01,
82,-4.00e-01,
83,-4.00e-01,
84,-4.00e-01,
85,-2.00e+00,
86,-4.00e-01,
87,-4.00e-01,
88,-4.00e-01,
89,-4.00e-01,
90,-4.00e-01,
91,-4.00e-01,
92,-4.00e-01,
93,-2.00e+00,
94,-4.00e-01,
95,-4.00e-01,
96,-4.00e-01,
97,-4.00e-01,
98,-4.00e-01,
99,-4.00e-01,
100,-4.00e-01,
101,-2.00e+00,
102,-4.00e-01,
103,-4.00e-01,
104,-4.00e-01,
105,-2.00e+00,
106,-4.00e-01,
107,-4.00e-01,
108,-4.00e-01,
109,-4.00e-01,
110,-4.00e-01,
111,-4.00e-01,
112,-4.00e-01,
113,-2.00e+00,
114,-4.00e-01,
115,-4.00e-01,
116,-4.00e-01,
117,-2.00e+00,
118,-4.00e-01,
119,-4.00e-01,
120,-4.00e-01,
121,-2.00e+00,
122,-4.00e-01,
123,-4.00e-01,
124,-4.00e-01,
125,-4.00e-01,
126,-4.00e-01,
127,-4.00e-01,
128,-4.00e-01,
129,-4.00e-01,
130,-4.00e-01,
131,-4.00e-01,
132,-4.00e-01,
133,-2.00e+00,
134,-4.00e-01,
135,-4.00e-01,
136,-4.00e-01,
137,-4.00e-01,
138,-4.00e-01,
139,-4.00e-01,
140,-4.00e-01,
141,-2.00e+00,
142,-4.00e-01,
143,-4.00e-01,
144,-4.00e-01,
145,-4.00e-01,
146,-4.00e-01,
147,-4.00e-01,
148,-4.00e-01,
149,-4.00e-01,
150,-4.00e-01,
151,-4.00e-01,
152,-4.00e-01,
153,-4.00e-01,
154,-4.00e-01,
155,-4.00e-01,
156,-4.00e-01,
157,-4.00e-01,
158,-4.00e-01,
159,-4.00e-01,
160,-4.00e-01,
161,-4.00e-01,
162,-4.00e-01,
163,-4.00e-01,
164,-4.00e-01,
165,-2.00e+00,
166,-4.00e-01,
167,-4.00e-01,
168,-4.00e-01,
169,-4.00e-01,
170,-4.00e-01,
171,-4.00e-01,
172,-4.00e-01,
173,-4.00e-01,
174,-4.00e-01,
175,-4.00e-01,
176,-4.00e-01,
177,-4.00e-01,
178,-4.00e-01,
179,-4.00e-01,
180,-4.00e-01,
181,-2.00e+00,
182,-4.00e-01,
183,-4.00e-01,
184,-4.00e-01,
185,-2.00e+00,
186,-4.00e-01,
187,-4.00e-01,
188,-4.00e-01,
189,-4.00e-01,
190,-4.00e-01,
191,-4.00e-01,
192,-4.00e-01,
193,-4.00e-01,
194,-4.00e-01,
195,-4.00e-01,
196,-4.00e-01,
197,-4.00e-01,
198,-4.00e-01,
199,-4.00e-01,
200,-4.00e-01,
201,-4.00e-01,
202,-4.00e-01,
203,-4.00e-01,
204,-4.00e-01,
205,-2.00e+00,
206,-4.00e-01,
207,-4.00e-01,
208,-4.00e-01,
209,-4.00e-01,
210,-4.00e-01,
211,-4.00e-01,
212,-4.00e-01,
213,-4.00e-01,
214,-4.00e-01,
215,-4.00e-01,
216,-4.00e-01,
217,-4.00e-01,
218,-4.00e-01,
219,-4.00e-01,
220,-4.00e-01,
221,-4.00e-01,
222,-4.00e-01,
223,-4.00e-01,
224,4.00e-01,
225,-4.00e-01,
226,4.00e-01,
227,4.00e-01,
228,4.00e-01,
229,-4.00e-01,
230,4.00e-01,
231,4.00e-01,
232,1.20e+00,
233,4.00e-01,
234,1.20e+00,
235,1.20e+00,
236,1.20e+00,
237,4.00e-01,
238,1.20e+00,
239,1.20e+00,
240,2.00e+00,
241,1.20e+00,
242,2.00e+00,
243,2.00e+00,
244,2.00e+00,
245,2.00e+00,
246,2.00e+00,
247,2.00e+00,
248,2.80e+00,
249,2.00e+00,
250,2.80e+00,
251,2.80e+00,
252,2.80e+00,
253,2.80e+00,
254,2.80e+00,
255,3.60e+00,
256,3.60e+00,
257,3.60e+00,
258,3.60e+00,
259,3.60e+00,
260,4.40e+00,
261,3.60e+00,
262,4.40e+00,
263,4.40e+00,
264,5.20e+00,
265,4.40e+00,
266,5.20e+00,
267,5.20e+00,
268,5.20e+00,
269,5.20e+00,
270,6.00e+00,
271,6.00e+00,
272,6.80e+00,
273,6.80e+00,
274,7.60e+00,
275,7.60e+00,
276,9.20e+00,
277,9.20e+00,
278,1.00e+01,
279,1.24e+01,
280,1.40e+01,
281,1.48e+01,
282,1.72e+01,
283,1.96e+01,
284,2.20e+01,
285,2.60e+01,
286,2.92e+01,
287,3.24e+01,
288,3.72e+01,
289,4.12e+01,
290,4.52e+01,
291,5.00e+01,
292,5.32e+01,
293,5.72e+01,
294,5.96e+01,
295,6.36e+01,
296,6.60e+01,
297,6.92e+01,
298,7.08e+01,
299,7.16e+01,
300,7.24e+01,
301,7.32e+01,
302,7.16e+01,
303,7.08e+01,
304,6.76e+01,
305,6.52e+01,
306,5.96e+01,
307,5.40e+01,
308,4.68e+01,
309,4.12e+01,
310,3.40e+01,
311,2.84e+01,
312,2.28e+01,
313,1.80e+01,
314,1.48e+01,
315,1.24e+01,
316,1.00e+01,
317,8.40e+00,
318,7.60e+00,
319,6.80e+00,
320,6.80e+00,
321,5.20e+00,
322,6.00e+00,
323,6.00e+00,
324,6.00e+00,
325,6.00e+00,
326,6.80e+00,
327,8.40e+00,
328,9.20e+00,
329,1.08e+01,
330,1.32e+01,
331,1.56e+01,
332,1.88e+01,
333,2.20e+01,
334,2.76e+01,
335,3.16e+01,
336,3.80e+01,
337,4.28e+01,
338,4.76e+01,
339,5.24e+01,
340,5.64e+01,
341,5.96e+01,
342,6.04e+01,
343,6.04e+01,
344,5.88e+01,
345,5.64e+01,
346,5.24e+01,
347,4.76e+01,
348,4.28e+01,
349,3.80e+01,
350,3.24e+01,
351,2.84e+01,
352,2.36e+01,
353,1.96e+01,
354,1.72e+01,
355,1.48e+01,
356,1.32e+01,
357,1.08e+01,
358,9.20e+00,
359,9.20e+00,
360,8.40e+00,
361,7.60e+00,
362,7.60e+00,
363,7.60e+00,
364,8.40e+00,
365,8.40e+00,
366,1.00e+01,
367,1.08e+01,
368,1.32e+01,
369,1.40e+01,
370,1.64e+01,
371,1.88e+01,
372,2.20e+01,
373,2.60e+01,
374,3.00e+01,
375,3.40e+01,
376,3.88e+01,
377,4.28e+01,
378,4.60e+01,
379,5.00e+01,
380,5.16e+01,
381,5.40e+01,
382,5.40e+01,
383,5.32e+01,
384,5.16e+01,
385,5.00e+01,
386,4.60e+01,
387,4.20e+01,
388,3.80e+01,
389,3.40e+01,
390,3.00e+01,
391,2.68e+01,
392,2.28e+01,
393,1.96e+01,
394,1.80e+01,
395,1.56e+01,
396,1.40e+01,
397,1.32e+01,
398,1.24e+01,
399,1.08e+01,
400,1.08e+01,
401,1.00e+01,
402,1.00e+01,
403,1.08e+01,
404,1.24e+01,
405,1.24e+01,
406,1.32e+01,
407,1.48e+01,
408,1.64e+01,
409,1.80e+01,
410,2.04e+01,
411,2.28e+01,
412,2.68e+01,
413,2.92e+01,
414,3.24e+01,
415,3.56e+01,
416,3.96e+01,
417,4.28e+01,
418,4.44e+01,
419,4.68e+01,
420,4.76e+01,
421,4.84e+01,
422,4.76e+01,
423,4.68e+01,
424,4.44e+01,
425,4.28e+01,
426,3.96e+01,
427,3.72e+01,
428,3.32e+01,
429,3.00e+01,
430,2.68e+01,
431,2.36e+01,
432,2.12e+01,
433,1.88e+01,
434,1.80e+01,
435,1.64e+01,
436,1.56e+01,
437,1.40e+01,
438,1.40e+01,
439,1.32e+01,
440,1.32e+01,
441,1.32e+01,
442,1.32e+01,
443,1.40e+01,
444,1.48e+01,
445,1.56e+01,
446,1.72e+01,
447,1.88e+01,
448,2.04e+01,
449,2.20e+01,
450,2.52e+01,
451,2.76e+01,
452,3.00e+01,
453,3.24e+01,
454,3.48e+01,
455,3.80e+01,
456,4.04e+01,
457,4.20e+01,
458,4.28e+01,
459,4.36e+01,
460,4.36e+01,
461,4.36e+01,
462,4.28e+01,
463,4.12e+01,
464,3.96e+01,
465,3.72e+01,
466,3.40e+01,
467,3.16e+01,
468,2.92e+01,
469,2.68e+01,
470,2.52e+01,
471,2.20e+01,
472,2.04e+01,
473,1.88e+01,
474,1.80e+01,
475,1.64e+01,
476,1.64e+01,
477,1.56e+01,
478,1.56e+01,
479,1.56e+01,
480,1.56e+01,
481,1.56e+01,
482,1.64e+01,
483,1.72e+01,
484,1.80e+01,
485,1.88e+01,
486,2.04e+01,
487,2.20e+01,
488,2.36e+01,
489,2.60e+01,
490,2.84e+01,
491,3.00e+01,
492,3.24e+01,
493,3.40e+01,
494,3.72e+01,
495,3.88e+01,
496,3.96e+01,
497,4.04e+01,
498,4.04e+01,
499,4.04e+01,
500,4.04e+01,
501,3.96e+01,
502,3.80e+01,
503,3.56e+01,
504,3.40e+01,
505,3.24e+01,
506,3.00e+01,
507,2.84e+01,
508,2.68e+01,
509,2.36e+01,
510,2.20e+01,
511,2.12e+01,
512,1.96e+01,
513,1.88e+01,
514,1.80e+01,
515,1.72e+01,
516,1.72e+01,
517,1.72e+01,
518,1.72e+01,
519,1.72e+01,
520,1.80e+01,
521,1.80e+01,
522,1.88e+01,
523,1.96e+01,
524,2.12e+01,
525,2.20e+01,
526,2.36e+01,
527,2.60e+01,
528,2.76e+01,
529,2.92e+01,
530,3.08e+01,
531,3.24e+01,
532,3.40e+01,
533,3.56e+01,
534,3.72e+01,
535,3.80e+01,
536,3.80e+01,
537,3.80e+01,
538,3.80e+01,
539,3.72e+01,
540,3.56e+01,
541,3.48e+01,
542,3.32e+01,
543,3.16e+01,
544,3.08e+01,
545,2.92e+01,
546,2.76e+01,
547,2.60e+01,
548,2.36e+01,
549,2.28e+01,
550,2.12e+01,
551,2.04e+01,
552,1.96e+01,
553,1.88e+01,
554,1.88e+01,
555,1.88e+01,
556,1.88e+01,
557,1.88e+01,
558,1.88e+01,
559,1.96e+01,
560,2.04e+01,
561,2.04e+01,
562,2.12e+01,
563,2.28e+01,
564,2.36e+01,
565,2.52e+01,
566,2.68e+01,
567,2.84e+01,
568,3.00e+01,
569,3.08e+01,
570,3.24e+01,
571,3.32e+01,
572,3.40e+01,
573,3.48e+01,
574,3.48e+01,
575,3.56e+01,
576,3.56e+01,
577,3.48e+01,
578,3.40e+01,
579,3.32e+01,
580,3.24e+01,
581,3.16e+01,
582,3.00e+01,
583,2.92e+01,
584,2.76e+01,
585,2.68e+01,
586,2.52e+01,
587,2.36e+01,
588,2.28e+01,
589,2.20e+01,
590,2.12e+01,
591,2.04e+01,
592,2.04e+01,
593,1.96e+01,
594,1.96e+01,
595,1.96e+01,
596,2.04e+01,
597,2.04e+01,
598,2.12e+01,
599,2.12e+01,
600,2.20e+01,
601,2.28e+01,
602,2.36e+01,
603,2.52e+01,
604,2.68e+01,
605,2.76e+01,
606,2.92e+01,
607,3.00e+01,
608,3.08e+01,
609,3.16e+01,
610,3.24e+01,
611,3.32e+01,
612,3.32e+01,
613,3.40e+01,
614,3.40e+01,
615,3.40e+01,
616,3.32e+01,
617,3.24e+01,
618,3.16e+01,
619,3.08e+01,
620,3.00e+01,
621,2.92e+01,
622,2.84e+01,
623,2.68e+01,
624,2.60e+01,
625,2.52e+01,
626,2.36e+01,
627,2.28e+01,
628,2.20e+01,
629,2.20e+01,
630,2.12e+01,
631,2.12e+01,
632,2.12e+01,
633,2.04e+01,
634,2.12e+01,
635,2.12e+01,
636,2.20e+01,
637,2.20e+01,
638,2.28e+01,
639,2.36e+01,
640,2.52e+01,
641,2.52e+01,
642,2.68e+01,
643,2.76e+01,
644,2.84e+01,
645,2.92e+01,
646,3.00e+01,
647,3.08e+01,
648,3.16e+01,
649,3.16e+01,
650,3.24e+01,
651,3.24e+01,
652,3.24e+01,
653,3.24e+01,
654,3.24e+01,
655,3.16e+01,
656,3.08e+01,
657,3.08e+01,
658,3.00e+01,
659,2.92e+01,
660,2.84e+01,
661,2.76e+01,
662,2.68e+01,
663,2.60e+01,
664,2.52e+01,
665,2.36e+01,
666,2.28e+01,
667,2.28e+01,
668,2.28e+01,
669,2.20e+01,
670,2.20e+01,
671,2.20e+01,
672,2.20e+01,
673,2.20e+01,
674,2.20e+01,
675,2.28e+01,
676,2.28e+01,
677,2.36e+01,
678,2.52e+01,
679,2.60e+01,
680,2.68e+01,
681,2.68e+01,
682,2.76e+01,
683,2.84e+01,
684,2.92e+01,
685,3.00e+01,
686,3.08e+01,
687,3.08e+01,
688,3.16e+01,
689,3.16e+01,
690,3.16e+01,
691,3.16e+01,
692,3.16e+01,
693,3.08e+01,
694,3.08e+01,
695,3.00e+01,
696,2.92e+01,
697,2.84e+01,
698,2.84e+01,
699,2.76e+01,
700,2.68e+01,
701,2.60e+01,
702,2.52e+01,
703,2.52e+01,
704,2.36e+01,
705,2.36e+01,
706,2.28e+01,
707,2.28e+01,
708,2.28e+01,
709,2.28e+01,
710,2.28e+01,
711,2.28e+01,
712,2.28e+01,
713,2.28e+01,
714,2.36e+01,
715,2.52e+01,
716,2.52e+01,
717,2.60e+01,
718,2.60e+01,
719,2.68e+01,
720,2.76e+01,
721,2.84e+01,
722,2.84e+01,
723,2.92e+01,
724,3.00e+01,
725,3.00e+01,
726,3.00e+01,
727,3.08e+01,
728,3.08e+01,
729,3.08e+01,
730,3.08e+01,
731,3.00e+01,
732,3.00e+01,
733,2.92e+01,
734,2.92e+01,
735,2.84e+01,
736,2.84e+01,
737,2.76e+01,
738,2.68e+01,
739,2.68e+01,
740,2.60e+01,
741,2.52e+01,
742,2.52e+01,
743,2.36e+01,
744,2.36e+01,
745,2.36e+01,
746,2.36e+01,
747,2.36e+01,
748,2.36e+01,
749,2.36e+01,
750,2.36e+01,
751,2.36e+01,
752,2.52e+01,
753,2.52e+01,
754,2.52e+01,
755,2.60e+01,
756,2.60e+01,
757,2.68e+01,
758,2.76e+01,
759,2.76e+01,
760,2.84e+01,
761,2.84e+01,
762,2.92e+01,
763,2.92e+01,
764,3.00e+01,
765,3.00e+01,
766,3.00e+01,
767,3.00e+01,
768,3.00e+01,
769,3.00e+01,
770,2.92e+01,
771,2.92e+01,
772,2.84e+01,
773,2.84e+01,
774,2.84e+01,
775,2.76e+01,
776,2.76e+01,
777,2.68e+01,
778,2.60e+01,
779,2.60e+01,
780,2.60e+01,
781,2.52e+01,
782,2.52e+01,
783,2.52e+01,
784,2.52e+01,
785,2.36e+01,
786,2.36e+01,
787,2.36e+01,
788,2.52e+01,
789,2.52e+01,
790,2.52e+01,
791,2.52e+01,
792,2.60e+01,
793,2.60e+01,
794,2.68e+01,
795,2.68e+01,
796,2.76e+01,
797,2.76e+01,
798,2.84e+01,
799,2.84e+01,
800,2.84e+01,
801,2.92e+01,
802,2.92e+01,
803,2.92e+01,
804,2.92e+01,
805,2.92e+01,
806,2.92e+01,
807,2.92e+01,
808,2.92e+01,
809,2.92e+01,
810,2.84e+01,
811,2.84e+01,
812,2.76e+01,
813,2.76e+01,
814,2.76e+01,
815,2.68e+01,
816,2.68e+01,
817,2.60e+01,
818,2.60e+01,
819,2.60e+01,
820,2.52e+01,
821,2.52e+01,
822,2.52e+01,
823,2.52e+01,
824,2.52e+01,
825,2.52e+01,
826,2.52e+01,
827,2.52e+01,
828,2.52e+01,
829,2.60e+01,
830,2.60e+01,
831,2.60e+01,
832,2.68e+01,
833,2.68e+01,
834,2.68e+01,
835,2.76e+01,
836,2.76e+01,
837,2.84e+01,
838,2.84e+01,
839,2.84e+01,
840,2.84e+01,
841,2.92e+01,
842,2.92e+01,
843,2.92e+01,
844,2.92e+01,
845,2.92e+01,
846,2.84e+01,
847,2.84e+01,
848,2.84e+01,
849,2.84e+01,
850,2.76e+01,
851,2.76e+01,
852,2.76e+01,
853,2.68e+01,
854,2.68e+01,
855,2.68e+01,
856,2.60e+01,
857,2.60e+01,
858,2.60e+01,
859,2.60e+01,
860,2.60e+01,
861,2.52e+01,
862,2.52e+01,
863,2.52e+01,
864,2.52e+01,
865,2.52e+01,
866,2.52e+01,
867,2.60e+01,
868,2.60e+01,
869,2.60e+01,
870,2.68e+01,
871,2.68e+01,
872,2.68e+01,
873,2.76e+01,
874,2.76e+01,
875,2.76e+01,
876,2.76e+01,
877,2.84e+01,
878,2.84e+01,
879,2.84e+01,
880,2.84e+01,
881,2.84e+01,
882,2.84e+01,
883,2.84e+01,
884,2.84e+01,
885,2.84e+01,
886,2.84e+01,
887,2.76e+01,
888,2.76e+01,
889,2.76e+01,
890,2.76e+01,
891,2.68e+01,
892,2.68e+01,
893,2.68e+01,
894,2.60e+01,
895,2.60e+01,
896,2.60e+01,
897,2.60e+01,
898,2.60e+01,
899,2.60e+01,
900,2.60e+01,
901,2.60e+01,
902,2.60e+01,
903,2.60e+01,
904,2.60e+01,
905,2.60e+01,
906,2.60e+01,
907,2.60e+01,
908,2.68e+01,
909,2.68e+01,
910,2.68e+01,
911,2.76e+01,
912,2.76e+01,
913,2.76e+01,
914,2.76e+01,
915,2.76e+01,
916,2.84e+01,
917,2.84e+01,
918,2.84e+01,
919,2.84e+01,
920,2.84e+01,
921,2.84e+01,
922,2.84e+01,
923,2.84e+01,
924,2.84e+01,
925,2.76e+01,
926,2.76e+01,
927,2.76e+01,
928,2.76e+01,
929,2.68e+01,
930,2.68e+01,
931,2.68e+01,
932,2.68e+01,
933,2.60e+01,
934,2.60e+01,
935,2.60e+01,
936,2.60e+01,
937,2.60e+01,
938,2.60e+01,
939,2.60e+01,
940,2.60e+01,
941,2.60e+01,
942,2.60e+01,
943,2.60e+01,
944,2.60e+01,
945,2.60e+01,
946,2.68e+01,
947,2.68e+01,
948,2.68e+01,
949,2.68e+01,
950,2.76e+01,
951,2.76e+01,
952,2.76e+01,
953,2.76e+01,
954,2.76e+01,
955,2.76e+01,
956,2.84e+01,
957,2.84e+01,
958,2.84e+01,
959,2.84e+01,
960,2.84e+01,
961,2.76e+01,
962,2.76e+01,
963,2.76e+01,
964,2.76e+01,
965,2.76e+01,
966,2.76e+01,
967,2.76e+01,
968,2.68e+01,
969,2.68e+01,
970,2.68e+01,
971,2.68e+01,
972,2.68e+01,
973,2.60e+01,
974,2.60e+01,
975,2.60e+01,
976,2.60e+01,
977,2.60e+01,
978,2.60e+01,
979,2.60e+01,
980,2.60e+01,
981,2.60e+01,
982,2.68e+01,
983,2.68e+01,
984,2.68e+01,
985,2.68e+01,
986,2.68e+01,
987,2.68e+01,
988,2.76e+01,
989,2.76e+01,
990,2.76e+01,
991,2.76e+01,
992,2.76e+01,
993,2.76e+01,
994,2.76e+01,
995,2.76e+01,
996,2.76e+01,
997,2.76e+01,
998,2.76e+01,
999,2.76e+01,
1000,2.76e+01,
1001,2.76e+01,
1002,2.76e+01,
1003,2.76e+01,
1004,2.76e+01,
1005,2.68e+01,
1006,2.68e+01,
1007,2.68e+01,
1008,2.68e+01,
1009,2.68e+01,
1010,2.68e+01,
1011,2.68e+01,
1012,2.60e+01,
1013,2.60e+01,
1014,2.60e+01,
1015,2.68e+01,
1016,2.60e+01,
1017,2.60e+01,
1018,2.60e+01,
1019,2.68e+01,
1020,2.68e+01,
1021,2.68e+01,
1022,2.68e+01,
1023,2.68e+01,
1024,2.68e+01,
1025,2.68e+01,
1026,2.68e+01,
1027,2.76e+01,
1028,2.76e+01,
1029,2.76e+01,
1030,2.76e+01,
1031,2.76e+01,
1032,2.76e+01,
1033,2.76e+01,
1034,2.76e+01,
1035,2.76e+01,
1036,2.76e+01,
1037,2.76e+01,
1038,2.76e+01,
1039,2.76e+01,
1040,2.76e+01,
1041,2.76e+01,
1042,2.76e+01,
1043,2.68e+01,
1044,2.68e+01,
1045,2.68e+01,
1046,2.68e+01,
1047,2.68e+01,
1048,2.68e+01,
1049,2.68e+01,
1050,2.68e+01,
1051,2.68e+01,
1052,2.68e+01,
1053,2.60e+01,
1054,2.68e+01,
1055,2.68e+01,
1056,2.68e+01,
1057,2.68e+01,
1058,2.68e+01,
1059,2.68e+01,
1060,2.68e+01,
1061,2.68e+01,
1062,2.68e+01,
1063,2.68e+01,
1064,2.68e+01,
1065,2.68e+01,
1066,2.76e+01,
1067,2.76e+01,
1068,2.76e+01,
1069,2.76e+01,
1070,2.76e+01,
1071,2.76e+01,
1072,2.76e+01,
1073,2.76e+01,
1074,2.76e+01,
1075,2.76e+01,
1076,2.76e+01,
1077,2.76e+01,
1078,2.76e+01,
1079,2.76e+01,
1080,2.76e+01,
1081,2.68e+01,
1082,2.68e+01,
1083,2.68e+01,
1084,2.68e+01,
1085,2.68e+01,
1086,2.68e+01,
1087,2.68e+01,
1088,2.68e+01,
1089,2.68e+01,
1090,2.68e+01,
1091,2.68e+01,
1092,2.68e+01,
1093,2.68e+01,
1094,2.68e+01,
1095,2.68e+01,
1096,2.68e+01,
1097,2.68e+01,
1098,2.68e+01,
1099,2.68e+01,
1100,2.68e+01,
1101,2.68e+01,
1102,2.68e+01,
1103,2.76e+01,
1104,2.76e+01,
1105,2.76e+01,
1106,2.76e+01,
1107,2.76e+01,
1108,2.76e+01,
1109,2.76e+01,
1110,2.76e+01,
1111,2.76e+01,
1112,2.76e+01,
1113,2.76e+01,
1114,2.76e+01,
1115,2.76e+01,
1116,2.76e+01,
1117,2.76e+01,
1118,2.68e+01,
1119,2.68e+01,
1120,2.68e+01,
1121,2.68e+01,
1122,2.68e+01,
1123,2.68e+01,
1124,2.68e+01,
1125,2.68e+01,
1126,2.68e+01,
1127,2.68e+01,
1128,2.68e+01,
1129,2.68e+01,
1130,2.68e+01,
1131,2.68e+01,
1132,2.68e+01,
1133,2.68e+01,
1134,2.68e+01,
1135,2.68e+01,
1136,2.68e+01,
1137,2.68e+01,
1138,2.68e+01,
1139,2.68e+01,
1140,2.68e+01,
1141,2.68e+01,
1142,2.76e+01,
1143,2.76e+01,
1144,2.76e+01,
1145,2.76e+01,
1146,2.76e+01,
1147,2.76e+01,
1148,2.76e+01,
1149,2.76e+01,
1150,2.76e+01,
1151,2.76e+01,
1152,2.76e+01,
1153,2.76e+01,
1154,2.76e+01,
1155,2.76e+01,
1156,2.76e+01,
1157,2.68e+01,
1158,2.68e+01,
1159,2.68e+01,
1160,2.68e+01,
1161,2.68e+01,
1162,2.68e+01,
1163,2.68e+01,
1164,2.68e+01,
1165,2.68e+01,
1166,2.68e+01,
1167,2.68e+01,
1168,2.68e+01,
1169,2.68e+01,
1170,2.68e+01,
1171,2.68e+01,
1172,2.68e+01,
1173,2.68e+01,
1174,2.68e+01,
1175,2.68e+01,
1176,2.68e+01,
1177,2.68e+01,
1178,2.68e+01,
1179,2.68e+01,
1180,2.76e+01,
1181,2.68e+01,
1182,2.76e+01,
1183,2.76e+01,
1184,2.76e+01,
1185,2.76e+01,
1186,2.76e+01,
1187,2.76e+01,
1188,2.76e+01,
1189,2.76e+01,
1190,2.76e+01,
1191,2.76e+01,
1192,2.76e+01,
1193,2.76e+01,
1194,2.68e+01,
1195,2.68e+01,
1196,2.68e+01,
1197,2.68e+01,
1198,2.68e+01,
1199,2.68e+01,
1200,2.68e+01,
1201,2.68e+01,
1202,2.68e+01,
1203,2.68e+01,
1204,2.68e+01,
1205,2.68e+01,
1206,2.68e+01,
1207,2.68e+01,
1208,2.68e+01,
1209,2.68e+01,
1210,2.68e+01,
1211,2.68e+01,
1212,2.68e+01,
1213,2.68e+01,
1214,2.68e+01,
1215,2.68e+01,
1216,2.68e+01,
1217,2.68e+01,
1218,2.68e+01,
1219,2.68e+01,
1220,2.76e+01,
1221,2.76e+01,
1222,2.76e+01,
1223,2.76e+01,
1224,2.76e+01,
1225,2.76e+01,
1226,2.76e+01,
1227,2.76e+01,
1228,2.76e+01,
1229,2.76e+01,
1230,2.76e+01,
1231,2.76e+01,
1232,2.76e+01,
1233,2.68e+01,
1234,2.68e+01,
1235,2.68e+01,
1236,2.68e+01,
1237,2.68e+01,
1238,2.68e+01,
1239,2.68e+01,
1240,2.68e+01,
1241,2.68e+01,
1242,2.68e+01,
1243,2.68e+01,
1244,2.68e+01,
1245,2.68e+01,
1246,2.68e+01,
1247,2.68e+01,
1248,2.68e+01,
1249,2.68e+01,
1250,2.68e+01,
1251,2.68e+01,
1252,2.68e+01,
1253,2.68e+01,
1254,2.68e+01,
1255,2.68e+01,
1256,2.68e+01,
1257,2.68e+01,
1258,2.68e+01,
1259,2.68e+01,
1260,2.76e+01,
1261,2.68e+01,
1262,2.76e+01,
1263,2.68e+01,
1264,2.76e+01,
1265,2.68e+01,
1266,2.76e+01,
1267,2.68e+01,
1268,2.76e+01,
1269,2.68e+01,
1270,2.68e+01,
1271,2.68e+01,
1272,2.68e+01,
1273,2.68e+01,
1274,2.68e+01,
1275,2.68e+01,
1276,2.68e+01,
1277,2.68e+01,
1278,2.68e+01,
1279,2.68e+01,
1280,2.68e+01,
1281,2.68e+01,
1282,2.68e+01,
1283,2.68e+01,
1284,2.68e+01,
1285,2.68e+01,
1286,2.68e+01,
1287,2.68e+01,
1288,2.68e+01,
1289,2.68e+01,
1290,2.68e+01,
1291,2.68e+01,
1292,2.68e+01,
1293,2.68e+01,
1294,2.68e+01,
1295,2.68e+01,
1296,2.68e+01,
1297,2.68e+01,
1298,2.68e+01,
1299,2.76e+01,
1300,2.76e+01,
1301,2.68e+01,
1302,2.68e+01,
1303,2.76e+01,
1304,2.68e+01,
1305,2.68e+01,
1306,2.68e+01,
1307,2.68e+01,
1308,2.68e+01,
1309,2.68e+01,
1310,2.68e+01,
1311,2.68e+01,
1312,2.68e+01,
1313,2.68e+01,
1314,2.68e+01,
1315,2.68e+01,
1316,2.68e+01,
1317,2.68e+01,
1318,2.68e+01,
1319,2.68e+01,
1320,2.68e+01,
1321,2.68e+01,
1322,2.68e+01,
1323,2.68e+01,
1324,2.68e+01,
1325,2.68e+01,
1326,2.68e+01,
1327,2.68e+01,
1328,2.68e+01,
1329,2.68e+01,
1330,2.68e+01,
1331,2.68e+01,
1332,2.68e+01,
1333,2.68e+01,
1334,2.68e+01,
1335,2.68e+01,
1336,2.68e+01,
1337,2.76e+01,
1338,2.68e+01,
1339,2.68e+01,
1340,2.76e+01,
1341,2.68e+01,
1342,2.68e+01,
1343,2.68e+01,
1344,2.68e+01,
1345,2.68e+01,
1346,2.68e+01,
1347,2.68e+01,
1348,2.68e+01,
1349,2.68e+01,
1350,2.68e+01,
1351,2.68e+01,
1352,2.68e+01,
1353,2.68e+01,
1354,2.68e+01,
1355,2.68e+01,
1356,2.68e+01,
1357,2.68e+01,
1358,2.68e+01,
1359,2.68e+01,
1360,2.68e+01,
1361,2.68e+01,
1362,2.68e+01,
1363,2.68e+01,
1364,2.68e+01,
1365,2.68e+01,
1366,2.68e+01,
1367,2.68e+01,
1368,2.68e+01,
1369,2.68e+01,
1370,2.68e+01,
1371,2.68e+01,
1372,2.68e+01,
1373,2.68e+01,
1374,2.68e+01,
1375,2.68e+01,
1376,2.68e+01,
1377,2.68e+01,
1378,2.68e+01,
1379,2.68e+01,
1380,2.68e+01,
1381,2.68e+01,
1382,2.68e+01,
1383,2.68e+01,
1384,2.68e+01,
1385,2.68e+01,
1386,2.68e+01,
1387,2.68e+01,
