Lab6/Data/tsk2_1.csv

X,CH1,Start,Increment,
Sequence,Volt,-9.599997e-07,2.000000e-09
0,-8.00e-01,
1,-8.00e-01,
2,-8.00e-01,
3,-1.60e+00,
4,-8.00e-01,
5,-8.00e-01,
6,-8.00e-01,
7,-1.60e+00,
8,-8.00e-01,
9,-8.00e-01,
10,-8.00e-01,
11,-1.60e+00,
12,-8.00e-01,
13,-8.00e-01,
14,-8.00e-01,
15,-1.60e+00,
16,-8.00e-01,
17,-8.00e-01,
18,-8.00e-01,
19,-1.60e+00,
20,-8.00e-01,
21,-8.00e-01,
22,-8.00e-01,
23,-1.60e+00,
24,-8.00e-01,
25,-8.00e-01,
26,-8.00e-01,
27,-1.60e+00,
28,-8.00e-01,
29,-8.00e-01,
30,-8.00e-01,
31,-1.60e+00,
32,-8.00e-01,
33,-8.00e-01,
34,-8.00e-01,
35,-1.60e+00,
36,-8.00e-01,
37,-8.00e-01,
38,-8.00e-01,
39,-1.60e+00,
40,-8.00e-01,
41,-8.00e-01,
42,-8.00e-01,
43,-1.60e+00,
44,-8.00e-01,
45,-8.00e-01,
46,-8.00e-01,
47,-1.60e+00,
48,-8.00e-01,
49,-8.00e-01,
50,-8.00e-01,
51,-1.60e+00,
52,-8.00e-01,
53,-8.00e-01,
54,-8.00e-01,
55,-1.60e+00,
56,-8.00e-01,
57,-8.00e-01,
58,-8.00e-01,
59,-1.60e+00,
60,-8.00e-01,
61,-8.00e-01,
62,-1.74e-04,
63,-1.60e+00,
64,-8.00e-01,
65,-8.00e-01,
66,-8.00e-01,
67,-1.60e+00,
68,-8.00e-01,
69,-8.00e-01,
70,-8.00e-01,
71,-1.60e+00,
72,-8.00e-01,
73,-8.00e-01,
74,-8.00e-01,
75,-1.60e+00,
76,-8.00e-01,
77,-8.00e-01,
78,-8.00e-01,
79,-1.60e+00,
80,-8.00e-01,
81,-8.00e-01,
82,-8.00e-01,
83,-1.60e+00,
84,-8.00e-01,
85,-8.00e-01,
86,-8.00e-01,
87,-1.60e+00,
88,-8.00e-01,
89,-8.00e-01,
90,-8.00e-01,
91,-1.60e+00,
92,-8.00e-01,
93,-8.00e-01,
94,-8.00e-01,
95,-1.60e+00,
96,-8.00e-01,
97,-8.00e-01,
98,-8.00e-01,
99,-1.60e+00,
100,-8.00e-01,
101,-8.00e-01,
102,-8.00e-01,
103,-1.60e+00,
104,-8.00e-01,
105,-8.00e-01,
106,-8.00e-01,
107,-1.60e+00,
108,-8.00e-01,
109,-8.00e-01,
110,-8.00e-01,
111,-1.60e+00,
112,-8.00e-01,
113,-8.00e-01,
114,-8.00e-01,
115,-1.60e+00,
116,-8.00e-01,
117,-8.00e-01,
118,-8.00e-01,
119,-1.60e+00,
120,-8.00e-01,
121,-8.00e-01,
122,-8.00e-01,
123,-1.60e+00,
124,-8.00e-01,
125,-8.00e-01,
126,-8.00e-01,
127,-1.60e+00,
128,-8.00e-01,
129,-8.00e-01,
130,-8.00e-01,
131,-1.60e+00,
132,-8.00e-01,
133,-8.00e-01,
134,-8.00e-01,
135,-1.60e+00,
136,-8.00e-01,
137,-8.00e-01,
138,-8.00e-01,
139,-1.60e+00,
140,-8.00e-01,
141,-8.00e-01,
142,-8.00e-01,
143,-1.60e+00,
144,-8.00e-01,
145,-8.00e-01,
146,-8.00e-01,
147,-1.60e+00,
148,-8.00e-01,
149,-8.00e-01,
150,-8.00e-01,
151,-1.60e+00,
152,-8.00e-01,
153,-8.00e-01,
154,-8.00e-01,
155,-1.60e+00,
156,-8.00e-01,
157,-8.00e-01,
158,-8.00e-01,
159,-8.00e-01,
160,-8.00e-01,
161,-8.00e-01,
162,-8.00e-01,
163,-1.60e+00,
164,-8.00e-01,
165,-8.00e-01,
166,-8.00e-01,
167,-1.60e+00,
168,-8.00e-01,
169,-8.00e-01,
170,-8.00e-01,
171,-1.60e+00,
172,-8.00e-01,
173,-8.00e-01,
174,-8.00e-01,
175,-1.60e+00,
176,-8.00e-01,
177,-8.00e-01,
178,-8.00e-01,
179,-1.60e+00,
180,-8.00e-01,
181,-8.00e-01,
182,-8.00e-01,
183,-1.60e+00,
184,-8.00e-01,
185,-8.00e-01,
186,-8.00e-01,
187,-1.60e+00,
188,-8.00e-01,
189,-8.00e-01,
190,-8.00e-01,
191,-1.60e+00,
192,-8.00e-01,
193,-8.00e-01,
194,-8.00e-01,
195,-1.60e+00,
196,-8.00e-01,
197,-8.00e-01,
198,-8.00e-01,
199,-1.60e+00,
200,-8.00e-01,
201,-8.00e-01,
202,-8.00e-01,
203,-1.60e+00,
204,-8.00e-01,
205,-8.00e-01,
206,-8.00e-01,
207,-1.60e+00,
208,-8.00e-01,
209,-8.00e-01,
210,-8.00e-01,
211,-1.60e+00,
212,-8.00e-01,
213,-8.00e-01,
214,-8.00e-01,
215,-1.60e+00,
216,-8.00e-01,
217,-8.00e-01,
218,-8.00e-01,
219,-1.60e+00,
220,-8.00e-01,
221,-8.00e-01,
222,-8.00e-01,
223,-1.60e+00,
224,-8.00e-01,
225,-8.00e-01,
226,-8.00e-01,
227,-1.60e+00,
228,-8.00e-01,
229,-8.00e-01,
230,-8.00e-01,
231,-1.60e+00,
232,-8.00e-01,
233,-8.00e-01,
234,-8.00e-01,
235,-1.60e+00,
236,-8.00e-01,
237,-8.00e-01,
238,-8.00e-01,
239,-1.60e+00,
240,-8.00e-01,
241,-8.00e-01,
242,-8.00e-01,
243,-1.60e+00,
244,-8.00e-01,
245,-8.00e-01,
246,-8.00e-01,
247,-1.60e+00,
248,-8.00e-01,
249,-8.00e-01,
250,-8.00e-01,
251,-1.60e+00,
252,-8.00e-01,
253,-8.00e-01,
254,-8.00e-01,
255,-1.60e+00,
256,-8.00e-01,
257,-8.00e-01,
258,-8.00e-01,
259,-1.60e+00,
260,-8.00e-01,
261,-8.00e-01,
262,-1.74e-04,
263,-1.60e+00,
264,-8.00e-01,
265,-8.00e-01,
266,-8.00e-01,
267,-8.00e-01,
268,-8.00e-01,
269,-8.00e-01,
270,-8.00e-01,
271,-1.60e+00,
272,-8.00e-01,
273,-8.00e-01,
274,-8.00e-01,
275,-1.60e+00,
276,-8.00e-01,
277,-8.00e-01,
278,-8.00e-01,
279,-1.60e+00,
280,-8.00e-01,
281,-8.00e-01,
282,-8.00e-01,
283,-1.60e+00,
284,-8.00e-01,
285,-8.00e-01,
286,-8.00e-01,
287,-1.60e+00,
288,-8.00e-01,
289,-8.00e-01,
290,-8.00e-01,
291,-1.60e+00,
292,-8.00e-01,
293,-8.00e-01,
294,-8.00e-01,
295,-1.60e+00,
296,-8.00e-01,
297,-8.00e-01,
298,-8.00e-01,
299,-1.60e+00,
300,-8.00e-01,
301,-8.00e-01,
302,-8.00e-01,
303,-1.60e+00,
304,-8.00e-01,
305,-8.00e-01,
306,-8.00e-01,
307,-1.60e+00,
308,-8.00e-01,
309,-8.00e-01,
310,-8.00e-01,
311,-1.60e+00,
312,-8.00e-01,
313,-8.00e-01,
314,-8.00e-01,
315,-1.60e+00,
316,-8.00e-01,
317,-8.00e-01,
318,-8.00e-01,
319,-8.00e-01,
320,-8.00e-01,
321,-8.00e-01,
322,-8.00e-01,
323,-1.60e+00,
324,-8.00e-01,
325,-8.00e-01,
326,-8.00e-01,
327,-1.60e+00,
328,-8.00e-01,
329,-8.00e-01,
330,-8.00e-01,
331,-1.60e+00,
332,-8.00e-01,
333,-8.00e-01,
334,-8.00e-01,
335,-1.60e+00,
336,-8.00e-01,
337,-8.00e-01,
338,-8.00e-01,
339,-1.60e+00,
340,-8.00e-01,
341,-8.00e-01,
342,-8.00e-01,
343,-1.60e+00,
344,-8.00e-01,
345,-8.00e-01,
346,-8.00e-01,
347,-1.60e+00,
348,-8.00e-01,
349,-8.00e-01,
350,-8.00e-01,
351,-1.60e+00,
352,-8.00e-01,
353,-8.00e-01,
354,-8.00e-01,
355,-1.60e+00,
356,-8.00e-01,
357,-8.00e-01,
358,-8.00e-01,
359,-8.00e-01,
360,-8.00e-01,
361,-8.00e-01,
362,-8.00e-01,
363,-1.60e+00,
364,-8.00e-01,
365,-8.00e-01,
366,-8.00e-01,
367,-1.60e+00,
368,-8.00e-01,
369,-8.00e-01,
370,-8.00e-01,
371,-8.00e-01,
372,-8.00e-01,
373,-8.00e-01,
374,-8.00e-01,
375,-1.60e+00,
376,-8.00e-01,
377,-8.00e-01,
378,-8.00e-01,
379,-8.00e-01,
380,-8.00e-01,
381,-8.00e-01,
382,-8.00e-01,
383,-8.00e-01,
384,-8.00e-01,
385,-8.00e-01,
386,-1.74e-04,
387,-8.00e-01,
388,-8.00e-01,
389,-8.00e-01,
390,-1.74e-04,
391,-8.00e-01,
392,-1.74e-04,
393,-1.74e-04,
394,-1.74e-04,
395,-8.00e-01,
396,-1.74e-04,
397,-1.74e-04,
398,1.60e+00,
399,-1.74e-04,
400,1.60e+00,
401,1.60e+00,
402,1.60e+00,
403,-1.74e-04,
404,1.60e+00,
405,1.60e+00,
406,2.40e+00,
407,1.60e+00,
408,2.40e+00,
409,2.40e+00,
410,2.40e+00,
411,2.40e+00,
412,2.40e+00,
413,3.20e+00,
414,3.20e+00,
415,2.40e+00,
416,3.20e+00,
417,3.20e+00,
418,4.00e+00,
419,3.20e+00,
420,4.00e+00,
421,4.00e+00,
422,4.00e+00,
423,4.00e+00,
424,4.00e+00,
425,4.80e+00,
426,4.80e+00,
427,4.80e+00,
428,4.80e+00,
429,5.60e+00,
430,5.60e+00,
431,5.60e+00,
432,5.60e+00,
433,5.60e+00,
434,6.40e+00,
435,6.40e+00,
436,7.20e+00,
437,7.20e+00,
438,8.00e+00,
439,8.00e+00,
440,9.60e+00,
441,1.04e+01,
442,1.12e+01,
443,1.20e+01,
444,1.44e+01,
445,1.68e+01,
446,1.84e+01,
447,2.08e+01,
448,2.40e+01,
449,2.80e+01,
450,3.12e+01,
451,3.52e+01,
452,4.00e+01,
453,4.40e+01,
454,4.72e+01,
455,5.28e+01,
456,5.60e+01,
457,6.00e+01,
458,6.40e+01,
459,6.80e+01,
460,7.04e+01,
461,7.28e+01,
462,7.44e+01,
463,7.92e+01,
464,7.92e+01,
465,8.00e+01,
466,8.08e+01,
467,8.16e+01,
468,8.08e+01,
469,7.92e+01,
470,7.68e+01,
471,7.36e+01,
472,6.88e+01,
473,6.24e+01,
474,5.60e+01,
475,4.88e+01,
476,4.24e+01,
477,3.44e+01,
478,2.88e+01,
479,2.32e+01,
480,1.92e+01,
481,1.60e+01,
482,1.28e+01,
483,1.04e+01,
484,8.80e+00,
485,8.00e+00,
486,7.20e+00,
487,6.40e+00,
488,6.40e+00,
489,6.40e+00,
490,7.20e+00,
491,7.20e+00,
492,8.00e+00,
493,8.80e+00,
494,1.04e+01,
495,1.20e+01,
496,1.52e+01,
497,1.76e+01,
498,2.08e+01,
499,2.48e+01,
500,3.04e+01,
501,3.52e+01,
502,4.16e+01,
503,4.72e+01,
504,5.36e+01,
505,5.76e+01,
506,6.16e+01,
507,6.56e+01,
508,6.64e+01,
509,6.56e+01,
510,6.40e+01,
511,6.08e+01,
512,5.60e+01,
513,5.04e+01,
514,4.56e+01,
515,4.08e+01,
516,3.44e+01,
517,2.96e+01,
518,2.48e+01,
519,2.08e+01,
520,1.76e+01,
521,1.60e+01,
522,1.28e+01,
523,1.12e+01,
524,1.04e+01,
525,9.60e+00,
526,9.60e+00,
527,8.80e+00,
528,8.80e+00,
529,9.60e+00,
530,1.04e+01,
531,1.04e+01,
532,1.20e+01,
533,1.28e+01,
534,1.60e+01,
535,1.76e+01,
536,2.08e+01,
537,2.40e+01,
538,2.80e+01,
539,3.20e+01,
540,3.68e+01,
541,4.16e+01,
542,4.56e+01,
543,5.04e+01,
544,5.36e+01,
545,5.60e+01,
546,5.76e+01,
547,5.92e+01,
548,5.76e+01,
549,5.60e+01,
550,5.36e+01,
551,4.96e+01,
552,4.56e+01,
553,4.16e+01,
554,3.68e+01,
555,3.28e+01,
556,2.88e+01,
557,2.48e+01,
558,2.16e+01,
559,1.92e+01,
560,1.68e+01,
561,1.52e+01,
562,1.44e+01,
563,1.20e+01,
564,1.20e+01,
565,1.20e+01,
566,1.20e+01,
567,1.12e+01,
568,1.20e+01,
569,1.28e+01,
570,1.44e+01,
571,1.60e+01,
572,1.76e+01,
573,1.92e+01,
574,2.16e+01,
575,2.40e+01,
576,2.80e+01,
577,3.12e+01,
578,3.44e+01,
579,3.92e+01,
580,4.24e+01,
581,4.56e+01,
582,4.80e+01,
583,5.04e+01,
584,5.20e+01,
585,5.28e+01,
586,5.28e+01,
587,5.20e+01,
588,4.88e+01,
589,4.64e+01,
590,4.40e+01,
591,4.08e+01,
592,3.68e+01,
593,3.36e+01,
594,3.04e+01,
595,2.72e+01,
596,2.40e+01,
597,2.16e+01,
598,2.00e+01,
599,1.76e+01,
600,1.68e+01,
601,1.60e+01,
602,1.52e+01,
603,1.44e+01,
604,1.44e+01,
605,1.52e+01,
606,1.52e+01,
607,1.60e+01,
608,1.68e+01,
609,1.76e+01,
610,1.92e+01,
611,2.08e+01,
612,2.32e+01,
613,2.48e+01,
614,2.88e+01,
615,3.12e+01,
616,3.36e+01,
617,3.68e+01,
618,4.00e+01,
619,4.32e+01,
620,4.48e+01,
621,4.64e+01,
622,4.72e+01,
623,4.80e+01,
624,4.80e+01,
625,4.72e+01,
626,4.56e+01,
627,4.40e+01,
628,4.16e+01,
629,3.92e+01,
630,3.52e+01,
631,3.28e+01,
632,3.04e+01,
633,2.80e+01,
634,2.48e+01,
635,2.32e+01,
636,2.16e+01,
637,2.00e+01,
638,1.92e+01,
639,1.76e+01,
640,1.76e+01,
641,1.68e+01,
642,1.68e+01,
643,1.68e+01,
644,1.76e+01,
645,1.76e+01,
646,1.92e+01,
647,1.92e+01,
648,2.08e+01,
649,2.24e+01,
650,2.48e+01,
651,2.72e+01,
652,2.96e+01,
653,3.12e+01,
654,3.36e+01,
655,3.60e+01,
656,3.76e+01,
657,4.08e+01,
658,4.24e+01,
659,4.40e+01,
660,4.40e+01,
661,4.48e+01,
662,4.40e+01,
663,4.40e+01,
664,4.24e+01,
665,4.08e+01,
666,3.92e+01,
667,3.60e+01,
668,3.44e+01,
669,3.20e+01,
670,3.04e+01,
671,2.80e+01,
672,2.56e+01,
673,2.40e+01,
674,2.24e+01,
675,2.08e+01,
676,2.00e+01,
677,2.00e+01,
678,1.92e+01,
679,1.84e+01,
680,1.84e+01,
681,1.92e+01,
682,1.92e+01,
683,2.00e+01,
684,2.08e+01,
685,2.16e+01,
686,2.32e+01,
687,2.40e+01,
688,2.56e+01,
689,2.80e+01,
690,2.96e+01,
691,3.20e+01,
692,3.36e+01,
693,3.52e+01,
694,3.68e+01,
695,3.92e+01,
696,4.00e+01,
697,4.08e+01,
698,4.16e+01,
699,4.16e+01,
700,4.16e+01,
701,4.08e+01,
702,4.00e+01,
703,3.76e+01,
704,3.60e+01,
705,3.44e+01,
706,3.28e+01,
707,3.12e+01,
708,2.96e+01,
709,2.80e+01,
710,2.56e+01,
711,2.40e+01,
712,2.32e+01,
713,2.24e+01,
714,2.16e+01,
715,2.08e+01,
716,2.08e+01,
717,2.08e+01,
718,2.08e+01,
719,2.08e+01,
720,2.08e+01,
721,2.16e+01,
722,2.24e+01,
723,2.32e+01,
724,2.40e+01,
725,2.56e+01,
726,2.80e+01,
727,2.88e+01,
728,3.04e+01,
729,3.20e+01,
730,3.36e+01,
731,3.52e+01,
732,3.60e+01,
733,3.68e+01,
734,3.76e+01,
735,3.92e+01,
736,3.92e+01,
737,3.92e+01,
738,3.92e+01,
739,3.76e+01,
740,3.68e+01,
741,3.60e+01,
742,3.44e+01,
743,3.36e+01,
744,3.20e+01,
745,3.04e+01,
746,2.96e+01,
747,2.80e+01,
748,2.72e+01,
749,2.48e+01,
750,2.40e+01,
751,2.32e+01,
752,2.24e+01,
753,2.24e+01,
754,2.24e+01,
755,2.16e+01,
756,2.16e+01,
757,2.24e+01,
758,2.24e+01,
759,2.32e+01,
760,2.40e+01,
761,2.48e+01,
762,2.56e+01,
763,2.72e+01,
764,2.88e+01,
765,2.96e+01,
766,3.12e+01,
767,3.20e+01,
768,3.28e+01,
769,3.44e+01,
770,3.52e+01,
771,3.60e+01,
772,3.68e+01,
773,3.68e+01,
774,3.68e+01,
775,3.68e+01,
776,3.68e+01,
777,3.60e+01,
778,3.52e+01,
779,3.44e+01,
780,3.36e+01,
781,3.20e+01,
782,3.12e+01,
783,2.96e+01,
784,2.88e+01,
785,2.80e+01,
786,2.72e+01,
787,2.56e+01,
788,2.48e+01,
789,2.40e+01,
790,2.40e+01,
791,2.32e+01,
792,2.32e+01,
793,2.32e+01,
794,2.32e+01,
795,2.32e+01,
796,2.40e+01,
797,2.40e+01,
798,2.48e+01,
799,2.56e+01,
800,2.72e+01,
801,2.80e+01,
802,2.96e+01,
803,3.04e+01,
804,3.12e+01,
805,3.20e+01,
806,3.28e+01,
807,3.36e+01,
808,3.44e+01,
809,3.52e+01,
810,3.52e+01,
811,3.52e+01,
812,3.60e+01,
813,3.52e+01,
814,3.52e+01,
815,3.44e+01,
816,3.36e+01,
817,3.28e+01,
818,3.28e+01,
819,3.12e+01,
820,3.04e+01,
821,2.96e+01,
822,2.88e+01,
823,2.80e+01,
824,2.72e+01,
825,2.56e+01,
826,2.56e+01,
827,2.48e+01,
828,2.40e+01,
829,2.40e+01,
830,2.40e+01,
831,2.40e+01,
832,2.40e+01,
833,2.48e+01,
834,2.48e+01,
835,2.56e+01,
836,2.56e+01,
837,2.72e+01,
838,2.80e+01,
839,2.88e+01,
840,2.96e+01,
841,3.04e+01,
842,3.12e+01,
843,3.20e+01,
844,3.28e+01,
845,3.36e+01,
846,3.36e+01,
847,3.44e+01,
848,3.44e+01,
849,3.44e+01,
850,3.44e+01,
851,3.44e+01,
852,3.36e+01,
853,3.36e+01,
854,3.28e+01,
855,3.20e+01,
856,3.12e+01,
857,3.12e+01,
858,3.04e+01,
859,2.96e+01,
860,2.88e+01,
861,2.80e+01,
862,2.72e+01,
863,2.56e+01,
864,2.56e+01,
865,2.56e+01,
866,2.48e+01,
867,2.48e+01,
868,2.48e+01,
869,2.48e+01,
870,2.48e+01,
871,2.56e+01,
872,2.56e+01,
873,2.72e+01,
874,2.72e+01,
875,2.80e+01,
876,2.88e+01,
877,2.96e+01,
878,2.96e+01,
879,3.04e+01,
880,3.12e+01,
881,3.20e+01,
882,3.20e+01,
883,3.28e+01,
884,3.28e+01,
885,3.36e+01,
886,3.36e+01,
887,3.36e+01,
888,3.36e+01,
889,3.28e+01,
890,3.28e+01,
891,3.28e+01,
892,3.20e+01,
893,3.12e+01,
894,3.12e+01,
895,3.04e+01,
896,2.96e+01,
897,2.88e+01,
898,2.88e+01,
899,2.80e+01,
900,2.80e+01,
901,2.72e+01,
902,2.72e+01,
903,2.56e+01,
904,2.56e+01,
905,2.56e+01,
906,2.56e+01,
907,2.56e+01,
908,2.56e+01,
909,2.72e+01,
910,2.72e+01,
911,2.72e+01,
912,2.80e+01,
913,2.88e+01,
914,2.88e+01,
915,2.96e+01,
916,3.04e+01,
917,3.04e+01,
918,3.12e+01,
919,3.20e+01,
920,3.20e+01,
921,3.20e+01,
922,3.28e+01,
923,3.28e+01,
924,3.28e+01,
925,3.28e+01,
926,3.28e+01,
927,3.28e+01,
928,3.20e+01,
929,3.20e+01,
930,3.12e+01,
931,3.12e+01,
932,3.04e+01,
933,3.04e+01,
934,2.96e+01,
935,2.88e+01,
936,2.88e+01,
937,2.80e+01,
938,2.80e+01,
939,2.72e+01,
940,2.72e+01,
941,2.72e+01,
942,2.72e+01,
943,2.72e+01,
944,2.72e+01,
945,2.72e+01,
946,2.72e+01,
947,2.72e+01,
948,2.80e+01,
949,2.80e+01,
950,2.88e+01,
951,2.88e+01,
952,2.96e+01,
953,2.96e+01,
954,3.04e+01,
955,3.04e+01,
956,3.12e+01,
957,3.12e+01,
958,3.20e+01,
959,3.20e+01,
960,3.20e+01,
961,3.20e+01,
962,3.20e+01,
963,3.20e+01,
964,3.20e+01,
965,3.20e+01,
966,3.20e+01,
967,3.12e+01,
968,3.12e+01,
969,3.04e+01,
970,3.04e+01,
971,2.96e+01,
972,2.96e+01,
973,2.88e+01,
974,2.88e+01,
975,2.80e+01,
976,2.80e+01,
977,2.80e+01,
978,2.80e+01,
979,2.72e+01,
980,2.72e+01,
981,2.72e+01,
982,2.72e+01,
983,2.72e+01,
984,2.80e+01,
985,2.80e+01,
986,2.80e+01,
987,2.88e+01,
988,2.88e+01,
989,2.96e+01,
990,2.96e+01,
991,2.96e+01,
992,3.04e+01,
993,3.04e+01,
994,3.12e+01,
995,3.12e+01,
996,3.12e+01,
997,3.12e+01,
998,3.20e+01,
999,3.20e+01,
1000,3.20e+01,
1001,3.20e+01,
1002,3.12e+01,
1003,3.12e+01,
1004,3.12e+01,
1005,3.12e+01,
1006,3.04e+01,
1007,3.04e+01,
1008,2.96e+01,
1009,2.96e+01,
1010,2.96e+01,
1011,2.88e+01,
1012,2.88e+01,
1013,2.88e+01,
1014,2.80e+01,
1015,2.80e+01,
1016,2.80e+01,
1017,2.80e+01,
1018,2.80e+01,
1019,2.80e+01,
1020,2.80e+01,
1021,2.80e+01,
1022,2.80e+01,
1023,2.80e+01,
1024,2.88e+01,
1025,2.88e+01,
1026,2.96e+01,
1027,2.96e+01,
1028,2.96e+01,
1029,3.04e+01,
1030,3.04e+01,
1031,3.04e+01,
1032,3.12e+01,
1033,3.12e+01,
1034,3.12e+01,
1035,3.12e+01,
1036,3.12e+01,
1037,3.12e+01,
1038,3.12e+01,
1039,3.12e+01,
1040,3.12e+01,
1041,3.12e+01,
1042,3.12e+01,
1043,3.04e+01,
1044,3.04e+01,
1045,3.04e+01,
1046,2.96e+01,
1047,2.96e+01,
1048,2.96e+01,
1049,2.88e+01,
1050,2.88e+01,
1051,2.88e+01,
1052,2.88e+01,
1053,2.80e+01,
1054,2.80e+01,
1055,2.80e+01,
1056,2.80e+01,
1057,2.80e+01,
1058,2.80e+01,
1059,2.88e+01,
1060,2.88e+01,
1061,2.88e+01,
1062,2.88e+01,
1063,2.88e+01,
1064,2.96e+01,
1065,2.96e+01,
1066,2.96e+01,
1067,3.04e+01,
1068,3.04e+01,
1069,3.04e+01,
1070,3.04e+01,
1071,3.04e+01,
1072,3.12e+01,
1073,3.12e+01,
1074,3.12e+01,
1075,3.12e+01,
1076,3.12e+01,
1077,3.12e+01,
1078,3.04e+01,
1079,3.04e+01,
1080,3.04e+01,
1081,3.04e+01,
1082,3.04e+01,
1083,2.96e+01,
1084,2.96e+01,
1085,2.96e+01,
1086,2.96e+01,
1087,2.88e+01,
1088,2.88e+01,
1089,2.88e+01,
1090,2.88e+01,
1091,2.88e+01,
1092,2.88e+01,
1093,2.88e+01,
1094,2.88e+01,
1095,2.88e+01,
1096,2.88e+01,
1097,2.88e+01,
1098,2.88e+01,
1099,2.88e+01,
1100,2.88e+01,
1101,2.96e+01,
1102,2.96e+01,
1103,2.96e+01,
1104,2.96e+01,
1105,3.04e+01,
1106,3.04e+01,
1107,3.04e+01,
1108,3.04e+01,
1109,3.04e+01,
1110,3.04e+01,
1111,3.04e+01,
1112,3.04e+01,
1113,3.04e+01,
1114,3.12e+01,
1115,3.04e+01,
1116,3.04e+01,
1117,3.04e+01,
1118,3.04e+01,
1119,3.04e+01,
1120,2.96e+01,
1121,2.96e+01,
1122,2.96e+01,
1123,2.96e+01,
1124,2.96e+01,
1125,2.88e+01,
1126,2.88e+01,
1127,2.88e+01,
1128,2.88e+01,
1129,2.88e+01,
1130,2.88e+01,
1131,2.88e+01,
1132,2.88e+01,
1133,2.88e+01,
1134,2.88e+01,
1135,2.88e+01,
1136,2.88e+01,
1137,2.96e+01,
1138,2.96e+01,
1139,2.96e+01,
1140,2.96e+01,
1141,2.96e+01,
1142,2.96e+01,
1143,3.04e+01,
1144,3.04e+01,
1145,3.04e+01,
1146,3.04e+01,
1147,3.04e+01,
1148,3.04e+01,
1149,3.04e+01,
1150,3.04e+01,
1151,3.04e+01,
1152,3.04e+01,
1153,3.04e+01,
1154,3.04e+01,
1155,3.04e+01,
1156,3.04e+01,
1157,2.96e+01,
1158,2.96e+01,
1159,2.96e+01,
1160,2.96e+01,
1161,2.96e+01,
1162,2.96e+01,
1163,2.88e+01,
1164,2.88e+01,
1165,2.88e+01,
1166,2.88e+01,
1167,2.88e+01,
1168,2.88e+01,
1169,2.88e+01,
1170,2.88e+01,
1171,2.88e+01,
1172,2.88e+01,
1173,2.88e+01,
1174,2.96e+01,
1175,2.96e+01,
1176,2.96e+01,
1177,2.96e+01,
1178,2.96e+01,
1179,2.96e+01,
1180,2.96e+01,
1181,3.04e+01,
1182,3.04e+01,
1183,3.04e+01,
1184,3.04e+01,
1185,3.04e+01,
1186,3.04e+01,
1187,3.04e+01,
1188,3.04e+01,
1189,3.04e+01,
1190,3.04e+01,
1191,3.04e+01,
1192,3.04e+01,
1193,3.04e+01,
1194,3.04e+01,
1195,2.96e+01,
1196,2.96e+01,
1197,2.96e+01,
1198,2.96e+01,
1199,2.96e+01,
1200,2.96e+01,
1201,2.88e+01,
1202,2.88e+01,
1203,2.88e+01,
1204,2.88e+01,
1205,2.88e+01,
1206,2.88e+01,
1207,2.88e+01,
1208,2.88e+01,
1209,2.88e+01,
1210,2.96e+01,
1211,2.96e+01,
1212,2.96e+01,
1213,2.96e+01,
1214,2.96e+01,
1215,2.96e+01,
1216,2.96e+01,
1217,2.96e+01,
1218,3.04e+01,
1219,3.04e+01,
1220,3.04e+01,
1221,3.04e+01,
1222,3.04e+01,
1223,3.04e+01,
1224,3.04e+01,
1225,3.04e+01,
1226,3.04e+01,
1227,3.04e+01,
1228,3.04e+01,
1229,3.04e+01,
1230,3.04e+01,
1231,2.96e+01,
1232,2.96e+01,
1233,2.96e+01,
1234,2.96e+01,
1235,2.96e+01,
1236,2.96e+01,
1237,2.96e+01,
1238,2.96e+01,
1239,2.88e+01,
1240,2.88e+01,
1241,2.88e+01,
1242,2.96e+01,
1243,2.88e+01,
1244,2.88e+01,
1245,2.96e+01,
1246,2.88e+01,
1247,2.88e+01,
1248,2.88e+01,
1249,2.96e+01,
1250,2.96e+01,
1251,2.96e+01,
1252,2.96e+01,
1253,2.96e+01,
1254,2.96e+01,
1255,2.96e+01,
1256,2.96e+01,
1257,2.96e+01,
1258,3.04e+01,
1259,3.04e+01,
1260,3.04e+01,
1261,3.04e+01,
1262,3.04e+01,
1263,3.04e+01,
1264,3.04e+01,
1265,3.04e+01,
1266,3.04e+01,
1267,3.04e+01,
1268,2.96e+01,
1269,2.96e+01,
1270,2.96e+01,
1271,2.96e+01,
1272,2.96e+01,
1273,2.96e+01,
1274,2.96e+01,
1275,2.96e+01,
1276,2.96e+01,
1277,2.96e+01,
1278,2.96e+01,
1279,2.96e+01,
1280,2.88e+01,
1281,2.88e+01,
1282,2.96e+01,
1283,2.88e+01,
1284,2.96e+01,
1285,2.96e+01,
1286,2.96e+01,
1287,2.96e+01,
1288,2.96e+01,
1289,2.96e+01,
1290,2.96e+01,
1291,2.96e+01,
1292,2.96e+01,
1293,2.96e+01,
1294,2.96e+01,
1295,2.96e+01,
1296,3.04e+01,
1297,3.04e+01,
1298,3.04e+01,
1299,3.04e+01,
1300,3.04e+01,
1301,3.04e+01,
1302,2.96e+01,
1303,2.96e+01,
1304,3.04e+01,
1305,2.96e+01,
1306,2.96e+01,
1307,2.96e+01,
1308,2.96e+01,
1309,2.96e+01,
1310,2.96e+01,
1311,2.96e+01,
1312,2.96e+01,
1313,2.96e+01,
1314,2.96e+01,
1315,2.96e+01,
1316,2.96e+01,
1317,2.96e+01,
1318,2.96e+01,
1319,2.96e+01,
1320,2.96e+01,
1321,2.96e+01,
1322,2.96e+01,
1323,2.96e+01,
1324,2.96e+01,
1325,2.96e+01,
1326,2.96e+01,
1327,2.96e+01,
1328,2.96e+01,
1329,2.96e+01,
1330,2.96e+01,
1331,2.96e+01,
1332,2.96e+01,
1333,2.96e+01,
1334,3.04e+01,
1335,2.96e+01,
1336,3.04e+01,
1337,3.04e+01,
1338,3.04e+01,
1339,2.96e+01,
1340,2.96e+01,
1341,2.96e+01,
1342,2.96e+01,
1343,2.96e+01,
1344,2.96e+01,
1345,2.96e+01,
1346,2.96e+01,
1347,2.96e+01,
1348,2.96e+01,
1349,2.96e+01,
1350,2.96e+01,
1351,2.96e+01,
1352,2.96e+01,
1353,2.96e+01,
1354,2.96e+01,
1355,2.96e+01,
1356,2.96e+01,
1357,2.96e+01,
1358,2.96e+01,
1359,2.96e+01,
1360,2.96e+01,
1361,2.96e+01,
1362,2.96e+01,
1363,2.96e+01,
1364,2.96e+01,
1365,2.96e+01,
1366,2.96e+01,
1367,2.96e+01,
1368,2.96e+01,
1369,2.96e+01,
1370,2.96e+01,
1371,2.96e+01,
1372,3.04e+01,
1373,2.96e+01,
1374,3.04e+01,
1375,3.04e+01,
