Lab 3/3D_SH_9.csv

X,CH1,Start,Increment,
Sequence,Volt,-2.598000e-05,5.000000e-08
0,7.60e-02,
1,8.40e-02,
2,8.00e-02,
3,8.80e-02,
4,8.40e-02,
5,9.20e-02,
6,8.80e-02,
7,9.60e-02,
8,9.20e-02,
9,1.00e-01,
10,9.20e-02,
11,1.04e-01,
12,9.60e-02,
13,1.04e-01,
14,1.00e-01,
15,1.08e-01,
16,1.04e-01,
17,1.16e-01,
18,1.08e-01,
19,1.16e-01,
20,1.12e-01,
21,1.20e-01,
22,1.12e-01,
23,1.24e-01,
24,1.16e-01,
25,1.24e-01,
26,1.20e-01,
27,1.28e-01,
28,1.24e-01,
29,1.32e-01,
30,1.24e-01,
31,1.36e-01,
32,1.28e-01,
33,1.40e-01,
34,1.40e-01,
35,1.32e-01,
36,1.36e-01,
37,1.44e-01,
38,1.40e-01,
39,1.48e-01,
40,1.40e-01,
41,1.52e-01,
42,1.44e-01,
43,1.56e-01,
44,1.48e-01,
45,1.60e-01,
46,1.52e-01,
47,1.60e-01,
48,1.56e-01,
49,1.64e-01,
50,1.56e-01,
51,1.68e-01,
52,1.68e-01,
53,1.60e-01,
54,1.64e-01,
55,1.72e-01,
56,1.64e-01,
57,1.76e-01,
58,1.68e-01,
59,1.80e-01,
60,1.72e-01,
61,1.84e-01,
62,1.76e-01,
63,1.84e-01,
64,1.80e-01,
65,1.88e-01,
66,1.80e-01,
67,1.92e-01,
68,1.84e-01,
69,1.96e-01,
70,1.84e-01,
71,2.00e-01,
72,2.00e-01,
73,1.88e-01,
74,1.96e-01,
75,2.04e-01,
76,1.96e-01,
77,2.08e-01,
78,2.00e-01,
79,2.08e-01,
80,2.00e-01,
81,2.12e-01,
82,2.04e-01,
83,2.16e-01,
84,2.08e-01,
85,2.20e-01,
86,2.12e-01,
87,2.24e-01,
88,2.16e-01,
89,2.24e-01,
90,2.16e-01,
91,2.28e-01,
92,2.20e-01,
93,2.28e-01,
94,2.24e-01,
95,2.32e-01,
96,2.24e-01,
97,2.36e-01,
98,2.28e-01,
99,2.40e-01,
100,2.32e-01,
101,2.44e-01,
102,2.36e-01,
103,2.44e-01,
104,2.36e-01,
105,2.48e-01,
106,2.40e-01,
107,2.52e-01,
108,2.44e-01,
109,2.56e-01,
110,2.44e-01,
111,2.56e-01,
112,1.44e-01,
113,2.52e-01,
114,2.32e-01,
115,2.56e-01,
116,2.56e-01,
117,2.44e-01,
118,-5.28e-01,
119,4.60e-01,
120,-5.28e-01,
121,4.20e-01,
122,3.44e-01,
123,-3.80e-01,
124,-2.68e-01,
125,2.36e-01,
126,-2.04e-01,
127,1.60e-01,
128,1.24e-01,
129,-1.36e-01,
130,-1.08e-01,
131,8.40e-02,
132,-7.60e-02,
133,6.00e-02,
134,4.40e-02,
135,-5.20e-02,
136,-4.40e-02,
137,2.40e-02,
138,-3.20e-02,
139,2.00e-02,
140,1.20e-02,
141,-2.00e-02,
142,8.00e-03,
143,-2.00e-02,
144,-1.60e-02,
145,4.00e-03,
146,4.00e-03,
147,-1.20e-02,
148,-1.20e-02,
149,0.00e+00,
150,0.00e+00,
151,-1.20e-02,
152,-8.00e-03,
153,0.00e+00,
154,-1.20e-02,
155,0.00e+00,
156,-8.00e-03,
157,0.00e+00,
158,-8.00e-03,
159,0.00e+00,
160,-8.00e-03,
161,0.00e+00,
162,-8.00e-03,
163,0.00e+00,
164,0.00e+00,
165,-1.20e-02,
166,-8.00e-03,
167,0.00e+00,
168,-8.00e-03,
169,0.00e+00,
170,-8.00e-03,
171,0.00e+00,
172,-8.00e-03,
173,0.00e+00,
174,-8.00e-03,
175,0.00e+00,
176,-8.00e-03,
177,0.00e+00,
178,-8.00e-03,
179,0.00e+00,
180,-8.00e-03,
181,0.00e+00,
182,-8.00e-03,
183,0.00e+00,
184,-8.00e-03,
185,0.00e+00,
186,0.00e+00,
187,-8.00e-03,
188,-8.00e-03,
189,0.00e+00,
190,-8.00e-03,
191,0.00e+00,
192,-4.00e-03,
193,-8.00e-03,
194,-4.00e-03,
195,-8.00e-03,
196,-8.00e-03,
197,0.00e+00,
198,-8.00e-03,
199,0.00e+00,
200,-8.00e-03,
201,0.00e+00,
202,-4.00e-03,
203,-8.00e-03,
204,-8.00e-03,
205,0.00e+00,
206,-8.00e-03,
207,0.00e+00,
208,-8.00e-03,
209,0.00e+00,
210,-8.00e-03,
211,0.00e+00,
212,-4.00e-03,
213,-8.00e-03,
214,-8.00e-03,
215,0.00e+00,
216,-8.00e-03,
217,-4.00e-03,
218,-8.00e-03,
219,0.00e+00,
220,-8.00e-03,
221,0.00e+00,
222,-8.00e-03,
223,0.00e+00,
224,-8.00e-03,
225,0.00e+00,
226,-4.00e-03,
227,-8.00e-03,
228,-4.00e-03,
229,-8.00e-03,
230,-4.00e-03,
231,-8.00e-03,
232,-8.00e-03,
233,-4.00e-03,
234,-8.00e-03,
235,-4.00e-03,
236,-4.00e-03,
237,-8.00e-03,
238,-8.00e-03,
239,0.00e+00,
240,-4.00e-03,
241,-8.00e-03,
242,-8.00e-03,
243,0.00e+00,
244,-8.00e-03,
245,0.00e+00,
246,-8.00e-03,
247,0.00e+00,
248,-8.00e-03,
249,-4.00e-03,
250,-4.00e-03,
251,-1.20e-02,
252,-8.00e-03,
253,0.00e+00,
254,-8.00e-03,
255,0.00e+00,
256,-8.00e-03,
257,0.00e+00,
258,-8.00e-03,
259,-4.00e-03,
260,-8.00e-03,
261,0.00e+00,
262,-8.00e-03,
263,0.00e+00,
264,-4.00e-03,
265,-1.20e-02,
266,-4.00e-03,
267,-1.20e-02,
268,-1.20e-02,
269,-4.00e-03,
270,-1.20e-02,
271,-4.00e-03,
272,-4.00e-03,
273,-1.20e-02,
274,0.00e+00,
275,-8.00e-03,
276,0.00e+00,
277,-8.00e-03,
278,0.00e+00,
279,-4.00e-03,
280,0.00e+00,
281,-8.00e-03,
282,-8.00e-03,
283,0.00e+00,
284,-4.00e-03,
285,-1.20e-02,
286,-4.00e-03,
287,-1.20e-02,
288,-1.20e-02,
289,-4.00e-03,
290,-4.00e-03,
291,-1.20e-02,
292,-8.00e-03,
293,0.00e+00,
294,-8.00e-03,
295,0.00e+00,
296,0.00e+00,
297,-8.00e-03,
298,0.00e+00,
299,-8.00e-03,
300,0.00e+00,
301,-8.00e-03,
302,-4.00e-03,
303,-8.00e-03,
304,-4.00e-03,
305,-1.20e-02,
306,-1.20e-02,
307,-4.00e-03,
308,-1.20e-02,
309,-4.00e-03,
310,-8.00e-03,
311,0.00e+00,
312,-8.00e-03,
313,0.00e+00,
314,0.00e+00,
315,-8.00e-03,
316,-4.00e-03,
317,0.00e+00,
318,0.00e+00,
319,-8.00e-03,
320,-8.00e-03,
321,0.00e+00,
322,-8.00e-03,
323,-4.00e-03,
324,-4.00e-03,
325,-1.20e-02,
326,-4.00e-03,
327,-1.20e-02,
328,-8.00e-03,
329,-4.00e-03,
330,-8.00e-03,
331,0.00e+00,
332,0.00e+00,
333,-8.00e-03,
334,-4.00e-03,
335,0.00e+00,
336,0.00e+00,
337,-8.00e-03,
338,0.00e+00,
339,-8.00e-03,
340,-8.00e-03,
341,0.00e+00,
342,-4.00e-03,
343,-1.20e-02,
344,-4.00e-03,
345,-1.20e-02,
346,-8.00e-03,
347,0.00e+00,
348,-8.00e-03,
349,0.00e+00,
350,-4.00e-03,
351,0.00e+00,
352,0.00e+00,
353,-8.00e-03,
354,-1.68e-01,
355,1.80e-01,
356,-1.24e-01,
357,1.44e-01,
358,7.20e-02,
359,-3.60e-02,
360,-1.20e-02,
361,3.60e-02,
362,4.00e-03,
363,2.40e-02,
364,2.40e-02,
365,1.20e-02,
366,2.40e-02,
367,1.60e-02,
368,2.40e-02,
369,3.20e-02,
370,2.40e-02,
371,3.20e-02,
372,2.80e-02,
373,3.60e-02,
374,3.20e-02,
375,4.00e-02,
376,3.60e-02,
377,4.40e-02,
378,4.00e-02,
379,4.80e-02,
380,4.40e-02,
381,5.20e-02,
382,4.80e-02,
383,5.60e-02,
384,4.80e-02,
385,6.00e-02,
386,5.20e-02,
387,6.40e-02,
388,5.60e-02,
389,6.80e-02,
390,6.00e-02,
391,6.80e-02,
392,6.40e-02,
393,7.20e-02,
394,6.40e-02,
395,7.60e-02,
396,7.20e-02,
397,8.00e-02,
398,7.20e-02,
399,8.40e-02,
400,7.60e-02,
401,8.40e-02,
402,8.00e-02,
403,8.80e-02,
404,8.40e-02,
405,9.20e-02,
406,8.80e-02,
407,9.60e-02,
408,9.20e-02,
409,1.00e-01,
410,9.20e-02,
411,1.04e-01,
412,9.60e-02,
413,1.04e-01,
414,1.00e-01,
415,1.12e-01,
416,1.04e-01,
417,1.12e-01,
418,1.08e-01,
419,1.16e-01,
420,1.08e-01,
421,1.20e-01,
422,1.12e-01,
423,1.24e-01,
424,1.16e-01,
425,1.24e-01,
426,1.20e-01,
427,1.28e-01,
428,1.24e-01,
429,1.32e-01,
430,1.24e-01,
431,1.36e-01,
432,1.40e-01,
433,1.28e-01,
434,1.32e-01,
435,1.40e-01,
436,1.36e-01,
437,1.44e-01,
438,1.40e-01,
439,1.48e-01,
440,1.44e-01,
441,1.52e-01,
442,1.44e-01,
443,1.52e-01,
444,1.48e-01,
445,1.60e-01,
446,1.52e-01,
447,1.60e-01,
448,1.52e-01,
449,1.64e-01,
450,1.64e-01,
451,1.56e-01,
452,1.60e-01,
453,1.72e-01,
454,1.64e-01,
455,1.72e-01,
456,1.64e-01,
457,1.76e-01,
458,1.80e-01,
459,1.68e-01,
460,1.72e-01,
461,1.84e-01,
462,1.76e-01,
463,1.84e-01,
464,1.80e-01,
465,1.88e-01,
466,1.80e-01,
467,1.92e-01,
468,1.84e-01,
469,1.96e-01,
470,1.88e-01,
471,1.96e-01,
472,1.88e-01,
473,2.04e-01,
474,1.92e-01,
475,2.04e-01,
476,1.96e-01,
477,2.04e-01,
478,2.00e-01,
479,2.08e-01,
480,2.04e-01,
481,2.12e-01,
482,2.04e-01,
483,2.16e-01,
484,2.08e-01,
485,2.20e-01,
486,2.12e-01,
487,2.24e-01,
488,2.12e-01,
489,2.24e-01,
490,2.16e-01,
491,2.28e-01,
492,2.20e-01,
493,2.32e-01,
494,2.24e-01,
495,2.32e-01,
496,2.24e-01,
497,2.36e-01,
498,2.28e-01,
499,2.40e-01,
500,2.28e-01,
501,2.40e-01,
502,2.44e-01,
503,2.32e-01,
504,2.36e-01,
505,2.48e-01,
506,2.40e-01,
507,2.52e-01,
508,2.40e-01,
509,2.56e-01,
510,2.44e-01,
511,2.56e-01,
512,2.52e-01,
513,1.44e-01,
514,2.32e-01,
515,2.56e-01,
516,2.44e-01,
517,2.60e-01,
518,-5.28e-01,
519,4.56e-01,
520,-5.28e-01,
521,4.20e-01,
522,3.44e-01,
523,-3.80e-01,
524,-2.96e-01,
525,2.40e-01,
526,1.68e-01,
527,-2.00e-01,
528,1.24e-01,
529,-1.36e-01,
530,-1.08e-01,
531,8.40e-02,
532,6.00e-02,
533,-7.60e-02,
534,4.40e-02,
535,-5.20e-02,
536,-4.00e-02,
537,2.40e-02,
538,2.00e-02,
539,-2.80e-02,
540,1.60e-02,
541,-2.00e-02,
542,-2.00e-02,
543,4.00e-03,
544,4.00e-03,
545,-1.60e-02,
546,-1.20e-02,
547,4.00e-03,
548,-1.20e-02,
549,0.00e+00,
550,0.00e+00,
551,-8.00e-03,
552,-8.00e-03,
553,0.00e+00,
554,0.00e+00,
555,-8.00e-03,
556,0.00e+00,
557,-8.00e-03,
558,-8.00e-03,
559,0.00e+00,
560,-8.00e-03,
561,0.00e+00,
562,0.00e+00,
563,-8.00e-03,
564,-8.00e-03,
565,0.00e+00,
566,-8.00e-03,
567,0.00e+00,
568,-8.00e-03,
569,0.00e+00,
570,-8.00e-03,
571,-4.00e-03,
572,-8.00e-03,
573,0.00e+00,
574,-8.00e-03,
575,0.00e+00,
576,-8.00e-03,
577,0.00e+00,
578,-8.00e-03,
579,0.00e+00,
580,-8.00e-03,
581,0.00e+00,
582,-4.00e-03,
583,-8.00e-03,
584,-8.00e-03,
585,0.00e+00,
586,-4.00e-03,
587,-8.00e-03,
588,-8.00e-03,
589,0.00e+00,
590,-8.00e-03,
591,0.00e+00,
592,-8.00e-03,
593,0.00e+00,
594,0.00e+00,
595,-8.00e-03,
596,-8.00e-03,
597,0.00e+00,
598,-8.00e-03,
599,0.00e+00,
600,-4.00e-03,
601,-8.00e-03,
602,-8.00e-03,
603,0.00e+00,
604,-4.00e-03,
605,-8.00e-03,
606,-8.00e-03,
607,0.00e+00,
608,-8.00e-03,
609,0.00e+00,
610,-4.00e-03,
611,-8.00e-03,
612,-8.00e-03,
613,0.00e+00,
614,0.00e+00,
615,-8.00e-03,
616,-4.00e-03,
617,-8.00e-03,
618,-8.00e-03,
619,0.00e+00,
620,-8.00e-03,
621,0.00e+00,
622,-8.00e-03,
623,-4.00e-03,
624,-8.00e-03,
625,0.00e+00,
626,-8.00e-03,
627,0.00e+00,
628,-8.00e-03,
629,-4.00e-03,
630,-8.00e-03,
631,0.00e+00,
632,-4.00e-03,
633,-8.00e-03,
634,-8.00e-03,
635,0.00e+00,
636,-8.00e-03,
637,0.00e+00,
638,-8.00e-03,
639,-4.00e-03,
640,-8.00e-03,
641,-4.00e-03,
642,-8.00e-03,
643,-4.00e-03,
644,-1.20e-02,
645,0.00e+00,
646,-4.00e-03,
647,-8.00e-03,
648,-8.00e-03,
649,-4.00e-03,
650,-8.00e-03,
651,0.00e+00,
652,-4.00e-03,
653,-8.00e-03,
654,-4.00e-03,
655,-8.00e-03,
656,-8.00e-03,
657,0.00e+00,
658,-8.00e-03,
659,-4.00e-03,
660,-8.00e-03,
661,0.00e+00,
662,-4.00e-03,
663,-8.00e-03,
664,-8.00e-03,
665,-4.00e-03,
666,-4.00e-03,
667,-1.20e-02,
668,-1.20e-02,
669,-4.00e-03,
670,-1.20e-02,
671,-4.00e-03,
672,-4.00e-03,
673,-1.20e-02,
674,-8.00e-03,
675,0.00e+00,
676,-4.00e-03,
677,0.00e+00,
678,0.00e+00,
679,-4.00e-03,
680,0.00e+00,
681,-8.00e-03,
682,0.00e+00,
683,-8.00e-03,
684,-4.00e-03,
685,-1.20e-02,
686,-1.20e-02,
687,-4.00e-03,
688,-1.20e-02,
689,-4.00e-03,
690,-4.00e-03,
691,-1.20e-02,
692,-8.00e-03,
693,0.00e+00,
694,0.00e+00,
695,-8.00e-03,
696,0.00e+00,
697,-8.00e-03,
698,-4.00e-03,
699,0.00e+00,
700,-8.00e-03,
701,0.00e+00,
702,-4.00e-03,
703,-8.00e-03,
704,-4.00e-03,
705,-1.20e-02,
706,-1.20e-02,
707,-4.00e-03,
708,-1.20e-02,
709,-4.00e-03,
710,-8.00e-03,
711,0.00e+00,
712,-8.00e-03,
713,0.00e+00,
714,-4.00e-03,
715,0.00e+00,
716,0.00e+00,
717,-8.00e-03,
718,0.00e+00,
719,-8.00e-03,
720,-8.00e-03,
721,0.00e+00,
722,-4.00e-03,
723,-8.00e-03,
724,-4.00e-03,
725,-1.20e-02,
726,-8.00e-03,
727,-4.00e-03,
728,-8.00e-03,
729,0.00e+00,
730,-8.00e-03,
731,0.00e+00,
732,-4.00e-03,
733,4.00e-03,
734,0.00e+00,
735,-4.00e-03,
736,-4.00e-03,
737,4.00e-03,
738,0.00e+00,
739,-8.00e-03,
740,0.00e+00,
741,-8.00e-03,
742,-8.00e-03,
743,-4.00e-03,
744,-4.00e-03,
745,-8.00e-03,
746,-8.00e-03,
747,-4.00e-03,
748,-8.00e-03,
749,0.00e+00,
750,0.00e+00,
751,-8.00e-03,
752,0.00e+00,
753,-4.00e-03,
754,1.60e-01,
755,-1.68e-01,
756,1.80e-01,
757,-1.24e-01,
758,6.40e-02,
759,-3.60e-02,
760,-1.20e-02,
761,3.60e-02,
762,4.00e-03,
763,2.80e-02,
764,2.40e-02,
765,1.20e-02,
766,1.60e-02,
767,2.80e-02,
768,2.40e-02,
769,3.20e-02,
770,3.20e-02,
771,2.40e-02,
772,2.80e-02,
773,4.00e-02,
774,3.20e-02,
775,4.00e-02,
776,3.60e-02,
777,4.40e-02,
778,4.00e-02,
779,4.80e-02,
780,4.40e-02,
781,5.20e-02,
782,4.40e-02,
783,5.60e-02,
784,4.80e-02,
785,6.00e-02,
786,5.20e-02,
787,6.40e-02,
788,6.40e-02,
789,5.60e-02,
790,6.00e-02,
791,7.20e-02,
792,6.40e-02,
793,7.20e-02,
794,6.80e-02,
795,7.60e-02,
796,7.20e-02,
797,8.00e-02,
798,7.60e-02,
799,8.40e-02,
800,8.40e-02,
801,7.60e-02,
802,8.00e-02,
803,9.20e-02,
804,8.40e-02,
805,9.20e-02,
806,8.80e-02,
807,9.60e-02,
808,8.80e-02,
809,1.00e-01,
810,1.04e-01,
811,9.20e-02,
812,9.60e-02,
813,1.08e-01,
814,1.00e-01,
815,1.08e-01,
816,1.04e-01,
817,1.12e-01,
818,1.08e-01,
819,1.16e-01,
820,1.08e-01,
821,1.20e-01,
822,1.16e-01,
823,1.24e-01,
824,1.16e-01,
825,1.24e-01,
826,1.20e-01,
827,1.28e-01,
828,1.24e-01,
829,1.32e-01,
830,1.28e-01,
831,1.36e-01,
832,1.28e-01,
833,1.40e-01,
834,1.32e-01,
835,1.40e-01,
836,1.36e-01,
837,1.44e-01,
838,1.40e-01,
839,1.48e-01,
840,1.40e-01,
841,1.52e-01,
842,1.44e-01,
843,1.56e-01,
844,1.48e-01,
845,1.56e-01,
846,1.60e-01,
847,1.48e-01,
848,1.56e-01,
849,1.64e-01,
850,1.56e-01,
851,1.68e-01,
852,1.68e-01,
853,1.60e-01,
854,1.64e-01,
855,1.72e-01,
856,1.64e-01,
857,1.76e-01,
858,1.68e-01,
859,1.80e-01,
860,1.72e-01,
861,1.84e-01,
862,1.76e-01,
863,1.84e-01,
864,1.80e-01,
865,1.88e-01,
866,1.84e-01,
867,1.92e-01,
868,1.84e-01,
869,1.96e-01,
870,1.88e-01,
871,2.00e-01,
872,2.00e-01,
873,1.88e-01,
874,1.92e-01,
875,2.04e-01,
876,1.96e-01,
877,2.08e-01,
878,2.00e-01,
879,2.12e-01,
880,2.04e-01,
881,2.12e-01,
882,2.04e-01,
883,2.16e-01,
884,2.08e-01,
885,2.20e-01,
886,2.12e-01,
887,2.24e-01,
888,2.12e-01,
889,2.24e-01,
890,2.16e-01,
891,2.28e-01,
892,2.20e-01,
893,2.32e-01,
894,2.24e-01,
895,2.36e-01,
896,2.24e-01,
897,2.36e-01,
898,2.28e-01,
899,2.40e-01,
900,2.32e-01,
901,2.40e-01,
902,2.36e-01,
903,2.44e-01,
904,2.36e-01,
905,2.48e-01,
906,2.40e-01,
907,2.52e-01,
908,2.52e-01,
909,2.40e-01,
910,2.44e-01,
911,2.56e-01,
912,2.56e-01,
913,1.44e-01,
914,2.32e-01,
915,2.56e-01,
916,2.60e-01,
917,2.40e-01,
918,-5.28e-01,
919,4.60e-01,
920,4.52e-01,
921,-5.28e-01,
922,3.36e-01,
923,-3.76e-01,
924,-2.96e-01,
925,2.36e-01,
926,1.84e-01,
927,-2.00e-01,
928,1.28e-01,
929,-1.36e-01,
930,-1.08e-01,
931,8.40e-02,
932,6.40e-02,
933,-7.60e-02,
934,-5.60e-02,
935,4.40e-02,
936,-4.40e-02,
937,2.80e-02,
938,2.00e-02,
939,-2.80e-02,
940,-2.00e-02,
941,1.20e-02,
942,-2.00e-02,
943,8.00e-03,
944,4.00e-03,
945,-1.60e-02,
946,-1.20e-02,
947,4.00e-03,
948,-1.20e-02,
949,0.00e+00,
950,0.00e+00,
951,-8.00e-03,
952,-8.00e-03,
953,0.00e+00,
954,0.00e+00,
955,-8.00e-03,
956,-8.00e-03,
957,0.00e+00,
958,-8.00e-03,
959,0.00e+00,
960,-8.00e-03,
961,0.00e+00,
962,-8.00e-03,
963,0.00e+00,
964,-8.00e-03,
965,0.00e+00,
966,-8.00e-03,
967,0.00e+00,
968,-8.00e-03,
969,0.00e+00,
970,-8.00e-03,
971,0.00e+00,
972,-8.00e-03,
973,0.00e+00,
974,-8.00e-03,
975,0.00e+00,
976,-8.00e-03,
977,0.00e+00,
978,-8.00e-03,
979,0.00e+00,
980,-8.00e-03,
981,0.00e+00,
982,-8.00e-03,
983,0.00e+00,
984,-8.00e-03,
985,0.00e+00,
986,-8.00e-03,
987,0.00e+00,
988,-8.00e-03,
989,0.00e+00,
990,-8.00e-03,
991,0.00e+00,
992,-8.00e-03,
993,0.00e+00,
994,-8.00e-03,
995,0.00e+00,
996,-8.00e-03,
997,0.00e+00,
998,0.00e+00,
999,-8.00e-03,
1000,-8.00e-03,
1001,0.00e+00,
1002,-8.00e-03,
1003,0.00e+00,
1004,-8.00e-03,
1005,0.00e+00,
1006,0.00e+00,
1007,-8.00e-03,
1008,-4.00e-03,
1009,-8.00e-03,
1010,-8.00e-03,
1011,0.00e+00,
1012,-4.00e-03,
1013,-8.00e-03,
1014,-1.20e-02,
1015,0.00e+00,
1016,-8.00e-03,
1017,-4.00e-03,
1018,-8.00e-03,
1019,0.00e+00,
1020,-8.00e-03,
1021,-4.00e-03,
1022,-4.00e-03,
1023,-8.00e-03,
1024,0.00e+00,
1025,-1.20e-02,
1026,-8.00e-03,
1027,-4.00e-03,
1028,-4.00e-03,
1029,-8.00e-03,
1030,-4.00e-03,
1031,-8.00e-03,
1032,-8.00e-03,
1033,0.00e+00,
1034,-8.00e-03,
1035,-4.00e-03,
1036,-4.00e-03,
1037,-8.00e-03,
1038,-4.00e-03,
1039,-1.20e-02,
1040,-4.00e-03,
1041,-8.00e-03,
1042,-8.00e-03,
1043,-4.00e-03,
1044,-4.00e-03,
1045,-1.20e-02,
1046,-4.00e-03,
1047,-8.00e-03,
1048,-1.20e-02,
1049,0.00e+00,
1050,-8.00e-03,
1051,-4.00e-03,
1052,-4.00e-03,
1053,-1.20e-02,
1054,-4.00e-03,
1055,-8.00e-03,
1056,-8.00e-03,
1057,-4.00e-03,
1058,-8.00e-03,
1059,-4.00e-03,
1060,-8.00e-03,
1061,-4.00e-03,
1062,-4.00e-03,
1063,-8.00e-03,
1064,-4.00e-03,
1065,-1.20e-02,
1066,-4.00e-03,
1067,-1.20e-02,
1068,-4.00e-03,
1069,-1.60e-02,
1070,-1.20e-02,
1071,-4.00e-03,
1072,-4.00e-03,
1073,-1.20e-02,
1074,-8.00e-03,
1075,0.00e+00,
1076,0.00e+00,
1077,-8.00e-03,
1078,0.00e+00,
1079,-8.00e-03,
1080,0.00e+00,
1081,-8.00e-03,
1082,0.00e+00,
1083,-8.00e-03,
1084,-4.00e-03,
1085,-1.20e-02,
1086,-1.20e-02,
1087,-4.00e-03,
1088,-1.20e-02,
1089,-4.00e-03,
1090,-1.20e-02,
1091,-4.00e-03,
1092,-8.00e-03,
1093,0.00e+00,
1094,0.00e+00,
1095,-8.00e-03,
1096,-4.00e-03,
1097,0.00e+00,
1098,0.00e+00,
1099,-8.00e-03,
1100,0.00e+00,
1101,-8.00e-03,
1102,-4.00e-03,
1103,-8.00e-03,
1104,-4.00e-03,
1105,-1.20e-02,
1106,-1.20e-02,
1107,-4.00e-03,
1108,-1.20e-02,
1109,-4.00e-03,
1110,-8.00e-03,
1111,-4.00e-03,
1112,-8.00e-03,
1113,0.00e+00,
1114,-4.00e-03,
1115,0.00e+00,
1116,0.00e+00,
1117,-8.00e-03,
1118,0.00e+00,
1119,-8.00e-03,
1120,-8.00e-03,
1121,0.00e+00,
1122,-8.00e-03,
1123,-4.00e-03,
1124,-4.00e-03,
1125,-1.20e-02,
1126,-1.20e-02,
1127,-4.00e-03,
1128,-4.00e-03,
1129,-1.20e-02,
1130,-8.00e-03,
1131,0.00e+00,
1132,0.00e+00,
1133,-8.00e-03,
1134,-4.00e-03,
1135,0.00e+00,
1136,0.00e+00,
1137,-8.00e-03,
1138,0.00e+00,
1139,-8.00e-03,
1140,-8.00e-03,
1141,0.00e+00,
1142,-4.00e-03,
1143,-1.20e-02,
1144,-4.00e-03,
1145,-1.20e-02,
1146,-4.00e-03,
1147,-1.20e-02,
1148,-8.00e-03,
1149,0.00e+00,
1150,0.00e+00,
1151,-8.00e-03,
1152,-8.00e-03,
1153,0.00e+00,
1154,1.56e-01,
1155,-1.72e-01,
1156,1.76e-01,
1157,-1.24e-01,
1158,-4.80e-02,
1159,6.80e-02,
1160,-1.20e-02,
1161,4.00e-02,
1162,2.80e-02,
1163,4.00e-03,
1164,2.40e-02,
1165,1.20e-02,
1166,1.60e-02,
1167,2.80e-02,
1168,2.00e-02,
1169,2.80e-02,
1170,2.40e-02,
1171,3.20e-02,
1172,2.80e-02,
1173,3.60e-02,
1174,3.20e-02,
1175,4.00e-02,
1176,3.60e-02,
1177,4.40e-02,
1178,4.00e-02,
1179,4.80e-02,
1180,4.40e-02,
1181,5.20e-02,
1182,4.80e-02,
1183,5.60e-02,
1184,4.80e-02,
1185,5.60e-02,
1186,5.20e-02,
1187,6.00e-02,
1188,5.60e-02,
1189,6.40e-02,
1190,6.00e-02,
1191,6.80e-02,
1192,6.40e-02,
1193,7.20e-02,
1194,6.40e-02,
1195,7.60e-02,
1196,7.20e-02,
1197,8.00e-02,
1198,7.60e-02,
1199,8.00e-02,
