Lab 3/3OPRE.csv

X,CH1,Start,Increment,
Sequence,Volt,-2.598000e-05,5.000000e-08
0,1.08e-01,
1,1.20e-01,
2,1.12e-01,
3,1.24e-01,
4,1.12e-01,
5,1.24e-01,
6,1.16e-01,
7,1.28e-01,
8,1.20e-01,
9,1.28e-01,
10,1.24e-01,
11,1.32e-01,
12,1.24e-01,
13,1.36e-01,
14,1.28e-01,
15,1.40e-01,
16,1.28e-01,
17,1.44e-01,
18,1.32e-01,
19,1.44e-01,
20,1.36e-01,
21,1.48e-01,
22,1.48e-01,
23,1.36e-01,
24,1.52e-01,
25,1.40e-01,
26,1.44e-01,
27,1.56e-01,
28,1.44e-01,
29,1.56e-01,
30,1.48e-01,
31,1.60e-01,
32,1.48e-01,
33,1.64e-01,
34,1.52e-01,
35,1.64e-01,
36,1.56e-01,
37,1.68e-01,
38,1.60e-01,
39,1.72e-01,
40,1.60e-01,
41,1.72e-01,
42,1.64e-01,
43,1.76e-01,
44,1.68e-01,
45,1.80e-01,
46,1.68e-01,
47,1.84e-01,
48,1.72e-01,
49,1.84e-01,
50,1.72e-01,
51,1.88e-01,
52,1.88e-01,
53,1.76e-01,
54,1.80e-01,
55,1.92e-01,
56,1.80e-01,
57,1.96e-01,
58,1.84e-01,
59,1.96e-01,
60,1.88e-01,
61,2.00e-01,
62,1.88e-01,
63,2.04e-01,
64,1.92e-01,
65,2.04e-01,
66,1.96e-01,
67,2.08e-01,
68,2.08e-01,
69,1.96e-01,
70,2.00e-01,
71,2.12e-01,
72,2.00e-01,
73,2.16e-01,
74,2.04e-01,
75,2.20e-01,
76,2.08e-01,
77,2.24e-01,
78,2.08e-01,
79,2.24e-01,
80,2.12e-01,
81,2.24e-01,
82,2.16e-01,
83,2.28e-01,
84,2.16e-01,
85,2.32e-01,
86,2.20e-01,
87,2.36e-01,
88,2.24e-01,
89,2.36e-01,
90,2.24e-01,
91,2.40e-01,
92,2.24e-01,
93,2.44e-01,
94,2.28e-01,
95,2.44e-01,
96,2.44e-01,
97,2.32e-01,
98,2.36e-01,
99,2.52e-01,
100,2.36e-01,
101,2.52e-01,
102,2.40e-01,
103,2.52e-01,
104,2.56e-01,
105,2.40e-01,
106,2.44e-01,
107,2.60e-01,
108,2.48e-01,
109,2.60e-01,
110,2.48e-01,
111,2.64e-01,
112,1.52e-01,
113,2.56e-01,
114,2.36e-01,
115,2.60e-01,
116,2.64e-01,
117,2.44e-01,
118,-5.28e-01,
119,4.52e-01,
120,-5.28e-01,
121,4.08e-01,
122,3.32e-01,
123,-3.76e-01,
124,2.20e-01,
125,-2.60e-01,
126,-2.00e-01,
127,1.48e-01,
128,1.20e-01,
129,-1.36e-01,
130,7.60e-02,
131,-9.60e-02,
132,-7.20e-02,
133,4.80e-02,
134,3.60e-02,
135,-5.20e-02,
136,-4.00e-02,
137,2.00e-02,
138,-3.20e-02,
139,1.60e-02,
140,1.20e-02,
141,-2.40e-02,
142,-2.40e-02,
143,4.00e-03,
144,-1.60e-02,
145,4.00e-03,
146,4.00e-03,
147,-1.60e-02,
148,-1.20e-02,
149,4.00e-03,
150,-1.20e-02,
151,0.00e+00,
152,4.00e-03,
153,-1.20e-02,
154,-1.20e-02,
155,0.00e+00,
156,0.00e+00,
157,-1.20e-02,
158,0.00e+00,
159,-8.00e-03,
160,-8.00e-03,
161,0.00e+00,
162,-8.00e-03,
163,4.00e-03,
164,-8.00e-03,
165,4.00e-03,
166,-8.00e-03,
167,4.00e-03,
168,-8.00e-03,
169,4.00e-03,
170,-8.00e-03,
171,4.00e-03,
172,-8.00e-03,
173,4.00e-03,
174,-8.00e-03,
175,4.00e-03,
176,-8.00e-03,
177,4.00e-03,
178,-8.00e-03,
179,4.00e-03,
180,4.00e-03,
181,-8.00e-03,
182,-8.00e-03,
183,4.00e-03,
184,4.00e-03,
185,-8.00e-03,
186,4.00e-03,
187,-8.00e-03,
188,-8.00e-03,
189,4.00e-03,
190,4.00e-03,
191,-8.00e-03,
192,4.00e-03,
193,-8.00e-03,
194,-8.00e-03,
195,4.00e-03,
196,4.00e-03,
197,-8.00e-03,
198,-4.00e-03,
199,4.00e-03,
200,-8.00e-03,
201,4.00e-03,
202,-4.00e-03,
203,4.00e-03,
204,-4.00e-03,
205,4.00e-03,
206,-4.00e-03,
207,4.00e-03,
208,-4.00e-03,
209,4.00e-03,
210,-4.00e-03,
211,4.00e-03,
212,4.00e-03,
213,-8.00e-03,
214,-4.00e-03,
215,4.00e-03,
216,4.00e-03,
217,-4.00e-03,
218,-4.00e-03,
219,4.00e-03,
220,-4.00e-03,
221,4.00e-03,
222,4.00e-03,
223,-4.00e-03,
224,-4.00e-03,
225,8.00e-03,
226,-4.00e-03,
227,4.00e-03,
228,-4.00e-03,
229,4.00e-03,
230,4.00e-03,
231,-4.00e-03,
232,4.00e-03,
233,-4.00e-03,
234,-4.00e-03,
235,4.00e-03,
236,4.00e-03,
237,-4.00e-03,
238,4.00e-03,
239,-4.00e-03,
240,4.00e-03,
241,-4.00e-03,
242,-4.00e-03,
243,4.00e-03,
244,-4.00e-03,
245,4.00e-03,
246,4.00e-03,
247,-4.00e-03,
248,4.00e-03,
249,-4.00e-03,
250,-4.00e-03,
251,4.00e-03,
252,4.00e-03,
253,-4.00e-03,
254,-4.00e-03,
255,8.00e-03,
256,4.00e-03,
257,-8.00e-03,
258,-8.00e-03,
259,4.00e-03,
260,-8.00e-03,
261,4.00e-03,
262,-4.00e-03,
263,4.00e-03,
264,-4.00e-03,
265,8.00e-03,
266,0.00e+00,
267,8.00e-03,
268,0.00e+00,
269,8.00e-03,
270,8.00e-03,
271,-4.00e-03,
272,-4.00e-03,
273,8.00e-03,
274,4.00e-03,
275,-8.00e-03,
276,-8.00e-03,
277,4.00e-03,
278,-8.00e-03,
279,4.00e-03,
280,-8.00e-03,
281,4.00e-03,
282,-8.00e-03,
283,4.00e-03,
284,-4.00e-03,
285,8.00e-03,
286,8.00e-03,
287,-4.00e-03,
288,-4.00e-03,
289,8.00e-03,
290,-4.00e-03,
291,4.00e-03,
292,4.00e-03,
293,-8.00e-03,
294,-8.00e-03,
295,4.00e-03,
296,0.00e+00,
297,-1.20e-02,
298,-8.00e-03,
299,0.00e+00,
300,-8.00e-03,
301,4.00e-03,
302,-4.00e-03,
303,4.00e-03,
304,4.00e-03,
305,-4.00e-03,
306,-4.00e-03,
307,8.00e-03,
308,4.00e-03,
309,-4.00e-03,
310,4.00e-03,
311,-8.00e-03,
312,4.00e-03,
313,-8.00e-03,
314,-8.00e-03,
315,0.00e+00,
316,-8.00e-03,
317,4.00e-03,
318,-1.20e-02,
319,0.00e+00,
320,-8.00e-03,
321,5.20e-02,
322,-2.00e-02,
323,4.40e-02,
324,-8.00e-03,
325,2.80e-02,
326,2.00e-02,
327,0.00e+00,
328,4.00e-03,
329,1.60e-02,
330,8.00e-03,
331,2.00e-02,
332,1.20e-02,
333,2.40e-02,
334,1.60e-02,
335,2.40e-02,
336,1.60e-02,
337,2.80e-02,
338,2.00e-02,
339,3.20e-02,
340,2.40e-02,
341,3.60e-02,
342,2.40e-02,
343,4.00e-02,
344,2.80e-02,
345,4.00e-02,
346,3.20e-02,
347,4.40e-02,
348,3.60e-02,
349,4.40e-02,
350,4.00e-02,
351,4.80e-02,
352,4.00e-02,
353,5.20e-02,
354,4.40e-02,
355,5.60e-02,
356,4.40e-02,
357,6.00e-02,
358,4.80e-02,
359,6.00e-02,
360,5.20e-02,
361,6.40e-02,
362,5.20e-02,
363,6.80e-02,
364,5.60e-02,
365,6.80e-02,
366,6.00e-02,
367,7.20e-02,
368,6.40e-02,
369,7.60e-02,
370,6.80e-02,
371,7.60e-02,
372,6.80e-02,
373,8.40e-02,
374,7.20e-02,
375,8.40e-02,
376,7.20e-02,
377,8.80e-02,
378,7.60e-02,
379,8.80e-02,
380,8.00e-02,
381,9.20e-02,
382,8.00e-02,
383,9.60e-02,
384,8.40e-02,
385,9.60e-02,
386,8.80e-02,
387,1.00e-01,
388,8.80e-02,
389,1.04e-01,
390,9.20e-02,
391,1.08e-01,
392,9.60e-02,
393,1.08e-01,
394,1.00e-01,
395,1.12e-01,
396,1.04e-01,
397,1.16e-01,
398,1.04e-01,
399,1.16e-01,
400,1.04e-01,
401,1.20e-01,
402,1.20e-01,
403,1.08e-01,
404,1.12e-01,
405,1.24e-01,
406,1.16e-01,
407,1.28e-01,
408,1.28e-01,
409,1.16e-01,
410,1.20e-01,
411,1.36e-01,
412,1.24e-01,
413,1.36e-01,
414,1.24e-01,
415,1.40e-01,
416,1.28e-01,
417,1.44e-01,
418,1.32e-01,
419,1.44e-01,
420,1.32e-01,
421,1.48e-01,
422,1.36e-01,
423,1.48e-01,
424,1.40e-01,
425,1.52e-01,
426,1.44e-01,
427,1.56e-01,
428,1.44e-01,
429,1.56e-01,
430,1.48e-01,
431,1.60e-01,
432,1.48e-01,
433,1.64e-01,
434,1.64e-01,
435,1.52e-01,
436,1.56e-01,
437,1.68e-01,
438,1.60e-01,
439,1.72e-01,
440,1.60e-01,
441,1.72e-01,
442,1.64e-01,
443,1.76e-01,
444,1.64e-01,
445,1.80e-01,
446,1.68e-01,
447,1.84e-01,
448,1.72e-01,
449,1.84e-01,
450,1.76e-01,
451,1.84e-01,
452,1.88e-01,
453,1.76e-01,
454,1.80e-01,
455,1.92e-01,
456,1.84e-01,
457,1.96e-01,
458,1.96e-01,
459,1.84e-01,
460,1.88e-01,
461,2.00e-01,
462,1.88e-01,
463,2.04e-01,
464,1.92e-01,
465,2.04e-01,
466,1.96e-01,
467,2.08e-01,
468,2.08e-01,
469,1.96e-01,
470,2.00e-01,
471,2.12e-01,
472,2.04e-01,
473,2.16e-01,
474,2.04e-01,
475,2.20e-01,
476,2.08e-01,
477,2.24e-01,
478,2.08e-01,
479,2.24e-01,
480,2.12e-01,
481,2.24e-01,
482,2.12e-01,
483,2.28e-01,
484,2.20e-01,
485,2.32e-01,
486,2.20e-01,
487,2.36e-01,
488,2.20e-01,
489,2.36e-01,
490,2.24e-01,
491,2.40e-01,
492,2.28e-01,
493,2.40e-01,
494,2.28e-01,
495,2.44e-01,
496,2.32e-01,
497,2.48e-01,
498,2.36e-01,
499,2.48e-01,
500,2.36e-01,
501,2.52e-01,
502,2.52e-01,
503,2.40e-01,
504,2.44e-01,
505,2.60e-01,
506,2.44e-01,
507,2.60e-01,
508,2.48e-01,
509,2.60e-01,
510,2.48e-01,
511,2.64e-01,
512,2.60e-01,
513,1.56e-01,
514,2.40e-01,
515,2.64e-01,
516,2.48e-01,
517,2.64e-01,
518,-5.28e-01,
519,4.44e-01,
520,-5.28e-01,
521,4.16e-01,
522,3.32e-01,
523,-3.68e-01,
524,-2.92e-01,
525,2.24e-01,
526,1.56e-01,
527,-1.96e-01,
528,1.16e-01,
529,-1.32e-01,
530,-1.08e-01,
531,7.60e-02,
532,5.20e-02,
533,-7.20e-02,
534,4.00e-02,
535,-5.20e-02,
536,-4.40e-02,
537,2.40e-02,
538,-3.20e-02,
539,2.00e-02,
540,8.00e-03,
541,-2.40e-02,
542,-2.00e-02,
543,4.00e-03,
544,4.00e-03,
545,-1.60e-02,
546,-1.60e-02,
547,4.00e-03,
548,0.00e+00,
549,-1.60e-02,
550,-1.20e-02,
551,4.00e-03,
552,-1.20e-02,
553,0.00e+00,
554,0.00e+00,
555,-1.20e-02,
556,-8.00e-03,
557,4.00e-03,
558,-8.00e-03,
559,4.00e-03,
560,0.00e+00,
561,-8.00e-03,
562,-8.00e-03,
563,4.00e-03,
564,-8.00e-03,
565,4.00e-03,
566,-8.00e-03,
567,4.00e-03,
568,-8.00e-03,
569,4.00e-03,
570,4.00e-03,
571,-8.00e-03,
572,4.00e-03,
573,-8.00e-03,
574,-4.00e-03,
575,4.00e-03,
576,4.00e-03,
577,-8.00e-03,
578,-8.00e-03,
579,4.00e-03,
580,4.00e-03,
581,-8.00e-03,
582,4.00e-03,
583,-8.00e-03,
584,-4.00e-03,
585,4.00e-03,
586,-4.00e-03,
587,4.00e-03,
588,-4.00e-03,
589,4.00e-03,
590,-4.00e-03,
591,4.00e-03,
592,4.00e-03,
593,-4.00e-03,
594,-4.00e-03,
595,4.00e-03,
596,4.00e-03,
597,-4.00e-03,
598,4.00e-03,
599,-8.00e-03,
600,4.00e-03,
601,-8.00e-03,
602,-4.00e-03,
603,4.00e-03,
604,-4.00e-03,
605,8.00e-03,
606,-4.00e-03,
607,4.00e-03,
608,4.00e-03,
609,-4.00e-03,
610,4.00e-03,
611,-4.00e-03,
612,4.00e-03,
613,-4.00e-03,
614,4.00e-03,
615,-4.00e-03,
616,4.00e-03,
617,-4.00e-03,
618,-4.00e-03,
619,8.00e-03,
620,4.00e-03,
621,-4.00e-03,
622,4.00e-03,
623,-4.00e-03,
624,4.00e-03,
625,-4.00e-03,
626,-4.00e-03,
627,4.00e-03,
628,4.00e-03,
629,-4.00e-03,
630,4.00e-03,
631,-4.00e-03,
632,-4.00e-03,
633,8.00e-03,
634,-4.00e-03,
635,4.00e-03,
636,-4.00e-03,
637,8.00e-03,
638,8.00e-03,
639,-4.00e-03,
640,8.00e-03,
641,-4.00e-03,
642,4.00e-03,
643,-4.00e-03,
644,-4.00e-03,
645,8.00e-03,
646,-4.00e-03,
647,8.00e-03,
648,-4.00e-03,
649,8.00e-03,
650,-4.00e-03,
651,8.00e-03,
652,-4.00e-03,
653,8.00e-03,
654,4.00e-03,
655,-4.00e-03,
656,4.00e-03,
657,-4.00e-03,
658,4.00e-03,
659,-8.00e-03,
660,4.00e-03,
661,-8.00e-03,
662,-4.00e-03,
663,4.00e-03,
664,-4.00e-03,
665,8.00e-03,
666,-4.00e-03,
667,1.20e-02,
668,8.00e-03,
669,0.00e+00,
670,8.00e-03,
671,0.00e+00,
672,-4.00e-03,
673,8.00e-03,
674,-4.00e-03,
675,4.00e-03,
676,4.00e-03,
677,-8.00e-03,
678,-8.00e-03,
679,4.00e-03,
680,4.00e-03,
681,-8.00e-03,
682,-4.00e-03,
683,4.00e-03,
684,-4.00e-03,
685,8.00e-03,
686,0.00e+00,
687,8.00e-03,
688,0.00e+00,
689,8.00e-03,
690,8.00e-03,
691,-4.00e-03,
692,4.00e-03,
693,-4.00e-03,
694,4.00e-03,
695,-8.00e-03,
696,0.00e+00,
697,-8.00e-03,
698,-8.00e-03,
699,4.00e-03,
700,-8.00e-03,
701,4.00e-03,
702,-4.00e-03,
703,4.00e-03,
704,-4.00e-03,
705,8.00e-03,
706,-4.00e-03,
707,8.00e-03,
708,8.00e-03,
709,-4.00e-03,
710,-4.00e-03,
711,4.00e-03,
712,4.00e-03,
713,-8.00e-03,
714,-8.00e-03,
715,0.00e+00,
716,-8.00e-03,
717,4.00e-03,
718,-8.00e-03,
719,0.00e+00,
720,5.20e-02,
721,-1.20e-02,
722,4.40e-02,
723,-2.40e-02,
724,-1.20e-02,
725,2.80e-02,
726,2.00e-02,
727,0.00e+00,
728,8.00e-03,
729,2.00e-02,
730,8.00e-03,
731,2.00e-02,
732,1.20e-02,
733,2.40e-02,
734,1.60e-02,
735,2.80e-02,
736,1.60e-02,
737,3.20e-02,
738,2.00e-02,
739,3.20e-02,
740,2.40e-02,
741,3.60e-02,
742,2.80e-02,
743,4.00e-02,
744,2.80e-02,
745,4.00e-02,
746,3.20e-02,
747,4.40e-02,
748,3.60e-02,
749,4.80e-02,
750,4.00e-02,
751,5.20e-02,
752,4.00e-02,
753,5.20e-02,
754,4.40e-02,
755,5.60e-02,
756,4.80e-02,
757,6.00e-02,
758,4.80e-02,
759,6.40e-02,
760,5.20e-02,
761,6.40e-02,
762,5.60e-02,
763,6.80e-02,
764,6.00e-02,
765,7.20e-02,
766,6.00e-02,
767,7.20e-02,
768,6.40e-02,
769,7.60e-02,
770,6.80e-02,
771,8.00e-02,
772,6.80e-02,
773,8.40e-02,
774,7.20e-02,
775,8.40e-02,
776,7.20e-02,
777,8.80e-02,
778,8.00e-02,
779,8.80e-02,
780,8.00e-02,
781,9.20e-02,
782,8.40e-02,
783,9.60e-02,
784,8.40e-02,
785,1.00e-01,
786,8.80e-02,
787,1.00e-01,
788,9.20e-02,
789,1.04e-01,
790,9.20e-02,
791,1.08e-01,
792,9.60e-02,
793,1.12e-01,
794,1.00e-01,
795,1.12e-01,
796,1.04e-01,
797,1.16e-01,
798,1.04e-01,
799,1.20e-01,
800,1.08e-01,
801,1.20e-01,
802,1.08e-01,
803,1.24e-01,
804,1.24e-01,
805,1.12e-01,
806,1.16e-01,
807,1.28e-01,
808,1.20e-01,
809,1.32e-01,
810,1.32e-01,
811,1.20e-01,
812,1.24e-01,
813,1.40e-01,
814,1.28e-01,
815,1.40e-01,
816,1.28e-01,
817,1.44e-01,
818,1.32e-01,
819,1.44e-01,
820,1.36e-01,
821,1.48e-01,
822,1.36e-01,
823,1.52e-01,
824,1.40e-01,
825,1.52e-01,
826,1.44e-01,
827,1.56e-01,
828,1.44e-01,
829,1.56e-01,
830,1.48e-01,
831,1.64e-01,
832,1.52e-01,
833,1.64e-01,
834,1.56e-01,
835,1.64e-01,
836,1.68e-01,
837,1.56e-01,
838,1.60e-01,
839,1.72e-01,
840,1.60e-01,
841,1.72e-01,
842,1.64e-01,
843,1.76e-01,
844,1.64e-01,
845,1.80e-01,
846,1.68e-01,
847,1.84e-01,
848,1.72e-01,
849,1.88e-01,
850,1.76e-01,
851,1.88e-01,
852,1.76e-01,
853,1.92e-01,
854,1.80e-01,
855,1.92e-01,
856,1.84e-01,
857,1.96e-01,
858,1.84e-01,
859,2.00e-01,
860,1.88e-01,
861,2.00e-01,
862,1.88e-01,
863,2.04e-01,
864,1.92e-01,
865,2.08e-01,
866,1.96e-01,
867,2.08e-01,
868,1.96e-01,
869,2.12e-01,
870,2.00e-01,
871,2.16e-01,
872,2.00e-01,
873,2.16e-01,
874,2.04e-01,
875,2.20e-01,
876,2.08e-01,
877,2.20e-01,
878,2.12e-01,
879,2.24e-01,
880,2.12e-01,
881,2.28e-01,
882,2.16e-01,
883,2.28e-01,
884,2.20e-01,
885,2.32e-01,
886,2.20e-01,
887,2.32e-01,
888,2.24e-01,
889,2.36e-01,
890,2.24e-01,
891,2.40e-01,
892,2.28e-01,
893,2.44e-01,
894,2.32e-01,
895,2.44e-01,
896,2.44e-01,
897,2.32e-01,
898,2.36e-01,
899,2.48e-01,
900,2.36e-01,
901,2.52e-01,
902,2.40e-01,
903,2.52e-01,
904,2.44e-01,
905,2.56e-01,
906,2.44e-01,
907,2.60e-01,
908,2.48e-01,
909,2.64e-01,
910,2.48e-01,
911,2.64e-01,
912,1.56e-01,
913,2.56e-01,
914,2.36e-01,
915,2.64e-01,
916,2.64e-01,
917,2.44e-01,
918,-5.28e-01,
919,4.36e-01,
920,-5.28e-01,
921,4.16e-01,
922,3.28e-01,
923,-3.76e-01,
924,-2.80e-01,
925,2.20e-01,
926,-2.00e-01,
927,1.56e-01,
928,1.16e-01,
929,-1.32e-01,
930,-1.08e-01,
931,7.20e-02,
932,-7.60e-02,
933,4.80e-02,
934,4.00e-02,
935,-5.20e-02,
936,-4.00e-02,
937,2.40e-02,
938,-2.80e-02,
939,1.60e-02,
940,1.20e-02,
941,-2.00e-02,
942,-2.00e-02,
943,4.00e-03,
944,4.00e-03,
945,-1.60e-02,
946,4.00e-03,
947,-1.60e-02,
948,-1.20e-02,
949,4.00e-03,
950,-1.20e-02,
951,4.00e-03,
952,4.00e-03,
953,-1.20e-02,
954,-1.20e-02,
955,0.00e+00,
956,-8.00e-03,
957,0.00e+00,
958,-8.00e-03,
959,4.00e-03,
960,-8.00e-03,
961,4.00e-03,
962,-8.00e-03,
963,4.00e-03,
964,-8.00e-03,
965,4.00e-03,
966,-8.00e-03,
967,4.00e-03,
968,4.00e-03,
969,-8.00e-03,
970,-8.00e-03,
971,4.00e-03,
972,-8.00e-03,
973,4.00e-03,
974,4.00e-03,
975,-8.00e-03,
976,4.00e-03,
977,-8.00e-03,
978,-8.00e-03,
979,4.00e-03,
980,4.00e-03,
981,-8.00e-03,
982,-4.00e-03,
983,4.00e-03,
984,-4.00e-03,
985,4.00e-03,
986,-4.00e-03,
987,4.00e-03,
988,-4.00e-03,
989,4.00e-03,
990,-4.00e-03,
991,4.00e-03,
992,4.00e-03,
993,-4.00e-03,
994,-4.00e-03,
995,4.00e-03,
996,-4.00e-03,
997,4.00e-03,
998,4.00e-03,
999,-4.00e-03,
1000,4.00e-03,
1001,-8.00e-03,
1002,-4.00e-03,
1003,4.00e-03,
1004,-4.00e-03,
1005,4.00e-03,
1006,4.00e-03,
1007,-4.00e-03,
1008,4.00e-03,
1009,-4.00e-03,
1010,-4.00e-03,
1011,4.00e-03,
1012,4.00e-03,
1013,-4.00e-03,
1014,-4.00e-03,
1015,4.00e-03,
1016,4.00e-03,
1017,-4.00e-03,
1018,-4.00e-03,
1019,8.00e-03,
1020,4.00e-03,
1021,-4.00e-03,
1022,4.00e-03,
1023,-4.00e-03,
1024,4.00e-03,
1025,-4.00e-03,
1026,4.00e-03,
1027,-4.00e-03,
1028,-4.00e-03,
1029,4.00e-03,
1030,4.00e-03,
1031,-4.00e-03,
1032,4.00e-03,
1033,-4.00e-03,
1034,-4.00e-03,
1035,8.00e-03,
1036,4.00e-03,
1037,-4.00e-03,
1038,4.00e-03,
1039,-4.00e-03,
1040,4.00e-03,
1041,-4.00e-03,
1042,8.00e-03,
1043,-4.00e-03,
1044,8.00e-03,
1045,-4.00e-03,
1046,-4.00e-03,
1047,8.00e-03,
1048,-4.00e-03,
1049,8.00e-03,
1050,4.00e-03,
1051,-4.00e-03,
1052,-4.00e-03,
1053,8.00e-03,
1054,8.00e-03,
1055,-4.00e-03,
1056,4.00e-03,
1057,-4.00e-03,
1058,4.00e-03,
1059,-8.00e-03,
1060,4.00e-03,
1061,-8.00e-03,
1062,-4.00e-03,
1063,8.00e-03,
1064,-4.00e-03,
1065,8.00e-03,
1066,0.00e+00,
1067,8.00e-03,
1068,0.00e+00,
1069,8.00e-03,
1070,0.00e+00,
1071,8.00e-03,
1072,8.00e-03,
1073,-4.00e-03,
1074,-4.00e-03,
1075,4.00e-03,
1076,4.00e-03,
1077,-8.00e-03,
1078,-8.00e-03,
1079,4.00e-03,
1080,-8.00e-03,
1081,4.00e-03,
1082,-4.00e-03,
1083,4.00e-03,
1084,0.00e+00,
1085,8.00e-03,
1086,0.00e+00,
1087,8.00e-03,
1088,0.00e+00,
1089,8.00e-03,
1090,-4.00e-03,
1091,8.00e-03,
1092,4.00e-03,
1093,-4.00e-03,
1094,4.00e-03,
1095,-8.00e-03,
1096,-8.00e-03,
1097,4.00e-03,
1098,-8.00e-03,
1099,4.00e-03,
1100,-8.00e-03,
1101,4.00e-03,
1102,-4.00e-03,
1103,4.00e-03,
1104,4.00e-03,
1105,-4.00e-03,
1106,-4.00e-03,
1107,8.00e-03,
1108,8.00e-03,
1109,-4.00e-03,
1110,4.00e-03,
1111,-4.00e-03,
1112,8.00e-03,
1113,-8.00e-03,
1114,-8.00e-03,
1115,4.00e-03,
1116,-8.00e-03,
1117,4.00e-03,
1118,-8.00e-03,
1119,0.00e+00,
1120,-8.00e-03,
1121,5.20e-02,
1122,4.80e-02,
1123,-2.00e-02,
1124,2.80e-02,
1125,-8.00e-03,
1126,4.00e-03,
1127,2.00e-02,
1128,2.00e-02,
1129,4.00e-03,
1130,2.00e-02,
1131,8.00e-03,
1132,1.20e-02,
1133,2.40e-02,
1134,1.60e-02,
1135,2.80e-02,
1136,2.80e-02,
1137,1.60e-02,
1138,2.00e-02,
1139,3.20e-02,
1140,2.40e-02,
1141,3.60e-02,
1142,2.80e-02,
1143,4.00e-02,
1144,3.20e-02,
1145,4.00e-02,
1146,3.20e-02,
1147,4.40e-02,
1148,3.60e-02,
1149,4.80e-02,
1150,4.00e-02,
1151,5.20e-02,
1152,4.00e-02,
1153,5.60e-02,
1154,4.40e-02,
1155,5.60e-02,
1156,4.80e-02,
1157,6.00e-02,
1158,5.20e-02,
1159,6.40e-02,
1160,5.20e-02,
1161,6.40e-02,
1162,5.60e-02,
1163,6.80e-02,
1164,6.00e-02,
1165,7.20e-02,
1166,6.40e-02,
1167,7.20e-02,
1168,6.40e-02,
1169,7.60e-02,
1170,6.80e-02,
1171,8.00e-02,
1172,6.80e-02,
1173,8.40e-02,
1174,7.20e-02,
1175,8.40e-02,
1176,7.60e-02,
1177,8.80e-02,
1178,8.00e-02,
1179,9.20e-02,
1180,9.20e-02,
1181,8.00e-02,
1182,8.40e-02,
1183,9.60e-02,
1184,8.40e-02,
1185,1.00e-01,
1186,8.80e-02,
1187,1.04e-01,
1188,9.20e-02,
1189,1.04e-01,
1190,9.60e-02,
1191,1.08e-01,
1192,9.60e-02,
1193,1.08e-01,
1194,1.12e-01,
1195,1.00e-01,
1196,1.04e-01,
1197,1.16e-01,
1198,1.16e-01,
1199,1.04e-01,
