Lab 3/T4_VG_9.csv

X,CH2,Start,Increment,
Sequence,Volt,-3.720000e-05,5.000000e-08
0,-6.00e-01,
1,0.00e+00,
2,-6.00e-01,
3,0.00e+00,
4,-4.00e-01,
5,2.00e-01,
6,4.00e-01,
7,-2.00e-01,
8,4.00e-01,
9,0.00e+00,
10,4.00e-01,
11,0.00e+00,
12,4.00e-01,
13,-2.00e-01,
14,2.00e-01,
15,-4.00e-01,
16,0.00e+00,
17,-4.00e-01,
18,0.00e+00,
19,-6.00e-01,
20,-4.00e-01,
21,0.00e+00,
22,-4.00e-01,
23,2.00e-01,
24,-2.00e-01,
25,4.00e-01,
26,0.00e+00,
27,4.00e-01,
28,4.00e-01,
29,0.00e+00,
30,4.00e-01,
31,-2.00e-01,
32,2.00e-01,
33,-4.00e-01,
34,2.00e-01,
35,-4.00e-01,
36,0.00e+00,
37,-4.00e-01,
38,0.00e+00,
39,-6.00e-01,
40,-4.00e-01,
41,2.00e-01,
42,-2.00e-01,
43,4.00e-01,
44,-2.00e-01,
45,4.00e-01,
46,4.00e-01,
47,0.00e+00,
48,4.00e-01,
49,-2.00e-01,
50,2.00e-01,
51,-2.00e-01,
52,2.00e-01,
53,-4.00e-01,
54,2.00e-01,
55,-4.00e-01,
56,-4.00e-01,
57,0.00e+00,
58,-4.00e-01,
59,2.00e-01,
60,-4.00e-01,
61,2.00e-01,
62,-2.00e-01,
63,4.00e-01,
64,0.00e+00,
65,4.00e-01,
66,4.00e-01,
67,0.00e+00,
68,-2.00e-01,
69,4.00e-01,
70,-2.00e-01,
71,4.00e-01,
72,-4.00e-01,
73,2.00e-01,
74,2.00e-01,
75,-4.00e-01,
76,-4.00e-01,
77,2.00e-01,
78,-4.00e-01,
79,2.00e-01,
80,-2.00e-01,
81,4.00e-01,
82,-2.00e-01,
83,4.20e+00,
84,4.60e+00,
85,8.00e+00,
86,8.40e+00,
87,1.22e+01,
88,1.22e+01,
89,1.46e+01,
90,1.44e+01,
91,1.62e+01,
92,1.60e+01,
93,1.68e+01,
94,1.68e+01,
95,1.76e+01,
96,1.72e+01,
97,1.78e+01,
98,1.74e+01,
99,1.80e+01,
100,1.76e+01,
101,1.80e+01,
102,1.80e+01,
103,1.76e+01,
104,1.80e+01,
105,1.76e+01,
106,1.76e+01,
107,1.82e+01,
108,1.82e+01,
109,1.76e+01,
110,1.76e+01,
111,1.82e+01,
112,1.80e+01,
113,1.78e+01,
114,1.78e+01,
115,1.82e+01,
116,1.82e+01,
117,1.76e+01,
118,1.80e+01,
119,1.78e+01,
120,1.80e+01,
121,1.76e+01,
122,1.80e+01,
123,1.78e+01,
124,1.78e+01,
125,1.82e+01,
126,1.80e+01,
127,1.76e+01,
128,1.82e+01,
129,1.76e+01,
130,1.76e+01,
131,1.82e+01,
132,1.82e+01,
133,1.76e+01,
134,1.78e+01,
135,1.82e+01,
136,1.76e+01,
137,1.82e+01,
138,1.78e+01,
139,1.82e+01,
140,1.82e+01,
141,1.76e+01,
142,1.78e+01,
143,1.82e+01,
144,1.76e+01,
145,1.82e+01,
146,1.78e+01,
147,1.82e+01,
148,1.78e+01,
149,1.82e+01,
150,1.78e+01,
151,1.82e+01,
152,1.82e+01,
153,1.78e+01,
154,1.78e+01,
155,1.82e+01,
156,1.78e+01,
157,1.82e+01,
158,1.82e+01,
159,1.78e+01,
160,1.78e+01,
161,1.82e+01,
162,1.78e+01,
163,1.82e+01,
164,1.82e+01,
165,1.76e+01,
166,1.76e+01,
167,1.82e+01,
168,1.78e+01,
169,1.82e+01,
170,1.78e+01,
171,1.82e+01,
172,1.78e+01,
173,1.82e+01,
174,1.78e+01,
175,1.82e+01,
176,1.78e+01,
177,1.82e+01,
178,1.82e+01,
179,1.78e+01,
180,1.78e+01,
181,1.82e+01,
182,1.78e+01,
183,1.82e+01,
184,1.78e+01,
185,1.82e+01,
186,1.82e+01,
187,1.78e+01,
188,1.82e+01,
189,1.78e+01,
190,1.78e+01,
191,1.82e+01,
192,1.78e+01,
193,1.82e+01,
194,1.78e+01,
195,1.82e+01,
196,1.78e+01,
197,1.82e+01,
198,1.78e+01,
199,1.82e+01,
200,1.82e+01,
201,1.78e+01,
202,1.82e+01,
203,1.76e+01,
204,1.82e+01,
205,1.78e+01,
206,1.82e+01,
207,1.78e+01,
208,1.78e+01,
209,1.82e+01,
210,1.78e+01,
211,1.82e+01,
212,1.78e+01,
213,1.82e+01,
214,1.78e+01,
215,1.82e+01,
216,1.78e+01,
217,1.82e+01,
218,1.78e+01,
219,1.82e+01,
220,1.78e+01,
221,1.82e+01,
222,1.78e+01,
223,1.82e+01,
224,1.78e+01,
225,1.82e+01,
226,1.78e+01,
227,1.82e+01,
228,1.78e+01,
229,1.82e+01,
230,1.78e+01,
231,1.82e+01,
232,1.78e+01,
233,1.82e+01,
234,1.78e+01,
235,1.82e+01,
236,1.78e+01,
237,1.82e+01,
238,1.78e+01,
239,1.82e+01,
240,1.82e+01,
241,1.28e+01,
242,1.26e+01,
243,7.80e+00,
244,7.60e+00,
245,6.00e+00,
246,6.40e+00,
247,3.00e+00,
248,5.00e+00,
249,6.00e-01,
250,2.20e+00,
251,2.00e-01,
252,0.00e+00,
253,1.40e+00,
254,1.20e+00,
255,-2.00e-01,
256,-2.00e-01,
257,8.00e-01,
258,-2.00e-01,
259,6.00e-01,
260,-2.00e-01,
261,6.00e-01,
262,0.00e+00,
263,6.00e-01,
264,4.00e-01,
265,0.00e+00,
266,6.00e-01,
267,0.00e+00,
268,4.00e-01,
269,0.00e+00,
270,6.00e-01,
271,0.00e+00,
272,0.00e+00,
273,4.00e-01,
274,4.00e-01,
275,0.00e+00,
276,4.00e-01,
277,-2.00e-01,
278,0.00e+00,
279,6.00e-01,
280,4.00e-01,
281,-2.00e-01,
282,4.00e-01,
283,-2.00e-01,
284,4.00e-01,
285,-2.00e-01,
286,4.00e-01,
287,0.00e+00,
288,4.00e-01,
289,-2.00e-01,
290,4.00e-01,
291,-2.00e-01,
292,-2.00e-01,
293,4.00e-01,
294,4.00e-01,
295,-2.00e-01,
296,-2.00e-01,
297,4.00e-01,
298,4.00e-01,
299,-2.00e-01,
300,4.00e-01,
301,-2.00e-01,
302,4.00e-01,
303,-2.00e-01,
304,-2.00e-01,
305,4.00e-01,
306,-2.00e-01,
307,4.00e-01,
308,-2.00e-01,
309,4.00e-01,
310,4.00e-01,
311,-2.00e-01,
312,-2.00e-01,
313,2.00e-01,
314,4.00e-01,
315,-2.00e-01,
316,-2.00e-01,
317,4.00e-01,
318,4.00e-01,
319,-2.00e-01,
320,4.00e-01,
321,-4.00e-01,
322,4.00e-01,
323,-2.00e-01,
324,-2.00e-01,
325,4.00e-01,
326,-2.00e-01,
327,4.00e-01,
328,-2.00e-01,
329,4.00e-01,
330,-2.00e-01,
331,4.00e-01,
332,-2.00e-01,
333,4.00e-01,
334,-2.00e-01,
335,4.00e-01,
336,-2.00e-01,
337,2.00e-01,
338,2.00e-01,
339,-2.00e-01,
340,-2.00e-01,
341,2.00e-01,
342,4.00e-01,
343,-2.00e-01,
344,-2.00e-01,
345,2.00e-01,
346,-2.00e-01,
347,2.00e-01,
348,-2.00e-01,
349,2.00e-01,
350,-2.00e-01,
351,4.00e-01,
352,-2.00e-01,
353,2.00e-01,
354,-2.00e-01,
355,4.00e-01,
356,-2.00e-01,
357,2.00e-01,
358,-2.00e-01,
359,4.00e-01,
360,2.00e-01,
361,-2.00e-01,
362,2.00e-01,
363,-2.00e-01,
364,2.00e-01,
365,-2.00e-01,
366,2.00e-01,
367,-2.00e-01,
368,-2.00e-01,
369,2.00e-01,
370,2.00e-01,
371,-2.00e-01,
372,-2.00e-01,
373,2.00e-01,
374,-2.00e-01,
375,2.00e-01,
376,-2.00e-01,
377,2.00e-01,
378,2.00e-01,
379,-4.00e-01,
380,-2.00e-01,
381,2.00e-01,
382,4.00e-01,
383,-2.00e-01,
384,-2.00e-01,
385,2.00e-01,
386,2.00e-01,
387,-2.00e-01,
388,2.00e-01,
389,-2.00e-01,
390,-2.00e-01,
391,4.00e-01,
392,-2.00e-01,
393,2.00e-01,
394,2.00e-01,
395,-4.00e-01,
396,-4.00e-01,
397,2.00e-01,
398,2.00e-01,
399,-6.00e-01,
400,-6.00e-01,
401,0.00e+00,
402,0.00e+00,
403,-6.00e-01,
404,-4.00e-01,
405,2.00e-01,
406,4.00e-01,
407,-2.00e-01,
408,0.00e+00,
409,6.00e-01,
410,4.00e-01,
411,0.00e+00,
412,4.00e-01,
413,-2.00e-01,
414,4.00e-01,
415,-2.00e-01,
416,2.00e-01,
417,-4.00e-01,
418,0.00e+00,
419,-6.00e-01,
420,-4.00e-01,
421,2.00e-01,
422,-4.00e-01,
423,2.00e-01,
424,-2.00e-01,
425,4.00e-01,
426,0.00e+00,
427,6.00e-01,
428,4.00e-01,
429,0.00e+00,
430,0.00e+00,
431,6.00e-01,
432,2.00e-01,
433,-4.00e-01,
434,2.00e-01,
435,-4.00e-01,
436,-4.00e-01,
437,2.00e-01,
438,-6.00e-01,
439,2.00e-01,
440,-4.00e-01,
441,2.00e-01,
442,-2.00e-01,
443,4.00e-01,
444,0.00e+00,
445,4.00e-01,
446,6.00e-01,
447,0.00e+00,
448,4.00e-01,
449,0.00e+00,
450,4.00e-01,
451,-2.00e-01,
452,2.00e-01,
453,-4.00e-01,
454,2.00e-01,
455,-4.00e-01,
456,0.00e+00,
457,-4.00e-01,
458,-4.00e-01,
459,2.00e-01,
460,2.00e-01,
461,-4.00e-01,
462,4.00e-01,
463,-2.00e-01,
464,0.00e+00,
465,4.00e-01,
466,4.00e-01,
467,0.00e+00,
468,4.00e-01,
469,-2.00e-01,
470,4.00e-01,
471,-2.00e-01,
472,2.00e-01,
473,-4.00e-01,
474,2.00e-01,
475,-4.00e-01,
476,-4.00e-01,
477,2.00e-01,
478,2.00e-01,
479,-4.00e-01,
480,-2.00e-01,
481,4.00e-01,
482,0.00e+00,
483,4.40e+00,
484,4.20e+00,
485,7.80e+00,
486,8.00e+00,
487,1.22e+01,
488,1.20e+01,
489,1.48e+01,
490,1.46e+01,
491,1.62e+01,
492,1.60e+01,
493,1.70e+01,
494,1.68e+01,
495,1.76e+01,
496,1.72e+01,
497,1.78e+01,
498,1.74e+01,
499,1.80e+01,
500,1.76e+01,
501,1.80e+01,
502,1.76e+01,
503,1.80e+01,
504,1.80e+01,
505,1.76e+01,
506,1.78e+01,
507,1.82e+01,
508,1.82e+01,
509,1.76e+01,
510,1.82e+01,
511,1.76e+01,
512,1.78e+01,
513,1.82e+01,
514,1.76e+01,
515,1.82e+01,
516,1.78e+01,
517,1.82e+01,
518,1.78e+01,
519,1.82e+01,
520,1.78e+01,
521,1.82e+01,
522,1.78e+01,
523,1.82e+01,
524,1.82e+01,
525,1.76e+01,
526,1.78e+01,
527,1.82e+01,
528,1.78e+01,
529,1.82e+01,
530,1.82e+01,
531,1.78e+01,
532,1.82e+01,
533,1.76e+01,
534,1.82e+01,
535,1.78e+01,
536,1.78e+01,
537,1.82e+01,
538,1.78e+01,
539,1.82e+01,
540,1.78e+01,
541,1.82e+01,
542,1.78e+01,
543,1.82e+01,
544,1.78e+01,
545,1.82e+01,
546,1.78e+01,
547,1.82e+01,
548,1.78e+01,
549,1.82e+01,
550,1.78e+01,
551,1.82e+01,
552,1.78e+01,
553,1.82e+01,
554,1.82e+01,
555,1.78e+01,
556,1.78e+01,
557,1.82e+01,
558,1.78e+01,
559,1.82e+01,
560,1.78e+01,
561,1.82e+01,
562,1.78e+01,
563,1.82e+01,
564,1.82e+01,
565,1.78e+01,
566,1.82e+01,
567,1.78e+01,
568,1.78e+01,
569,1.82e+01,
570,1.78e+01,
571,1.82e+01,
572,1.78e+01,
573,1.82e+01,
574,1.78e+01,
575,1.82e+01,
576,1.78e+01,
577,1.82e+01,
578,1.82e+01,
579,1.76e+01,
580,1.78e+01,
581,1.82e+01,
582,1.78e+01,
583,1.82e+01,
584,1.78e+01,
585,1.82e+01,
586,1.78e+01,
587,1.82e+01,
588,1.78e+01,
589,1.82e+01,
590,1.82e+01,
591,1.76e+01,
592,1.78e+01,
593,1.82e+01,
594,1.78e+01,
595,1.82e+01,
596,1.78e+01,
597,1.82e+01,
598,1.78e+01,
599,1.82e+01,
600,1.78e+01,
601,1.82e+01,
602,1.82e+01,
603,1.78e+01,
604,1.78e+01,
605,1.82e+01,
606,1.78e+01,
607,1.82e+01,
608,1.78e+01,
609,1.82e+01,
610,1.78e+01,
611,1.82e+01,
612,1.82e+01,
613,1.78e+01,
614,1.78e+01,
615,1.82e+01,
616,1.78e+01,
617,1.82e+01,
618,1.78e+01,
619,1.82e+01,
620,1.78e+01,
621,1.82e+01,
622,1.82e+01,
623,1.78e+01,
624,1.78e+01,
625,1.82e+01,
626,1.78e+01,
627,1.82e+01,
628,1.78e+01,
629,1.82e+01,
630,1.78e+01,
631,1.82e+01,
632,1.78e+01,
633,1.82e+01,
634,1.78e+01,
635,1.82e+01,
636,1.78e+01,
637,1.82e+01,
638,1.78e+01,
639,1.82e+01,
640,1.80e+01,
641,1.26e+01,
642,1.28e+01,
643,7.80e+00,
644,7.80e+00,
645,6.00e+00,
646,6.40e+00,
647,3.20e+00,
648,5.00e+00,
649,1.00e+00,
650,2.20e+00,
651,2.00e-01,
652,0.00e+00,
653,1.40e+00,
654,-2.00e-01,
655,1.00e+00,
656,8.00e-01,
657,-2.00e-01,
658,6.00e-01,
659,-2.00e-01,
660,6.00e-01,
661,-2.00e-01,
662,0.00e+00,
663,6.00e-01,
664,4.00e-01,
665,-2.00e-01,
666,6.00e-01,
667,0.00e+00,
668,0.00e+00,
669,6.00e-01,
670,0.00e+00,
671,4.00e-01,
672,4.00e-01,
673,-2.00e-01,
674,4.00e-01,
675,0.00e+00,
676,0.00e+00,
677,4.00e-01,
678,4.00e-01,
679,0.00e+00,
680,4.00e-01,
681,-2.00e-01,
682,4.00e-01,
683,-2.00e-01,
684,-2.00e-01,
685,4.00e-01,
686,6.00e-01,
687,0.00e+00,
688,0.00e+00,
689,4.00e-01,
690,4.00e-01,
691,-2.00e-01,
692,4.00e-01,
693,-2.00e-01,
694,4.00e-01,
695,-2.00e-01,
696,-2.00e-01,
697,4.00e-01,
698,-2.00e-01,
699,4.00e-01,
700,-2.00e-01,
701,4.00e-01,
702,-2.00e-01,
703,4.00e-01,
704,-2.00e-01,
705,4.00e-01,
706,-2.00e-01,
707,4.00e-01,
708,-2.00e-01,
709,4.00e-01,
710,-2.00e-01,
711,4.00e-01,
712,-2.00e-01,
713,4.00e-01,
714,-2.00e-01,
715,4.00e-01,
716,-2.00e-01,
717,4.00e-01,
718,4.00e-01,
719,-2.00e-01,
720,-2.00e-01,
721,2.00e-01,
722,-2.00e-01,
723,4.00e-01,
724,-2.00e-01,
725,2.00e-01,
726,-2.00e-01,
727,4.00e-01,
728,2.00e-01,
729,-2.00e-01,
730,-2.00e-01,
731,4.00e-01,
732,-2.00e-01,
733,4.00e-01,
734,-2.00e-01,
735,4.00e-01,
736,-2.00e-01,
737,2.00e-01,
738,2.00e-01,
739,-2.00e-01,
740,-2.00e-01,
741,2.00e-01,
742,-2.00e-01,
743,4.00e-01,
744,-2.00e-01,
745,2.00e-01,
746,2.00e-01,
747,-2.00e-01,
748,-2.00e-01,
749,4.00e-01,
750,-2.00e-01,
751,2.00e-01,
752,-2.00e-01,
753,2.00e-01,
754,-2.00e-01,
755,4.00e-01,
756,-2.00e-01,
757,2.00e-01,
758,-2.00e-01,
759,2.00e-01,
760,2.00e-01,
761,-2.00e-01,
762,2.00e-01,
763,-2.00e-01,
764,-2.00e-01,
765,2.00e-01,
766,-2.00e-01,
767,4.00e-01,
768,2.00e-01,
769,-2.00e-01,
770,2.00e-01,
771,-2.00e-01,
772,-2.00e-01,
773,2.00e-01,
774,4.00e-01,
775,-2.00e-01,
776,2.00e-01,
777,-4.00e-01,
778,-2.00e-01,
779,4.00e-01,
780,-2.00e-01,
781,4.00e-01,
782,-2.00e-01,
783,2.00e-01,
784,2.00e-01,
785,-2.00e-01,
786,-2.00e-01,
787,4.00e-01,
788,2.00e-01,
789,-2.00e-01,
790,-2.00e-01,
791,4.00e-01,
792,-2.00e-01,
793,2.00e-01,
794,-4.00e-01,
795,2.00e-01,
796,2.00e-01,
797,-4.00e-01,
798,2.00e-01,
799,-6.00e-01,
800,0.00e+00,
801,-6.00e-01,
802,-6.00e-01,
803,0.00e+00,
804,-4.00e-01,
805,4.00e-01,
806,-2.00e-01,
807,4.00e-01,
808,0.00e+00,
809,6.00e-01,
810,0.00e+00,
811,6.00e-01,
812,4.00e-01,
813,-2.00e-01,
814,4.00e-01,
815,-4.00e-01,
816,2.00e-01,
817,-4.00e-01,
818,2.00e-01,
819,-6.00e-01,
820,-6.00e-01,
821,2.00e-01,
822,-4.00e-01,
823,2.00e-01,
824,-4.00e-01,
825,4.00e-01,
826,4.00e-01,
827,-2.00e-01,
828,0.00e+00,
829,6.00e-01,
830,4.00e-01,
831,-2.00e-01,
832,-2.00e-01,
833,4.00e-01,
834,2.00e-01,
835,-4.00e-01,
836,-4.00e-01,
837,2.00e-01,
838,-4.00e-01,
839,0.00e+00,
840,-4.00e-01,
841,2.00e-01,
842,-2.00e-01,
843,4.00e-01,
844,-2.00e-01,
845,4.00e-01,
846,6.00e-01,
847,0.00e+00,
848,6.00e-01,
849,-2.00e-01,
850,4.00e-01,
851,-2.00e-01,
852,-2.00e-01,
853,2.00e-01,
854,2.00e-01,
855,-4.00e-01,
856,-4.00e-01,
857,2.00e-01,
858,-4.00e-01,
859,2.00e-01,
860,-4.00e-01,
861,2.00e-01,
862,-2.00e-01,
863,4.00e-01,
864,0.00e+00,
865,4.00e-01,
866,4.00e-01,
867,-2.00e-01,
868,4.00e-01,
869,-2.00e-01,
870,4.00e-01,
871,-2.00e-01,
872,2.00e-01,
873,-2.00e-01,
874,-4.00e-01,
875,0.00e+00,
876,-4.00e-01,
877,2.00e-01,
878,-4.00e-01,
879,2.00e-01,
880,-2.00e-01,
881,4.00e-01,
882,-2.00e-01,
883,3.60e+00,
884,3.80e+00,
885,8.00e+00,
886,7.60e+00,
887,1.22e+01,
888,1.20e+01,
889,1.44e+01,
890,1.44e+01,
891,1.60e+01,
892,1.58e+01,
893,1.70e+01,
894,1.68e+01,
895,1.76e+01,
896,1.72e+01,
897,1.78e+01,
898,1.74e+01,
899,1.80e+01,
900,1.76e+01,
901,1.80e+01,
902,1.76e+01,
903,1.82e+01,
904,1.76e+01,
905,1.82e+01,
906,1.78e+01,
907,1.82e+01,
908,1.82e+01,
909,1.76e+01,
910,1.78e+01,
911,1.82e+01,
912,1.78e+01,
913,1.82e+01,
914,1.78e+01,
915,1.82e+01,
916,1.80e+01,
917,1.76e+01,
918,1.78e+01,
919,1.82e+01,
920,1.78e+01,
921,1.82e+01,
922,1.78e+01,
923,1.82e+01,
924,1.78e+01,
925,1.82e+01,
926,1.78e+01,
927,1.82e+01,
928,1.78e+01,
929,1.82e+01,
930,1.78e+01,
931,1.82e+01,
932,1.78e+01,
933,1.80e+01,
934,1.78e+01,
935,1.82e+01,
936,1.78e+01,
937,1.82e+01,
938,1.82e+01,
939,1.78e+01,
940,1.82e+01,
941,1.78e+01,
942,1.78e+01,
943,1.82e+01,
944,1.78e+01,
945,1.82e+01,
946,1.78e+01,
947,1.82e+01,
948,1.78e+01,
949,1.82e+01,
950,1.78e+01,
951,1.82e+01,
952,1.78e+01,
953,1.82e+01,
954,1.78e+01,
955,1.82e+01,
956,1.78e+01,
957,1.82e+01,
958,1.78e+01,
959,1.82e+01,
960,1.78e+01,
961,1.82e+01,
962,1.82e+01,
963,1.78e+01,
964,1.78e+01,
965,1.82e+01,
966,1.82e+01,
967,1.78e+01,
968,1.78e+01,
969,1.82e+01,
970,1.78e+01,
971,1.82e+01,
972,1.82e+01,
973,1.78e+01,
974,1.78e+01,
975,1.82e+01,
976,1.82e+01,
977,1.76e+01,
978,1.78e+01,
979,1.82e+01,
980,1.78e+01,
981,1.82e+01,
982,1.82e+01,
983,1.78e+01,
984,1.78e+01,
985,1.82e+01,
986,1.78e+01,
987,1.82e+01,
988,1.82e+01,
989,1.78e+01,
990,1.78e+01,
991,1.82e+01,
992,1.82e+01,
993,1.78e+01,
994,1.82e+01,
995,1.78e+01,
996,1.82e+01,
997,1.78e+01,
998,1.78e+01,
999,1.82e+01,
1000,1.78e+01,
1001,1.82e+01,
1002,1.78e+01,
1003,1.82e+01,
1004,1.78e+01,
1005,1.82e+01,
1006,1.78e+01,
1007,1.82e+01,
1008,1.78e+01,
1009,1.82e+01,
1010,1.78e+01,
1011,1.82e+01,
1012,1.78e+01,
1013,1.82e+01,
1014,1.78e+01,
1015,1.82e+01,
1016,1.82e+01,
1017,1.78e+01,
1018,1.82e+01,
1019,1.78e+01,
1020,1.78e+01,
1021,1.82e+01,
1022,1.78e+01,
1023,1.82e+01,
1024,1.78e+01,
1025,1.82e+01,
1026,1.78e+01,
1027,1.82e+01,
1028,1.78e+01,
1029,1.82e+01,
1030,1.78e+01,
1031,1.82e+01,
1032,1.78e+01,
1033,1.82e+01,
1034,1.82e+01,
1035,1.78e+01,
1036,1.78e+01,
1037,1.82e+01,
1038,1.78e+01,
1039,1.82e+01,
1040,1.82e+01,
1041,1.32e+01,
1042,1.30e+01,
1043,8.00e+00,
1044,7.80e+00,
1045,6.00e+00,
1046,6.40e+00,
1047,3.20e+00,
1048,5.40e+00,
1049,1.40e+00,
1050,2.40e+00,
1051,4.00e-01,
1052,1.20e+00,
1053,-2.00e-01,
1054,1.00e+00,
1055,0.00e+00,
1056,8.00e-01,
1057,-2.00e-01,
1058,-2.00e-01,
1059,8.00e-01,
1060,0.00e+00,
1061,6.00e-01,
1062,0.00e+00,
1063,6.00e-01,
1064,0.00e+00,
1065,6.00e-01,
1066,6.00e-01,
1067,-2.00e-01,
1068,0.00e+00,
1069,6.00e-01,
1070,6.00e-01,
1071,-2.00e-01,
1072,0.00e+00,
1073,4.00e-01,
1074,4.00e-01,
1075,0.00e+00,
1076,4.00e-01,
1077,-2.00e-01,
1078,0.00e+00,
1079,4.00e-01,
1080,4.00e-01,
1081,-2.00e-01,
1082,4.00e-01,
1083,-2.00e-01,
1084,4.00e-01,
1085,-2.00e-01,
1086,4.00e-01,
1087,-2.00e-01,
1088,-2.00e-01,
1089,4.00e-01,
1090,4.00e-01,
1091,-2.00e-01,
1092,4.00e-01,
1093,-2.00e-01,
1094,4.00e-01,
1095,-2.00e-01,
1096,-2.00e-01,
1097,4.00e-01,
1098,4.00e-01,
1099,-2.00e-01,
1100,-2.00e-01,
1101,4.00e-01,
1102,-2.00e-01,
1103,4.00e-01,
1104,-2.00e-01,
1105,4.00e-01,
1106,4.00e-01,
1107,-2.00e-01,
1108,4.00e-01,
1109,-2.00e-01,
1110,-2.00e-01,
1111,4.00e-01,
1112,4.00e-01,
1113,-2.00e-01,
1114,-2.00e-01,
1115,4.00e-01,
1116,-2.00e-01,
1117,4.00e-01,
1118,-2.00e-01,
1119,4.00e-01,
1120,-2.00e-01,
1121,4.00e-01,
1122,-2.00e-01,
1123,4.00e-01,
1124,-2.00e-01,
1125,4.00e-01,
1126,-2.00e-01,
1127,4.00e-01,
1128,-2.00e-01,
1129,2.00e-01,
1130,2.00e-01,
1131,-2.00e-01,
1132,-2.00e-01,
1133,2.00e-01,
1134,-2.00e-01,
1135,2.00e-01,
1136,2.00e-01,
1137,-2.00e-01,
1138,4.00e-01,
1139,-2.00e-01,
1140,-2.00e-01,
1141,2.00e-01,
1142,-2.00e-01,
1143,4.00e-01,
1144,-2.00e-01,
1145,2.00e-01,
1146,4.00e-01,
1147,-2.00e-01,
1148,-2.00e-01,
1149,4.00e-01,
1150,-2.00e-01,
1151,2.00e-01,
1152,-2.00e-01,
1153,2.00e-01,
1154,-2.00e-01,
1155,4.00e-01,
1156,2.00e-01,
1157,-2.00e-01,
1158,-2.00e-01,
1159,2.00e-01,
1160,-2.00e-01,
1161,2.00e-01,
1162,2.00e-01,
1163,-2.00e-01,
1164,-2.00e-01,
1165,2.00e-01,
1166,-2.00e-01,
1167,2.00e-01,
1168,-2.00e-01,
1169,2.00e-01,
1170,-2.00e-01,
1171,2.00e-01,
1172,2.00e-01,
1173,-2.00e-01,
1174,2.00e-01,
1175,-2.00e-01,
1176,-2.00e-01,
1177,2.00e-01,
1178,2.00e-01,
1179,-4.00e-01,
1180,-2.00e-01,
1181,2.00e-01,
1182,2.00e-01,
1183,-2.00e-01,
1184,-2.00e-01,
1185,2.00e-01,
1186,2.00e-01,
1187,-2.00e-01,
1188,2.00e-01,
1189,-2.00e-01,
1190,-2.00e-01,
1191,4.00e-01,
1192,2.00e-01,
1193,-2.00e-01,
1194,2.00e-01,
1195,-2.00e-01,
1196,2.00e-01,
1197,-4.00e-01,
