Lab 3/T4_VG_7.csv

X,CH2,Start,Increment,
Sequence,Volt,-3.712000e-05,5.000000e-08
0,4.00e-01,
1,0.00e+00,
2,4.00e-01,
3,-2.00e-01,
4,4.00e-01,
5,-2.00e-01,
6,4.00e-01,
7,-2.00e-01,
8,0.00e+00,
9,4.00e-01,
10,-2.00e-01,
11,4.00e-01,
12,4.00e-01,
13,-2.00e-01,
14,4.00e-01,
15,-2.00e-01,
16,-2.00e-01,
17,4.00e-01,
18,-2.00e-01,
19,4.00e-01,
20,6.00e-01,
21,-2.00e-01,
22,-2.00e-01,
23,4.00e-01,
24,-2.00e-01,
25,4.00e-01,
26,-2.00e-01,
27,4.00e-01,
28,-2.00e-01,
29,4.00e-01,
30,4.00e-01,
31,-2.00e-01,
32,-2.00e-01,
33,4.00e-01,
34,4.00e-01,
35,-2.00e-01,
36,4.00e-01,
37,-2.00e-01,
38,-2.00e-01,
39,4.00e-01,
40,-2.00e-01,
41,4.00e-01,
42,-2.00e-01,
43,4.00e-01,
44,-2.00e-01,
45,4.00e-01,
46,2.00e-01,
47,-2.00e-01,
48,-2.00e-01,
49,2.00e-01,
50,-2.00e-01,
51,4.00e-01,
52,2.00e-01,
53,-2.00e-01,
54,-2.00e-01,
55,2.00e-01,
56,2.00e-01,
57,-2.00e-01,
58,4.00e-01,
59,-2.00e-01,
60,-2.00e-01,
61,4.00e-01,
62,2.00e-01,
63,-2.00e-01,
64,2.00e-01,
65,-2.00e-01,
66,-2.00e-01,
67,2.00e-01,
68,-2.00e-01,
69,4.00e-01,
70,2.00e-01,
71,-4.00e-01,
72,2.00e-01,
73,-2.00e-01,
74,2.00e-01,
75,-2.00e-01,
76,-2.00e-01,
77,4.00e-01,
78,2.00e-01,
79,-2.00e-01,
80,-2.00e-01,
81,2.00e-01,
82,-2.00e-01,
83,2.00e-01,
84,2.00e-01,
85,-4.00e-01,
86,2.00e-01,
87,-4.00e-01,
88,2.00e-01,
89,-2.00e-01,
90,2.00e-01,
91,-2.00e-01,
92,2.00e-01,
93,-2.00e-01,
94,2.00e-01,
95,-2.00e-01,
96,-2.00e-01,
97,2.00e-01,
98,2.00e-01,
99,-2.00e-01,
100,4.00e-01,
101,-4.00e-01,
102,2.00e-01,
103,-2.00e-01,
104,-2.00e-01,
105,2.00e-01,
106,2.00e-01,
107,-2.00e-01,
108,-2.00e-01,
109,2.00e-01,
110,-2.00e-01,
111,2.00e-01,
112,2.00e-01,
113,-2.00e-01,
114,2.00e-01,
115,-4.00e-01,
116,-4.00e-01,
117,2.00e-01,
118,2.00e-01,
119,-4.00e-01,
120,2.00e-01,
121,-2.00e-01,
122,2.00e-01,
123,-4.00e-01,
124,-2.00e-01,
125,4.00e-01,
126,-2.00e-01,
127,2.00e-01,
128,-2.00e-01,
129,2.00e-01,
130,2.00e-01,
131,-2.00e-01,
132,2.00e-01,
133,-4.00e-01,
134,2.00e-01,
135,-2.00e-01,
136,-4.00e-01,
137,4.00e-01,
138,2.00e-01,
139,-4.00e-01,
140,4.00e-01,
141,-4.00e-01,
142,2.00e-01,
143,-4.00e-01,
144,2.00e-01,
145,-4.00e-01,
146,2.00e-01,
147,-6.00e-01,
148,0.00e+00,
149,-4.00e-01,
150,-4.00e-01,
151,2.00e-01,
152,-2.00e-01,
153,4.00e-01,
154,-2.00e-01,
155,4.00e-01,
156,4.00e-01,
157,-2.00e-01,
158,-2.00e-01,
159,4.00e-01,
160,2.00e-01,
161,-4.00e-01,
162,-4.00e-01,
163,2.00e-01,
164,-4.00e-01,
165,2.00e-01,
166,-4.00e-01,
167,2.00e-01,
168,-4.00e-01,
169,2.00e-01,
170,-2.00e-01,
171,4.00e-01,
172,4.00e-01,
173,-2.00e-01,
174,4.00e-01,
175,-2.00e-01,
176,4.00e-01,
177,-2.00e-01,
178,2.00e-01,
179,-4.00e-01,
180,2.00e-01,
181,-4.00e-01,
182,-4.00e-01,
183,2.00e-01,
184,-4.00e-01,
185,2.00e-01,
186,-4.00e-01,
187,2.00e-01,
188,4.00e-01,
189,-2.00e-01,
190,4.00e-01,
191,-2.00e-01,
192,4.00e-01,
193,-2.00e-01,
194,4.00e-01,
195,-2.00e-01,
196,4.00e-01,
197,-4.00e-01,
198,2.00e-01,
199,-4.00e-01,
200,0.00e+00,
201,-4.00e-01,
202,-4.00e-01,
203,2.00e-01,
204,-2.00e-01,
205,2.00e-01,
206,-2.00e-01,
207,4.00e-01,
208,4.00e-01,
209,-2.00e-01,
210,-2.00e-01,
211,4.00e-01,
212,4.00e-01,
213,-2.00e-01,
214,2.00e-01,
215,-2.00e-01,
216,2.00e-01,
217,-4.00e-01,
218,-4.00e-01,
219,2.00e-01,
220,-4.00e-01,
221,2.00e-01,
222,2.00e-01,
223,-4.00e-01,
224,2.00e-01,
225,-2.00e-01,
226,4.00e-01,
227,-2.00e-01,
228,-2.00e-01,
229,4.00e-01,
230,-2.00e-01,
231,4.00e-01,
232,2.00e-01,
233,-2.00e-01,
234,2.00e-01,
235,-4.00e-01,
236,2.00e-01,
237,-4.00e-01,
238,2.00e-01,
239,-4.00e-01,
240,2.00e-01,
241,-4.00e-01,
242,-2.00e-01,
243,4.00e-01,
244,4.00e-01,
245,-2.00e-01,
246,4.00e-01,
247,-2.00e-01,
248,-2.00e-01,
249,4.00e-01,
250,2.00e-01,
251,-4.00e-01,
252,2.00e-01,
253,-4.00e-01,
254,-4.00e-01,
255,2.00e-01,
256,2.00e-01,
257,-4.00e-01,
258,-4.00e-01,
259,2.00e-01,
260,4.00e-01,
261,-2.00e-01,
262,-2.00e-01,
263,6.60e+00,
264,5.40e+00,
265,1.02e+01,
266,1.00e+01,
267,1.32e+01,
268,1.34e+01,
269,1.54e+01,
270,1.54e+01,
271,1.64e+01,
272,1.62e+01,
273,1.72e+01,
274,1.70e+01,
275,1.76e+01,
276,1.74e+01,
277,1.78e+01,
278,1.76e+01,
279,1.80e+01,
280,1.76e+01,
281,1.80e+01,
282,1.78e+01,
283,1.82e+01,
284,1.78e+01,
285,1.82e+01,
286,1.78e+01,
287,1.82e+01,
288,1.78e+01,
289,1.82e+01,
290,1.78e+01,
291,1.82e+01,
292,1.78e+01,
293,1.82e+01,
294,1.78e+01,
295,1.82e+01,
296,1.82e+01,
297,1.76e+01,
298,1.78e+01,
299,1.82e+01,
300,1.82e+01,
301,1.78e+01,
302,1.78e+01,
303,1.82e+01,
304,1.78e+01,
305,1.82e+01,
306,1.78e+01,
307,1.82e+01,
308,1.78e+01,
309,1.82e+01,
310,1.82e+01,
311,1.78e+01,
312,1.78e+01,
313,1.82e+01,
314,1.78e+01,
315,1.82e+01,
316,1.78e+01,
317,1.82e+01,
318,1.78e+01,
319,1.82e+01,
320,1.78e+01,
321,1.82e+01,
322,1.78e+01,
323,1.82e+01,
324,1.82e+01,
325,1.78e+01,
326,1.82e+01,
327,1.78e+01,
328,1.78e+01,
329,1.82e+01,
330,1.82e+01,
331,1.78e+01,
332,1.82e+01,
333,1.78e+01,
334,1.82e+01,
335,1.78e+01,
336,1.78e+01,
337,1.82e+01,
338,1.82e+01,
339,1.78e+01,
340,1.82e+01,
341,1.78e+01,
342,1.78e+01,
343,1.82e+01,
344,1.82e+01,
345,1.78e+01,
346,1.78e+01,
347,1.82e+01,
348,1.78e+01,
349,1.82e+01,
350,1.82e+01,
351,1.78e+01,
352,1.78e+01,
353,1.82e+01,
354,1.82e+01,
355,1.78e+01,
356,1.78e+01,
357,1.82e+01,
358,1.82e+01,
359,1.78e+01,
360,1.78e+01,
361,1.82e+01,
362,1.78e+01,
363,1.82e+01,
364,1.82e+01,
365,1.78e+01,
366,1.78e+01,
367,1.82e+01,
368,1.78e+01,
369,1.82e+01,
370,1.82e+01,
371,1.46e+01,
372,1.48e+01,
373,9.20e+00,
374,9.20e+00,
375,5.80e+00,
376,6.20e+00,
377,5.60e+00,
378,5.40e+00,
379,1.60e+00,
380,3.00e+00,
381,6.00e-01,
382,1.60e+00,
383,0.00e+00,
384,8.00e-01,
385,-2.00e-01,
386,8.00e-01,
387,-2.00e-01,
388,-2.00e-01,
389,6.00e-01,
390,6.00e-01,
391,0.00e+00,
392,0.00e+00,
393,6.00e-01,
394,4.00e-01,
395,-2.00e-01,
396,4.00e-01,
397,0.00e+00,
398,0.00e+00,
399,4.00e-01,
400,0.00e+00,
401,4.00e-01,
402,4.00e-01,
403,-2.00e-01,
404,4.00e-01,
405,-2.00e-01,
406,-2.00e-01,
407,4.00e-01,
408,4.00e-01,
409,-2.00e-01,
410,4.00e-01,
411,-2.00e-01,
412,0.00e+00,
413,4.00e-01,
414,4.00e-01,
415,-2.00e-01,
416,4.00e-01,
417,-2.00e-01,
418,4.00e-01,
419,-2.00e-01,
420,4.00e-01,
421,-2.00e-01,
422,4.00e-01,
423,-2.00e-01,
424,4.00e-01,
425,-2.00e-01,
426,4.00e-01,
427,-2.00e-01,
428,4.00e-01,
429,-2.00e-01,
430,-2.00e-01,
431,4.00e-01,
432,-2.00e-01,
433,4.00e-01,
434,-2.00e-01,
435,4.00e-01,
436,-2.00e-01,
437,4.00e-01,
438,2.00e-01,
439,-2.00e-01,
440,4.00e-01,
441,-2.00e-01,
442,-2.00e-01,
443,4.00e-01,
444,-2.00e-01,
445,4.00e-01,
446,4.00e-01,
447,-2.00e-01,
448,-2.00e-01,
449,2.00e-01,
450,2.00e-01,
451,-2.00e-01,
452,-2.00e-01,
453,4.00e-01,
454,2.00e-01,
455,-2.00e-01,
456,2.00e-01,
457,-2.00e-01,
458,-2.00e-01,
459,2.00e-01,
460,2.00e-01,
461,-2.00e-01,
462,2.00e-01,
463,-2.00e-01,
464,-2.00e-01,
465,2.00e-01,
466,2.00e-01,
467,-2.00e-01,
468,-2.00e-01,
469,4.00e-01,
470,-2.00e-01,
471,2.00e-01,
472,-2.00e-01,
473,2.00e-01,
474,2.00e-01,
475,-4.00e-01,
476,2.00e-01,
477,-2.00e-01,
478,2.00e-01,
479,-2.00e-01,
480,2.00e-01,
481,-4.00e-01,
482,-2.00e-01,
483,4.00e-01,
484,4.00e-01,
485,-4.00e-01,
486,-2.00e-01,
487,2.00e-01,
488,-2.00e-01,
489,2.00e-01,
490,2.00e-01,
491,-2.00e-01,
492,2.00e-01,
493,-2.00e-01,
494,2.00e-01,
495,-4.00e-01,
496,-2.00e-01,
497,2.00e-01,
498,-2.00e-01,
499,2.00e-01,
500,2.00e-01,
501,-4.00e-01,
502,-2.00e-01,
503,2.00e-01,
504,-2.00e-01,
505,2.00e-01,
506,2.00e-01,
507,-4.00e-01,
508,-2.00e-01,
509,4.00e-01,
510,2.00e-01,
511,-4.00e-01,
512,2.00e-01,
513,-4.00e-01,
514,2.00e-01,
515,-4.00e-01,
516,2.00e-01,
517,-4.00e-01,
518,2.00e-01,
519,-4.00e-01,
520,2.00e-01,
521,-2.00e-01,
522,2.00e-01,
523,-2.00e-01,
524,2.00e-01,
525,-2.00e-01,
526,2.00e-01,
527,-4.00e-01,
528,2.00e-01,
529,-4.00e-01,
530,2.00e-01,
531,-2.00e-01,
532,2.00e-01,
533,-4.00e-01,
534,2.00e-01,
535,-4.00e-01,
536,-2.00e-01,
537,2.00e-01,
538,2.00e-01,
539,-4.00e-01,
540,2.00e-01,
541,-2.00e-01,
542,2.00e-01,
543,-4.00e-01,
544,0.00e+00,
545,-4.00e-01,
546,-4.00e-01,
547,0.00e+00,
548,-4.00e-01,
549,2.00e-01,
550,-4.00e-01,
551,2.00e-01,
552,-2.00e-01,
553,4.00e-01,
554,-2.00e-01,
555,4.00e-01,
556,4.00e-01,
557,-2.00e-01,
558,2.00e-01,
559,-2.00e-01,
560,2.00e-01,
561,-2.00e-01,
562,-4.00e-01,
563,2.00e-01,
564,0.00e+00,
565,-6.00e-01,
566,-4.00e-01,
567,0.00e+00,
568,-4.00e-01,
569,2.00e-01,
570,-2.00e-01,
571,2.00e-01,
572,4.00e-01,
573,-2.00e-01,
574,4.00e-01,
575,-2.00e-01,
576,2.00e-01,
577,-2.00e-01,
578,2.00e-01,
579,-2.00e-01,
580,2.00e-01,
581,-4.00e-01,
582,-4.00e-01,
583,0.00e+00,
584,-4.00e-01,
585,0.00e+00,
586,2.00e-01,
587,-4.00e-01,
588,-2.00e-01,
589,4.00e-01,
590,-2.00e-01,
591,4.00e-01,
592,-2.00e-01,
593,4.00e-01,
594,2.00e-01,
595,-2.00e-01,
596,2.00e-01,
597,-4.00e-01,
598,2.00e-01,
599,-4.00e-01,
600,0.00e+00,
601,-4.00e-01,
602,-4.00e-01,
603,2.00e-01,
604,2.00e-01,
605,-4.00e-01,
606,-2.00e-01,
607,2.00e-01,
608,-2.00e-01,
609,4.00e-01,
610,-2.00e-01,
611,4.00e-01,
612,-2.00e-01,
613,4.00e-01,
614,4.00e-01,
615,-4.00e-01,
616,2.00e-01,
617,-4.00e-01,
618,0.00e+00,
619,-4.00e-01,
620,-4.00e-01,
621,2.00e-01,
622,-4.00e-01,
623,2.00e-01,
624,2.00e-01,
625,-4.00e-01,
626,-2.00e-01,
627,4.00e-01,
628,4.00e-01,
629,-2.00e-01,
630,-2.00e-01,
631,4.00e-01,
632,2.00e-01,
633,-4.00e-01,
634,-4.00e-01,
635,2.00e-01,
636,-4.00e-01,
637,2.00e-01,
638,2.00e-01,
639,-4.00e-01,
640,-4.00e-01,
641,2.00e-01,
642,-2.00e-01,
643,2.00e-01,
644,-2.00e-01,
645,4.00e-01,
646,4.00e-01,
647,-2.00e-01,
648,2.00e-01,
649,-2.00e-01,
650,2.00e-01,
651,-4.00e-01,
652,2.00e-01,
653,-4.00e-01,
654,-4.00e-01,
655,2.00e-01,
656,-4.00e-01,
657,2.00e-01,
658,2.00e-01,
659,-4.00e-01,
660,-2.00e-01,
661,4.00e-01,
662,-2.00e-01,
663,6.60e+00,
664,5.20e+00,
665,9.60e+00,
666,9.40e+00,
667,1.30e+01,
668,1.30e+01,
669,1.52e+01,
670,1.50e+01,
671,1.64e+01,
672,1.60e+01,
673,1.72e+01,
674,1.70e+01,
675,1.76e+01,
676,1.74e+01,
677,1.78e+01,
678,1.76e+01,
679,1.80e+01,
680,1.76e+01,
681,1.80e+01,
682,1.76e+01,
683,1.82e+01,
684,1.76e+01,
685,1.82e+01,
686,1.76e+01,
687,1.80e+01,
688,1.76e+01,
689,1.80e+01,
690,1.76e+01,
691,1.82e+01,
692,1.78e+01,
693,1.82e+01,
694,1.78e+01,
695,1.82e+01,
696,1.78e+01,
697,1.82e+01,
698,1.82e+01,
699,1.76e+01,
700,1.78e+01,
701,1.82e+01,
702,1.78e+01,
703,1.82e+01,
704,1.82e+01,
705,1.76e+01,
706,1.76e+01,
707,1.82e+01,
708,1.78e+01,
709,1.82e+01,
710,1.76e+01,
711,1.82e+01,
712,1.78e+01,
713,1.82e+01,
714,1.78e+01,
715,1.82e+01,
716,1.78e+01,
717,1.82e+01,
718,1.78e+01,
719,1.82e+01,
720,1.78e+01,
721,1.82e+01,
722,1.78e+01,
723,1.82e+01,
724,1.78e+01,
725,1.82e+01,
726,1.82e+01,
727,1.78e+01,
728,1.78e+01,
729,1.82e+01,
730,1.78e+01,
731,1.82e+01,
732,1.78e+01,
733,1.82e+01,
734,1.78e+01,
735,1.82e+01,
736,1.78e+01,
737,1.82e+01,
738,1.78e+01,
739,1.82e+01,
740,1.78e+01,
741,1.82e+01,
742,1.82e+01,
743,1.78e+01,
744,1.78e+01,
745,1.82e+01,
746,1.78e+01,
747,1.82e+01,
748,1.78e+01,
749,1.82e+01,
750,1.78e+01,
751,1.82e+01,
752,1.78e+01,
753,1.82e+01,
754,1.78e+01,
755,1.82e+01,
756,1.78e+01,
757,1.82e+01,
758,1.82e+01,
759,1.78e+01,
760,1.78e+01,
761,1.82e+01,
762,1.78e+01,
763,1.82e+01,
764,1.78e+01,
765,1.82e+01,
766,1.78e+01,
767,1.82e+01,
768,1.78e+01,
769,1.82e+01,
770,1.82e+01,
771,1.56e+01,
772,1.56e+01,
773,9.80e+00,
774,9.60e+00,
775,5.80e+00,
776,6.20e+00,
777,5.80e+00,
778,6.00e+00,
779,2.40e+00,
780,3.00e+00,
781,4.00e-01,
782,2.20e+00,
783,0.00e+00,
784,1.20e+00,
785,-2.00e-01,
786,-2.00e-01,
787,8.00e-01,
788,8.00e-01,
789,-2.00e-01,
790,6.00e-01,
791,-2.00e-01,
792,-2.00e-01,
793,4.00e-01,
794,4.00e-01,
795,-2.00e-01,
796,0.00e+00,
797,4.00e-01,
798,4.00e-01,
799,0.00e+00,
800,4.00e-01,
801,-2.00e-01,
802,0.00e+00,
803,4.00e-01,
804,-2.00e-01,
805,4.00e-01,
806,4.00e-01,
807,-2.00e-01,
808,4.00e-01,
809,-2.00e-01,
810,4.00e-01,
811,-2.00e-01,
812,4.00e-01,
813,-2.00e-01,
814,-2.00e-01,
815,4.00e-01,
816,-2.00e-01,
817,4.00e-01,
818,4.00e-01,
819,-2.00e-01,
820,4.00e-01,
821,-2.00e-01,
822,-2.00e-01,
823,4.00e-01,
824,4.00e-01,
825,-2.00e-01,
826,4.00e-01,
827,-2.00e-01,
828,2.00e-01,
829,-2.00e-01,
830,4.00e-01,
831,-2.00e-01,
832,-2.00e-01,
833,4.00e-01,
834,-2.00e-01,
835,2.00e-01,
836,-2.00e-01,
837,4.00e-01,
838,2.00e-01,
839,-2.00e-01,
840,2.00e-01,
841,-2.00e-01,
842,-2.00e-01,
843,2.00e-01,
844,2.00e-01,
845,-2.00e-01,
846,-2.00e-01,
847,2.00e-01,
848,-2.00e-01,
849,2.00e-01,
850,2.00e-01,
851,-4.00e-01,
852,-2.00e-01,
853,4.00e-01,
854,2.00e-01,
855,-2.00e-01,
856,-2.00e-01,
857,4.00e-01,
858,2.00e-01,
859,-4.00e-01,
860,2.00e-01,
861,-2.00e-01,
862,4.00e-01,
863,-4.00e-01,
864,2.00e-01,
865,-2.00e-01,
866,-2.00e-01,
867,2.00e-01,
868,2.00e-01,
869,-2.00e-01,
870,2.00e-01,
871,-4.00e-01,
872,2.00e-01,
873,-2.00e-01,
874,-2.00e-01,
875,2.00e-01,
876,-4.00e-01,
877,4.00e-01,
878,2.00e-01,
879,-2.00e-01,
880,2.00e-01,
881,-4.00e-01,
882,2.00e-01,
883,-2.00e-01,
884,2.00e-01,
885,-2.00e-01,
886,2.00e-01,
887,-4.00e-01,
888,2.00e-01,
889,-4.00e-01,
890,-2.00e-01,
891,2.00e-01,
892,-2.00e-01,
893,2.00e-01,
894,2.00e-01,
895,-4.00e-01,
896,2.00e-01,
897,-4.00e-01,
898,2.00e-01,
899,-4.00e-01,
900,2.00e-01,
901,-2.00e-01,
902,2.00e-01,
903,-4.00e-01,
904,2.00e-01,
905,-4.00e-01,
906,2.00e-01,
907,-2.00e-01,
908,2.00e-01,
909,-4.00e-01,
910,2.00e-01,
911,-2.00e-01,
912,2.00e-01,
913,-4.00e-01,
914,2.00e-01,
915,-4.00e-01,
916,2.00e-01,
917,-4.00e-01,
918,2.00e-01,
919,-4.00e-01,
920,2.00e-01,
921,-4.00e-01,
922,2.00e-01,
923,-4.00e-01,
924,-2.00e-01,
925,4.00e-01,
926,2.00e-01,
927,-4.00e-01,
928,2.00e-01,
929,-4.00e-01,
930,2.00e-01,
931,-4.00e-01,
932,2.00e-01,
933,-4.00e-01,
934,-4.00e-01,
935,2.00e-01,
936,-2.00e-01,
937,2.00e-01,
938,2.00e-01,
939,-4.00e-01,
940,2.00e-01,
941,-4.00e-01,
942,2.00e-01,
943,-4.00e-01,
944,2.00e-01,
945,-4.00e-01,
946,0.00e+00,
947,-6.00e-01,
948,-6.00e-01,
949,2.00e-01,
950,-4.00e-01,
951,2.00e-01,
952,2.00e-01,
953,-2.00e-01,
954,4.00e-01,
955,-2.00e-01,
956,4.00e-01,
957,-2.00e-01,
958,4.00e-01,
959,-2.00e-01,
960,-2.00e-01,
961,2.00e-01,
962,2.00e-01,
963,-4.00e-01,
964,-4.00e-01,
965,2.00e-01,
966,-4.00e-01,
967,2.00e-01,
968,-4.00e-01,
969,2.00e-01,
970,-2.00e-01,
971,2.00e-01,
972,4.00e-01,
973,-2.00e-01,
974,-2.00e-01,
975,4.00e-01,
976,4.00e-01,
977,-2.00e-01,
978,2.00e-01,
979,-4.00e-01,
980,2.00e-01,
981,-4.00e-01,
982,0.00e+00,
983,-4.00e-01,
984,-4.00e-01,
985,2.00e-01,
986,-4.00e-01,
987,2.00e-01,
988,-4.00e-01,
989,4.00e-01,
990,-2.00e-01,
991,4.00e-01,
992,-2.00e-01,
993,4.00e-01,
994,-2.00e-01,
995,4.00e-01,
996,-2.00e-01,
997,2.00e-01,
998,2.00e-01,
999,-4.00e-01,
1000,-4.00e-01,
1001,0.00e+00,
1002,-4.00e-01,
1003,2.00e-01,
1004,-4.00e-01,
1005,2.00e-01,
1006,-2.00e-01,
1007,2.00e-01,
1008,-2.00e-01,
1009,4.00e-01,
1010,4.00e-01,
1011,-2.00e-01,
1012,4.00e-01,
1013,-2.00e-01,
1014,2.00e-01,
1015,-4.00e-01,
1016,2.00e-01,
1017,-4.00e-01,
1018,-4.00e-01,
1019,2.00e-01,
1020,-4.00e-01,
1021,2.00e-01,
1022,2.00e-01,
1023,-4.00e-01,
1024,-2.00e-01,
1025,4.00e-01,
1026,-2.00e-01,
1027,4.00e-01,
1028,4.00e-01,
1029,-2.00e-01,
1030,4.00e-01,
1031,-2.00e-01,
1032,2.00e-01,
1033,-2.00e-01,
1034,2.00e-01,
1035,-4.00e-01,
1036,2.00e-01,
1037,-4.00e-01,
1038,-4.00e-01,
1039,2.00e-01,
1040,2.00e-01,
1041,-4.00e-01,
1042,2.00e-01,
1043,-2.00e-01,
1044,-2.00e-01,
1045,4.00e-01,
1046,2.00e-01,
1047,-2.00e-01,
1048,2.00e-01,
1049,-2.00e-01,
1050,-2.00e-01,
1051,2.00e-01,
1052,2.00e-01,
1053,-4.00e-01,
1054,-4.00e-01,
1055,2.00e-01,
1056,-4.00e-01,
1057,2.00e-01,
1058,2.00e-01,
1059,-4.00e-01,
1060,2.00e-01,
1061,-2.00e-01,
1062,-2.00e-01,
1063,6.40e+00,
1064,5.20e+00,
1065,9.20e+00,
1066,9.20e+00,
1067,1.28e+01,
1068,1.28e+01,
1069,1.50e+01,
1070,1.48e+01,
1071,1.64e+01,
1072,1.62e+01,
1073,1.70e+01,
1074,1.68e+01,
1075,1.76e+01,
1076,1.74e+01,
1077,1.78e+01,
1078,1.74e+01,
1079,1.80e+01,
1080,1.76e+01,
1081,1.80e+01,
1082,1.80e+01,
1083,1.76e+01,
1084,1.78e+01,
1085,1.80e+01,
1086,1.78e+01,
1087,1.82e+01,
1088,1.78e+01,
1089,1.82e+01,
1090,1.78e+01,
1091,1.82e+01,
1092,1.78e+01,
1093,1.82e+01,
1094,1.82e+01,
1095,1.76e+01,
1096,1.78e+01,
1097,1.80e+01,
1098,1.78e+01,
1099,1.82e+01,
1100,1.78e+01,
1101,1.82e+01,
1102,1.78e+01,
1103,1.82e+01,
1104,1.78e+01,
1105,1.82e+01,
1106,1.82e+01,
1107,1.76e+01,
1108,1.78e+01,
1109,1.82e+01,
1110,1.78e+01,
1111,1.82e+01,
1112,1.78e+01,
1113,1.82e+01,
1114,1.82e+01,
1115,1.76e+01,
1116,1.78e+01,
1117,1.82e+01,
1118,1.82e+01,
1119,1.78e+01,
1120,1.78e+01,
1121,1.82e+01,
1122,1.82e+01,
1123,1.78e+01,
1124,1.78e+01,
1125,1.82e+01,
1126,1.78e+01,
1127,1.82e+01,
1128,1.78e+01,
1129,1.82e+01,
1130,1.78e+01,
1131,1.82e+01,
1132,1.78e+01,
1133,1.82e+01,
1134,1.78e+01,
1135,1.82e+01,
1136,1.78e+01,
1137,1.82e+01,
1138,1.78e+01,
1139,1.82e+01,
1140,1.82e+01,
1141,1.78e+01,
1142,1.82e+01,
1143,1.78e+01,
1144,1.78e+01,
1145,1.82e+01,
1146,1.78e+01,
1147,1.82e+01,
1148,1.82e+01,
1149,1.78e+01,
1150,1.78e+01,
1151,1.82e+01,
1152,1.78e+01,
1153,1.82e+01,
1154,1.82e+01,
1155,1.78e+01,
1156,1.82e+01,
1157,1.78e+01,
1158,1.82e+01,
1159,1.78e+01,
1160,1.78e+01,
1161,1.82e+01,
1162,1.82e+01,
1163,1.78e+01,
1164,1.78e+01,
1165,1.82e+01,
1166,1.78e+01,
1167,1.82e+01,
1168,1.82e+01,
1169,1.78e+01,
1170,1.82e+01,
1171,1.60e+01,
1172,1.58e+01,
1173,1.00e+01,
1174,9.80e+00,
1175,6.00e+00,
1176,6.20e+00,
1177,5.80e+00,
1178,6.00e+00,
1179,2.60e+00,
1180,2.80e+00,
1181,4.00e-01,
1182,1.80e+00,
1183,2.00e-01,
1184,1.00e+00,
1185,-2.00e-01,
1186,-2.00e-01,
1187,8.00e-01,
1188,6.00e-01,
1189,-2.00e-01,
1190,-2.00e-01,
1191,6.00e-01,
1192,6.00e-01,
1193,-2.00e-01,
1194,4.00e-01,
1195,-2.00e-01,
1196,0.00e+00,
1197,6.00e-01,
1198,4.00e-01,
1199,0.00e+00,
