Lab7/Data/base.csv

X,CH1,CH2,Start,Increment,
Sequence,Volt,Volt,2.920000e-05,2.000000e-09
0,-8.00e-03,3.04e+01,
1,0.00e+00,3.04e+01,
2,-8.00e-03,3.04e+01,
3,-8.00e-03,2.96e+01,
4,-8.00e-03,3.04e+01,
5,-8.00e-03,2.96e+01,
6,-8.00e-03,2.96e+01,
7,-8.00e-03,2.96e+01,
8,-8.00e-03,2.96e+01,
9,0.00e+00,2.96e+01,
10,-8.00e-03,2.96e+01,
11,-8.00e-03,2.96e+01,
12,-8.00e-03,2.96e+01,
13,0.00e+00,2.96e+01,
14,-8.00e-03,2.96e+01,
15,-8.00e-03,2.96e+01,
16,-8.00e-03,2.96e+01,
17,0.00e+00,2.88e+01,
18,-8.00e-03,2.88e+01,
19,-8.00e-03,2.88e+01,
20,-8.00e-03,2.88e+01,
21,-8.00e-03,2.88e+01,
22,-8.00e-03,2.88e+01,
23,-8.00e-03,2.88e+01,
24,-8.00e-03,2.80e+01,
25,0.00e+00,2.80e+01,
26,-8.00e-03,2.80e+01,
27,-8.00e-03,2.80e+01,
28,-8.00e-03,2.80e+01,
29,0.00e+00,2.80e+01,
30,-8.00e-03,2.72e+01,
31,-8.00e-03,2.72e+01,
32,-8.00e-03,2.72e+01,
33,0.00e+00,2.72e+01,
34,-8.00e-03,2.72e+01,
35,-8.00e-03,2.72e+01,
36,-8.00e-03,2.64e+01,
37,-8.00e-03,2.64e+01,
38,-8.00e-03,2.64e+01,
39,-8.00e-03,2.64e+01,
40,-8.00e-03,2.64e+01,
41,0.00e+00,2.64e+01,
42,-8.00e-03,2.56e+01,
43,-8.00e-03,2.56e+01,
44,-8.00e-03,2.56e+01,
45,0.00e+00,2.56e+01,
46,-8.00e-03,2.56e+01,
47,-8.00e-03,2.56e+01,
48,-8.00e-03,2.40e+01,
49,-8.00e-03,2.40e+01,
50,-8.00e-03,2.40e+01,
51,-8.00e-03,2.32e+01,
52,-8.00e-03,2.40e+01,
53,-8.00e-03,2.32e+01,
54,-8.00e-03,2.32e+01,
55,-8.00e-03,2.32e+01,
56,-8.00e-03,2.32e+01,
57,0.00e+00,2.24e+01,
58,-8.00e-03,2.24e+01,
59,-8.00e-03,2.24e+01,
60,-8.00e-03,2.24e+01,
61,0.00e+00,2.16e+01,
62,-8.00e-03,2.16e+01,
63,-8.00e-03,2.16e+01,
64,-8.00e-03,2.16e+01,
65,-8.00e-03,2.16e+01,
66,-8.00e-03,2.08e+01,
67,-8.00e-03,2.08e+01,
68,-8.00e-03,2.08e+01,
69,0.00e+00,2.08e+01,
70,-8.00e-03,2.00e+01,
71,-8.00e-03,2.00e+01,
72,-8.00e-03,2.00e+01,
73,0.00e+00,2.00e+01,
74,-8.00e-03,2.00e+01,
75,-8.00e-03,1.92e+01,
76,-8.00e-03,1.92e+01,
77,0.00e+00,1.92e+01,
78,-8.00e-03,1.92e+01,
79,-8.00e-03,1.92e+01,
80,-8.00e-03,1.92e+01,
81,0.00e+00,1.84e+01,
82,-8.00e-03,1.84e+01,
83,-8.00e-03,1.84e+01,
84,-8.00e-03,1.84e+01,
85,-8.00e-03,1.84e+01,
86,-8.00e-03,1.76e+01,
87,-8.00e-03,1.76e+01,
88,-8.00e-03,1.76e+01,
89,0.00e+00,1.76e+01,
90,-8.00e-03,1.68e+01,
91,-8.00e-03,1.68e+01,
92,-8.00e-03,1.68e+01,
93,0.00e+00,1.68e+01,
94,-8.00e-03,1.68e+01,
95,-8.00e-03,1.68e+01,
96,-8.00e-03,1.60e+01,
97,-8.00e-03,1.60e+01,
98,-8.00e-03,1.60e+01,
99,-8.00e-03,1.60e+01,
100,-8.00e-03,1.60e+01,
101,0.00e+00,1.52e+01,
102,-8.00e-03,1.52e+01,
103,-8.00e-03,1.52e+01,
104,-8.00e-03,1.52e+01,
105,0.00e+00,1.52e+01,
106,-8.00e-03,1.52e+01,
107,-8.00e-03,1.44e+01,
108,-8.00e-03,1.44e+01,
109,0.00e+00,1.44e+01,
110,-8.00e-03,1.44e+01,
111,-8.00e-03,1.44e+01,
112,-8.00e-03,1.44e+01,
113,0.00e+00,1.44e+01,
114,-8.00e-03,1.36e+01,
115,-8.00e-03,1.36e+01,
116,-8.00e-03,1.36e+01,
117,-8.00e-03,1.36e+01,
118,-8.00e-03,1.36e+01,
119,-8.00e-03,1.36e+01,
120,-8.00e-03,1.36e+01,
121,0.00e+00,1.20e+01,
122,-8.00e-03,1.20e+01,
123,-8.00e-03,1.20e+01,
124,-8.00e-03,1.20e+01,
125,0.00e+00,1.20e+01,
126,-8.00e-03,1.12e+01,
127,-8.00e-03,1.20e+01,
128,-8.00e-03,1.12e+01,
129,-8.00e-03,1.12e+01,
130,-8.00e-03,1.12e+01,
131,-8.00e-03,1.12e+01,
132,-8.00e-03,1.12e+01,
133,0.00e+00,1.12e+01,
134,-8.00e-03,1.04e+01,
135,-8.00e-03,1.04e+01,
136,-8.00e-03,1.04e+01,
137,0.00e+00,1.04e+01,
138,-8.00e-03,1.04e+01,
139,-8.00e-03,1.04e+01,
140,-8.00e-03,1.04e+01,
141,0.00e+00,1.04e+01,
142,-8.00e-03,1.04e+01,
143,-8.00e-03,1.04e+01,
144,-8.00e-03,1.04e+01,
145,0.00e+00,1.04e+01,
146,-8.00e-03,9.60e+00,
147,-8.00e-03,9.60e+00,
148,-8.00e-03,9.60e+00,
149,0.00e+00,9.60e+00,
150,-8.00e-03,9.60e+00,
151,0.00e+00,9.60e+00,
152,-8.00e-03,9.60e+00,
153,0.00e+00,9.60e+00,
154,-8.00e-03,8.80e+00,
155,-8.00e-03,8.80e+00,
156,-8.00e-03,9.60e+00,
157,0.00e+00,9.60e+00,
158,-8.00e-03,8.80e+00,
159,0.00e+00,8.80e+00,
160,-8.00e-03,8.80e+00,
161,0.00e+00,8.80e+00,
162,0.00e+00,8.80e+00,
163,0.00e+00,8.80e+00,
164,-8.00e-03,8.80e+00,
165,0.00e+00,8.80e+00,
166,-8.00e-03,8.80e+00,
167,0.00e+00,8.80e+00,
168,-8.00e-03,8.80e+00,
169,0.00e+00,8.80e+00,
170,-8.00e-03,8.00e+00,
171,0.00e+00,8.00e+00,
172,-8.00e-03,8.80e+00,
173,0.00e+00,8.80e+00,
174,-8.00e-03,8.00e+00,
175,-8.00e-03,8.00e+00,
176,-8.00e-03,8.00e+00,
177,0.00e+00,8.00e+00,
178,0.00e+00,8.00e+00,
179,0.00e+00,8.00e+00,
180,-8.00e-03,8.00e+00,
181,0.00e+00,8.00e+00,
182,-8.00e-03,8.00e+00,
183,0.00e+00,8.00e+00,
184,-8.00e-03,8.00e+00,
185,0.00e+00,8.00e+00,
186,0.00e+00,8.00e+00,
187,0.00e+00,8.00e+00,
188,-8.00e-03,8.00e+00,
189,0.00e+00,8.00e+00,
190,-8.00e-03,8.00e+00,
191,0.00e+00,8.00e+00,
192,-8.00e-03,8.00e+00,
193,0.00e+00,8.00e+00,
194,-8.00e-03,8.00e+00,
195,0.00e+00,8.00e+00,
196,-8.00e-03,8.00e+00,
197,0.00e+00,8.00e+00,
198,0.00e+00,8.00e+00,
199,0.00e+00,8.00e+00,
200,-8.00e-03,8.00e+00,
201,0.00e+00,8.00e+00,
202,0.00e+00,8.00e+00,
203,0.00e+00,8.00e+00,
204,-8.00e-03,8.00e+00,
205,0.00e+00,8.00e+00,
206,0.00e+00,8.00e+00,
207,0.00e+00,8.00e+00,
208,-8.00e-03,8.00e+00,
209,0.00e+00,8.00e+00,
210,0.00e+00,8.00e+00,
211,0.00e+00,8.00e+00,
212,0.00e+00,8.00e+00,
213,0.00e+00,8.00e+00,
214,-8.00e-03,8.00e+00,
215,0.00e+00,8.00e+00,
216,0.00e+00,8.00e+00,
217,0.00e+00,8.00e+00,
218,0.00e+00,8.00e+00,
219,0.00e+00,8.00e+00,
220,0.00e+00,8.00e+00,
221,0.00e+00,8.00e+00,
222,-8.00e-03,8.00e+00,
223,0.00e+00,8.00e+00,
224,0.00e+00,8.00e+00,
225,0.00e+00,8.00e+00,
226,0.00e+00,8.00e+00,
227,0.00e+00,8.80e+00,
228,0.00e+00,8.00e+00,
229,0.00e+00,8.00e+00,
230,0.00e+00,8.00e+00,
231,0.00e+00,8.80e+00,
232,0.00e+00,8.80e+00,
233,0.00e+00,8.80e+00,
234,0.00e+00,8.00e+00,
235,0.00e+00,8.80e+00,
236,0.00e+00,8.80e+00,
237,0.00e+00,8.80e+00,
238,0.00e+00,8.80e+00,
239,0.00e+00,8.80e+00,
240,-8.00e-03,8.80e+00,
241,0.00e+00,8.80e+00,
242,0.00e+00,8.80e+00,
243,0.00e+00,8.80e+00,
244,0.00e+00,9.60e+00,
245,0.00e+00,9.60e+00,
246,-8.00e-03,8.80e+00,
247,0.00e+00,9.60e+00,
248,0.00e+00,9.60e+00,
249,8.00e-03,9.60e+00,
250,0.00e+00,9.60e+00,
251,0.00e+00,9.60e+00,
252,0.00e+00,9.60e+00,
253,8.00e-03,9.60e+00,
254,0.00e+00,9.60e+00,
255,0.00e+00,9.60e+00,
256,0.00e+00,9.60e+00,
257,0.00e+00,1.04e+01,
258,0.00e+00,9.60e+00,
259,0.00e+00,1.04e+01,
260,0.00e+00,1.04e+01,
261,0.00e+00,1.04e+01,
262,0.00e+00,1.04e+01,
263,0.00e+00,1.04e+01,
264,0.00e+00,1.04e+01,
265,0.00e+00,1.04e+01,
266,0.00e+00,1.04e+01,
267,0.00e+00,1.12e+01,
268,0.00e+00,1.12e+01,
269,0.00e+00,1.12e+01,
270,0.00e+00,1.12e+01,
271,0.00e+00,1.12e+01,
272,0.00e+00,1.12e+01,
273,0.00e+00,1.12e+01,
274,0.00e+00,1.12e+01,
275,0.00e+00,1.12e+01,
276,0.00e+00,1.20e+01,
277,0.00e+00,1.20e+01,
278,0.00e+00,1.20e+01,
279,0.00e+00,1.20e+01,
280,0.00e+00,1.20e+01,
281,8.00e-03,1.20e+01,
282,0.00e+00,1.20e+01,
283,0.00e+00,1.20e+01,
284,0.00e+00,1.36e+01,
285,0.00e+00,1.36e+01,
286,0.00e+00,1.36e+01,
287,0.00e+00,1.36e+01,
288,0.00e+00,1.36e+01,
289,8.00e-03,1.36e+01,
290,0.00e+00,1.36e+01,
291,0.00e+00,1.44e+01,
292,0.00e+00,1.44e+01,
293,0.00e+00,1.44e+01,
294,0.00e+00,1.44e+01,
295,0.00e+00,1.44e+01,
296,0.00e+00,1.44e+01,
297,0.00e+00,1.52e+01,
298,0.00e+00,1.52e+01,
299,0.00e+00,1.52e+01,
300,0.00e+00,1.52e+01,
301,0.00e+00,1.52e+01,
302,0.00e+00,1.52e+01,
303,0.00e+00,1.60e+01,
304,0.00e+00,1.60e+01,
305,0.00e+00,1.60e+01,
306,0.00e+00,1.60e+01,
307,0.00e+00,1.60e+01,
308,0.00e+00,1.68e+01,
309,0.00e+00,1.68e+01,
310,0.00e+00,1.68e+01,
311,0.00e+00,1.68e+01,
312,0.00e+00,1.68e+01,
313,0.00e+00,1.68e+01,
314,0.00e+00,1.68e+01,
315,0.00e+00,1.76e+01,
316,-8.00e-03,1.76e+01,
317,0.00e+00,1.76e+01,
318,0.00e+00,1.76e+01,
319,0.00e+00,1.84e+01,
320,0.00e+00,1.84e+01,
321,8.00e-03,1.84e+01,
322,0.00e+00,1.84e+01,
323,0.00e+00,1.84e+01,
324,0.00e+00,1.84e+01,
325,0.00e+00,1.92e+01,
326,0.00e+00,1.92e+01,
327,0.00e+00,1.92e+01,
328,0.00e+00,1.92e+01,
329,0.00e+00,1.92e+01,
330,0.00e+00,2.00e+01,
331,0.00e+00,2.00e+01,
332,0.00e+00,2.00e+01,
333,0.00e+00,2.00e+01,
334,0.00e+00,2.00e+01,
335,0.00e+00,2.08e+01,
336,-8.00e-03,2.08e+01,
337,0.00e+00,2.08e+01,
338,0.00e+00,2.08e+01,
339,0.00e+00,2.08e+01,
340,-8.00e-03,2.16e+01,
341,0.00e+00,2.16e+01,
342,-8.00e-03,2.16e+01,
343,0.00e+00,2.16e+01,
344,-8.00e-03,2.16e+01,
345,0.00e+00,2.24e+01,
346,-8.00e-03,2.24e+01,
347,0.00e+00,2.24e+01,
348,-8.00e-03,2.24e+01,
349,0.00e+00,2.24e+01,
350,-8.00e-03,2.24e+01,
351,0.00e+00,2.32e+01,
352,-8.00e-03,2.32e+01,
353,0.00e+00,2.32e+01,
354,0.00e+00,2.32e+01,
355,0.00e+00,2.32e+01,
356,-8.00e-03,2.40e+01,
357,0.00e+00,2.40e+01,
358,-8.00e-03,2.40e+01,
359,0.00e+00,2.40e+01,
360,-8.00e-03,2.40e+01,
361,0.00e+00,2.40e+01,
362,-8.00e-03,2.40e+01,
363,0.00e+00,2.56e+01,
364,-8.00e-03,2.56e+01,
365,0.00e+00,2.56e+01,
366,-8.00e-03,2.56e+01,
367,0.00e+00,2.56e+01,
368,-8.00e-03,2.64e+01,
369,0.00e+00,2.64e+01,
370,-8.00e-03,2.64e+01,
371,0.00e+00,2.64e+01,
372,-8.00e-03,2.64e+01,
373,0.00e+00,2.64e+01,
374,-8.00e-03,2.64e+01,
375,0.00e+00,2.72e+01,
376,-8.00e-03,2.72e+01,
377,0.00e+00,2.72e+01,
378,-8.00e-03,2.72e+01,
379,0.00e+00,2.72e+01,
380,-8.00e-03,2.72e+01,
381,0.00e+00,2.72e+01,
382,-8.00e-03,2.72e+01,
383,0.00e+00,2.80e+01,
384,-8.00e-03,2.80e+01,
385,0.00e+00,2.80e+01,
386,-8.00e-03,2.80e+01,
387,-8.00e-03,2.80e+01,
388,-8.00e-03,2.80e+01,
389,0.00e+00,2.80e+01,
390,-8.00e-03,2.80e+01,
391,-8.00e-03,2.80e+01,
392,-8.00e-03,2.80e+01,
393,0.00e+00,2.88e+01,
394,-8.00e-03,2.80e+01,
395,-8.00e-03,2.80e+01,
396,-8.00e-03,2.88e+01,
397,0.00e+00,2.88e+01,
398,-8.00e-03,2.88e+01,
399,-8.00e-03,2.88e+01,
400,-8.00e-03,2.88e+01,
401,0.00e+00,2.88e+01,
402,-8.00e-03,2.88e+01,
403,-8.00e-03,2.88e+01,
404,-8.00e-03,2.88e+01,
405,0.00e+00,2.88e+01,
406,-8.00e-03,2.88e+01,
407,-8.00e-03,2.88e+01,
408,-8.00e-03,2.88e+01,
409,0.00e+00,2.88e+01,
410,0.00e+00,2.88e+01,
411,-8.00e-03,2.88e+01,
412,-8.00e-03,2.88e+01,
413,0.00e+00,2.88e+01,
414,-8.00e-03,2.88e+01,
415,-8.00e-03,2.88e+01,
416,-8.00e-03,2.88e+01,
417,0.00e+00,2.88e+01,
418,-8.00e-03,2.88e+01,
419,-8.00e-03,2.88e+01,
420,-8.00e-03,2.88e+01,
421,0.00e+00,2.88e+01,
422,-8.00e-03,2.88e+01,
423,-8.00e-03,2.88e+01,
424,-8.00e-03,2.88e+01,
425,0.00e+00,2.88e+01,
426,-8.00e-03,2.88e+01,
427,-8.00e-03,2.88e+01,
428,-8.00e-03,2.88e+01,
429,0.00e+00,2.88e+01,
430,-8.00e-03,2.88e+01,
431,-8.00e-03,2.88e+01,
432,-8.00e-03,2.88e+01,
433,0.00e+00,2.88e+01,
434,-8.00e-03,2.80e+01,
435,-8.00e-03,2.80e+01,
436,-8.00e-03,2.80e+01,
437,0.00e+00,2.80e+01,
438,-8.00e-03,2.80e+01,
439,-8.00e-03,2.80e+01,
440,-8.00e-03,2.80e+01,
441,0.00e+00,2.80e+01,
442,-8.00e-03,2.80e+01,
443,-8.00e-03,2.80e+01,
444,-8.00e-03,2.80e+01,
445,0.00e+00,2.80e+01,
446,-8.00e-03,2.72e+01,
447,-8.00e-03,2.72e+01,
448,-8.00e-03,2.72e+01,
449,0.00e+00,2.72e+01,
450,-8.00e-03,2.72e+01,
451,-8.00e-03,2.72e+01,
452,-8.00e-03,2.72e+01,
453,0.00e+00,2.72e+01,
454,-8.00e-03,2.64e+01,
455,-8.00e-03,2.64e+01,
456,-8.00e-03,2.64e+01,
457,0.00e+00,2.64e+01,
458,-8.00e-03,2.64e+01,
459,-8.00e-03,2.64e+01,
460,-8.00e-03,2.64e+01,
461,-8.00e-03,2.56e+01,
462,-8.00e-03,2.56e+01,
463,-8.00e-03,2.56e+01,
464,-8.00e-03,2.56e+01,
465,0.00e+00,2.56e+01,
466,-8.00e-03,2.56e+01,
467,-8.00e-03,2.56e+01,
468,-8.00e-03,2.40e+01,
469,-8.00e-03,2.40e+01,
470,-8.00e-03,2.40e+01,
471,-8.00e-03,2.40e+01,
472,-8.00e-03,2.40e+01,
473,0.00e+00,2.40e+01,
474,-8.00e-03,2.32e+01,
475,-8.00e-03,2.32e+01,
476,-8.00e-03,2.32e+01,
477,-8.00e-03,2.32e+01,
478,-8.00e-03,2.24e+01,
479,-8.00e-03,2.32e+01,
480,-8.00e-03,2.24e+01,
481,0.00e+00,2.24e+01,
482,-8.00e-03,2.24e+01,
483,-8.00e-03,2.24e+01,
484,-8.00e-03,2.24e+01,
485,0.00e+00,2.16e+01,
486,-8.00e-03,2.16e+01,
487,-8.00e-03,2.16e+01,
488,-8.00e-03,2.16e+01,
489,0.00e+00,2.16e+01,
490,-8.00e-03,2.08e+01,
491,-8.00e-03,2.08e+01,
492,-8.00e-03,2.08e+01,
493,0.00e+00,2.08e+01,
494,-8.00e-03,2.08e+01,
495,-8.00e-03,2.08e+01,
496,-8.00e-03,2.00e+01,
497,-8.00e-03,2.00e+01,
498,-8.00e-03,2.00e+01,
499,-8.00e-03,2.00e+01,
500,-8.00e-03,2.00e+01,
501,0.00e+00,1.92e+01,
502,-8.00e-03,1.92e+01,
503,-8.00e-03,1.92e+01,
504,-8.00e-03,1.92e+01,
505,-8.00e-03,1.92e+01,
506,-8.00e-03,1.84e+01,
507,-8.00e-03,1.84e+01,
508,-8.00e-03,1.84e+01,
509,0.00e+00,1.84e+01,
510,-8.00e-03,1.84e+01,
511,-8.00e-03,1.84e+01,
512,-8.00e-03,1.76e+01,
513,0.00e+00,1.76e+01,
514,-8.00e-03,1.76e+01,
515,-8.00e-03,1.76e+01,
516,-8.00e-03,1.76e+01,
517,0.00e+00,1.76e+01,
518,-8.00e-03,1.68e+01,
519,-8.00e-03,1.68e+01,
520,-8.00e-03,1.68e+01,
521,0.00e+00,1.68e+01,
522,-8.00e-03,1.68e+01,
523,-8.00e-03,1.60e+01,
524,-8.00e-03,1.60e+01,
525,-8.00e-03,1.60e+01,
526,-8.00e-03,1.60e+01,
527,-8.00e-03,1.60e+01,
528,-8.00e-03,1.60e+01,
529,0.00e+00,1.60e+01,
530,-8.00e-03,1.52e+01,
531,-8.00e-03,1.52e+01,
532,-8.00e-03,1.52e+01,
533,0.00e+00,1.52e+01,
534,-8.00e-03,1.52e+01,
535,-8.00e-03,1.52e+01,
536,-8.00e-03,1.44e+01,
537,0.00e+00,1.44e+01,
538,-8.00e-03,1.44e+01,
539,-8.00e-03,1.44e+01,
540,-8.00e-03,1.44e+01,
541,0.00e+00,1.44e+01,
542,-8.00e-03,1.44e+01,
543,-8.00e-03,1.36e+01,
544,-8.00e-03,1.36e+01,
545,0.00e+00,1.36e+01,
546,-8.00e-03,1.36e+01,
547,-8.00e-03,1.36e+01,
548,-8.00e-03,1.36e+01,
549,0.00e+00,1.36e+01,
550,-8.00e-03,1.20e+01,
551,-8.00e-03,1.20e+01,
552,-8.00e-03,1.20e+01,
553,0.00e+00,1.20e+01,
554,-8.00e-03,1.20e+01,
555,-8.00e-03,1.20e+01,
556,-8.00e-03,1.20e+01,
557,0.00e+00,1.20e+01,
558,-8.00e-03,1.12e+01,
559,-8.00e-03,1.20e+01,
560,-8.00e-03,1.20e+01,
561,0.00e+00,1.12e+01,
562,-8.00e-03,1.12e+01,
563,-8.00e-03,1.12e+01,
564,-8.00e-03,1.12e+01,
565,0.00e+00,1.12e+01,
566,-8.00e-03,1.12e+01,
567,0.00e+00,1.12e+01,
568,-8.00e-03,1.12e+01,
569,0.00e+00,1.04e+01,
570,-8.00e-03,1.04e+01,
571,-8.00e-03,1.04e+01,
572,-8.00e-03,1.04e+01,
573,0.00e+00,1.04e+01,
574,-8.00e-03,1.04e+01,
575,0.00e+00,1.04e+01,
576,-8.00e-03,1.04e+01,
577,0.00e+00,1.04e+01,
578,-8.00e-03,1.04e+01,
579,-8.00e-03,1.04e+01,
580,-8.00e-03,1.04e+01,
581,0.00e+00,9.60e+00,
582,-8.00e-03,9.60e+00,
583,0.00e+00,9.60e+00,
584,-8.00e-03,9.60e+00,
585,0.00e+00,9.60e+00,
586,-8.00e-03,9.60e+00,
587,-8.00e-03,9.60e+00,
588,-8.00e-03,9.60e+00,
589,0.00e+00,9.60e+00,
590,-8.00e-03,9.60e+00,
591,0.00e+00,9.60e+00,
592,-8.00e-03,9.60e+00,
593,0.00e+00,9.60e+00,
594,-8.00e-03,9.60e+00,
595,0.00e+00,9.60e+00,
596,-8.00e-03,9.60e+00,
597,0.00e+00,9.60e+00,
598,-8.00e-03,8.80e+00,
599,0.00e+00,8.80e+00,
600,-8.00e-03,9.60e+00,
601,0.00e+00,8.80e+00,
602,-8.00e-03,8.80e+00,
603,0.00e+00,8.80e+00,
604,-8.00e-03,8.80e+00,
605,0.00e+00,8.80e+00,
606,-8.00e-03,8.80e+00,
607,0.00e+00,8.80e+00,
608,-8.00e-03,8.80e+00,
609,0.00e+00,8.80e+00,
610,-8.00e-03,8.80e+00,
611,0.00e+00,8.80e+00,
612,-8.00e-03,8.80e+00,
613,0.00e+00,8.80e+00,
614,0.00e+00,8.80e+00,
615,-8.00e-03,8.80e+00,
616,-8.00e-03,8.80e+00,
617,0.00e+00,8.80e+00,
618,0.00e+00,8.80e+00,
619,0.00e+00,8.80e+00,
620,-8.00e-03,8.80e+00,
621,0.00e+00,8.80e+00,
622,0.00e+00,8.80e+00,
623,0.00e+00,8.80e+00,
624,-8.00e-03,8.80e+00,
625,0.00e+00,8.80e+00,
626,0.00e+00,8.80e+00,
627,0.00e+00,8.80e+00,
628,0.00e+00,8.80e+00,
629,0.00e+00,8.80e+00,
630,0.00e+00,8.80e+00,
631,0.00e+00,8.80e+00,
632,0.00e+00,8.80e+00,
633,0.00e+00,8.80e+00,
634,0.00e+00,8.80e+00,
635,0.00e+00,8.80e+00,
636,-8.00e-03,8.80e+00,
637,0.00e+00,8.80e+00,
638,0.00e+00,8.80e+00,
639,0.00e+00,8.80e+00,
640,0.00e+00,8.80e+00,
641,0.00e+00,8.80e+00,
642,0.00e+00,8.80e+00,
643,0.00e+00,8.80e+00,
644,-8.00e-03,8.80e+00,
645,0.00e+00,8.80e+00,
646,-8.00e-03,8.80e+00,
647,0.00e+00,8.80e+00,
648,-8.00e-03,8.80e+00,
649,0.00e+00,8.80e+00,
650,0.00e+00,8.80e+00,
651,0.00e+00,8.80e+00,
652,0.00e+00,8.80e+00,
653,0.00e+00,8.80e+00,
654,-8.00e-03,8.80e+00,
655,0.00e+00,9.60e+00,
656,-8.00e-03,9.60e+00,
657,0.00e+00,9.60e+00,
658,-8.00e-03,8.80e+00,
659,0.00e+00,9.60e+00,
660,-8.00e-03,9.60e+00,
661,0.00e+00,9.60e+00,
662,0.00e+00,9.60e+00,
663,0.00e+00,9.60e+00,
664,-8.00e-03,9.60e+00,
665,0.00e+00,9.60e+00,
666,0.00e+00,9.60e+00,
667,0.00e+00,9.60e+00,
668,0.00e+00,9.60e+00,
669,0.00e+00,9.60e+00,
670,0.00e+00,9.60e+00,
671,0.00e+00,9.60e+00,
672,0.00e+00,1.04e+01,
673,0.00e+00,1.04e+01,
674,0.00e+00,9.60e+00,
675,0.00e+00,1.04e+01,
676,0.00e+00,1.04e+01,
677,0.00e+00,1.04e+01,
678,0.00e+00,1.04e+01,
679,0.00e+00,1.04e+01,
680,-8.00e-03,1.04e+01,
681,0.00e+00,1.04e+01,
682,-8.00e-03,1.04e+01,
683,0.00e+00,1.04e+01,
684,0.00e+00,1.12e+01,
685,0.00e+00,1.12e+01,
686,0.00e+00,1.04e+01,
687,0.00e+00,1.12e+01,
688,0.00e+00,1.12e+01,
689,0.00e+00,1.12e+01,
690,0.00e+00,1.12e+01,
691,0.00e+00,1.12e+01,
692,-8.00e-03,1.12e+01,
693,0.00e+00,1.12e+01,
694,0.00e+00,1.12e+01,
695,0.00e+00,1.20e+01,
696,0.00e+00,1.20e+01,
697,0.00e+00,1.20e+01,
698,0.00e+00,1.20e+01,
699,0.00e+00,1.20e+01,
700,-8.00e-03,1.20e+01,
701,0.00e+00,1.20e+01,
702,0.00e+00,1.20e+01,
703,0.00e+00,1.36e+01,
704,0.00e+00,1.20e+01,
705,0.00e+00,1.36e+01,
706,-8.00e-03,1.36e+01,
707,0.00e+00,1.36e+01,
708,-8.00e-03,1.36e+01,
709,0.00e+00,1.36e+01,
710,0.00e+00,1.36e+01,
711,0.00e+00,1.36e+01,
712,0.00e+00,1.44e+01,
713,0.00e+00,1.44e+01,
714,0.00e+00,1.44e+01,
715,0.00e+00,1.44e+01,
716,0.00e+00,1.44e+01,
717,0.00e+00,1.44e+01,
718,-8.00e-03,1.44e+01,
719,0.00e+00,1.44e+01,
720,0.00e+00,1.52e+01,
721,0.00e+00,1.52e+01,
722,0.00e+00,1.52e+01,
723,0.00e+00,1.52e+01,
724,0.00e+00,1.52e+01,
725,0.00e+00,1.52e+01,
726,0.00e+00,1.52e+01,
727,0.00e+00,1.60e+01,
728,0.00e+00,1.60e+01,
729,8.00e-03,1.60e+01,
730,0.00e+00,1.60e+01,
731,0.00e+00,1.60e+01,
732,-8.00e-03,1.60e+01,
733,0.00e+00,1.68e+01,
734,0.00e+00,1.60e+01,
735,0.00e+00,1.68e+01,
736,0.00e+00,1.68e+01,
737,0.00e+00,1.68e+01,
738,0.00e+00,1.68e+01,
739,0.00e+00,1.76e+01,
740,-8.00e-03,1.76e+01,
741,0.00e+00,1.76e+01,
742,0.00e+00,1.76e+01,
743,0.00e+00,1.76e+01,
744,-8.00e-03,1.76e+01,
745,0.00e+00,1.84e+01,
746,0.00e+00,1.76e+01,
747,0.00e+00,1.84e+01,
748,-8.00e-03,1.84e+01,
749,0.00e+00,1.84e+01,
750,-8.00e-03,1.84e+01,
751,0.00e+00,1.92e+01,
752,-8.00e-03,1.92e+01,
753,0.00e+00,1.92e+01,
754,0.00e+00,1.92e+01,
755,0.00e+00,1.92e+01,
756,0.00e+00,1.92e+01,
757,0.00e+00,2.00e+01,
758,-8.00e-03,2.00e+01,
759,0.00e+00,2.00e+01,
760,-8.00e-03,2.00e+01,
761,0.00e+00,2.00e+01,
762,0.00e+00,2.00e+01,
763,0.00e+00,2.08e+01,
764,-8.00e-03,2.08e+01,
765,0.00e+00,2.08e+01,
766,-8.00e-03,2.08e+01,
767,0.00e+00,2.08e+01,
768,-8.00e-03,2.16e+01,
769,0.00e+00,2.16e+01,
770,0.00e+00,2.16e+01,
771,0.00e+00,2.16e+01,
772,-8.00e-03,2.16e+01,
773,0.00e+00,2.16e+01,
774,-8.00e-03,2.16e+01,
775,-8.00e-03,2.24e+01,
776,0.00e+00,2.24e+01,
777,0.00e+00,2.24e+01,
778,0.00e+00,2.24e+01,
779,0.00e+00,2.24e+01,
780,-8.00e-03,2.32e+01,
781,0.00e+00,2.24e+01,
782,-8.00e-03,2.32e+01,
783,0.00e+00,2.32e+01,
784,-8.00e-03,2.32e+01,
785,0.00e+00,2.32e+01,
786,0.00e+00,2.32e+01,
787,0.00e+00,2.32e+01,
788,-8.00e-03,2.40e+01,
789,0.00e+00,2.40e+01,
790,-8.00e-03,2.40e+01,
791,0.00e+00,2.40e+01,
792,-8.00e-03,2.40e+01,
793,0.00e+00,2.40e+01,
794,0.00e+00,2.40e+01,
795,-8.00e-03,2.56e+01,
796,-8.00e-03,2.56e+01,
797,0.00e+00,2.56e+01,
798,-8.00e-03,2.56e+01,
799,-8.00e-03,2.56e+01,
800,-8.00e-03,2.56e+01,
801,0.00e+00,2.56e+01,
802,0.00e+00,2.56e+01,
803,0.00e+00,2.64e+01,
804,-8.00e-03,2.64e+01,
805,0.00e+00,2.64e+01,
806,0.00e+00,2.64e+01,
807,-8.00e-03,2.64e+01,
808,-8.00e-03,2.64e+01,
809,0.00e+00,2.64e+01,
810,-8.00e-03,2.64e+01,
811,0.00e+00,2.64e+01,
812,-8.00e-03,2.72e+01,
813,0.00e+00,2.64e+01,
814,-8.00e-03,2.64e+01,
815,-8.00e-03,2.72e+01,
816,-8.00e-03,2.72e+01,
817,0.00e+00,2.72e+01,
818,-8.00e-03,2.72e+01,
819,-8.00e-03,2.72e+01,
820,-8.00e-03,2.72e+01,
821,0.00e+00,2.72e+01,
822,-8.00e-03,2.72e+01,
823,-8.00e-03,2.72e+01,
824,-8.00e-03,2.72e+01,
825,0.00e+00,2.72e+01,
826,-8.00e-03,2.72e+01,
827,-8.00e-03,2.72e+01,
828,-8.00e-03,2.72e+01,
829,0.00e+00,2.72e+01,
830,-8.00e-03,2.72e+01,
831,-8.00e-03,2.72e+01,
832,-8.00e-03,2.80e+01,
833,0.00e+00,2.80e+01,
834,-8.00e-03,2.72e+01,
835,-8.00e-03,2.80e+01,
836,-8.00e-03,2.80e+01,
837,0.00e+00,2.80e+01,
838,-8.00e-03,2.80e+01,
839,-8.00e-03,2.80e+01,
840,-8.00e-03,2.80e+01,
841,0.00e+00,2.80e+01,
842,-8.00e-03,2.80e+01,
843,-8.00e-03,2.80e+01,
844,-8.00e-03,2.80e+01,
845,0.00e+00,2.80e+01,
846,-8.00e-03,2.72e+01,
847,-8.00e-03,2.80e+01,
848,-8.00e-03,2.72e+01,
849,0.00e+00,2.80e+01,
850,-8.00e-03,2.72e+01,
851,-8.00e-03,2.72e+01,
