Lab7/Data/snub_hi.csv

X,CH1,CH2,Start,Increment,
Sequence,Volt,Volt,5.983800e-05,2.000000e-09
0,3.44e-01,1.60e+00,
1,3.44e-01,2.40e+00,
2,3.44e-01,2.40e+00,
3,3.52e-01,2.40e+00,
4,3.44e-01,2.40e+00,
5,3.44e-01,2.40e+00,
6,3.44e-01,3.20e+00,
7,3.60e-01,3.20e+00,
8,3.44e-01,3.20e+00,
9,3.44e-01,3.20e+00,
10,3.44e-01,3.20e+00,
11,3.52e-01,3.20e+00,
12,3.44e-01,3.20e+00,
13,3.44e-01,4.00e+00,
14,3.44e-01,4.00e+00,
15,3.60e-01,4.00e+00,
16,3.44e-01,4.00e+00,
17,3.52e-01,4.00e+00,
18,3.44e-01,4.80e+00,
19,3.52e-01,4.80e+00,
20,3.44e-01,4.00e+00,
21,3.44e-01,4.80e+00,
22,3.44e-01,4.80e+00,
23,3.52e-01,4.80e+00,
24,3.44e-01,4.80e+00,
25,3.44e-01,5.60e+00,
26,3.36e-01,5.60e+00,
27,3.52e-01,5.60e+00,
28,3.44e-01,5.60e+00,
29,3.44e-01,6.40e+00,
30,3.44e-01,5.60e+00,
31,3.52e-01,6.40e+00,
32,3.44e-01,6.40e+00,
33,3.44e-01,7.20e+00,
34,3.36e-01,8.00e+00,
35,3.44e-01,8.00e+00,
36,3.28e-01,8.80e+00,
37,3.28e-01,8.80e+00,
38,3.20e-01,1.04e+01,
39,3.36e-01,1.12e+01,
40,3.20e-01,1.20e+01,
41,3.20e-01,1.36e+01,
42,3.04e-01,1.52e+01,
43,3.12e-01,1.68e+01,
44,2.88e-01,1.84e+01,
45,2.80e-01,2.08e+01,
46,2.64e-01,2.40e+01,
47,2.64e-01,2.72e+01,
48,2.32e-01,3.04e+01,
49,2.16e-01,3.36e+01,
50,1.92e-01,3.84e+01,
51,1.84e-01,4.16e+01,
52,1.52e-01,4.56e+01,
53,1.12e-01,4.96e+01,
54,4.00e-02,5.36e+01,
55,-8.00e-03,5.68e+01,
56,-6.40e-02,6.00e+01,
57,-1.28e-01,6.40e+01,
58,-1.92e-01,6.72e+01,
59,-2.48e-01,6.96e+01,
60,-2.96e-01,7.36e+01,
61,-3.60e-01,7.52e+01,
62,-4.08e-01,7.76e+01,
63,-4.56e-01,7.92e+01,
64,-5.04e-01,8.08e+01,
65,-5.44e-01,8.16e+01,
66,-5.68e-01,8.16e+01,
67,-6.08e-01,8.24e+01,
68,-6.24e-01,8.24e+01,
69,-6.32e-01,8.08e+01,
70,-6.32e-01,7.92e+01,
71,-6.24e-01,7.60e+01,
72,-6.00e-01,7.20e+01,
73,-5.68e-01,6.72e+01,
74,-5.12e-01,6.24e+01,
75,-4.48e-01,5.60e+01,
76,-3.76e-01,5.04e+01,
77,-3.12e-01,4.40e+01,
78,-2.40e-01,3.92e+01,
79,-1.76e-01,3.36e+01,
80,-1.12e-01,2.96e+01,
81,-6.40e-02,2.64e+01,
82,-1.60e-02,2.24e+01,
83,3.20e-02,2.08e+01,
84,7.20e-02,1.92e+01,
85,1.04e-01,1.76e+01,
86,1.20e-01,1.68e+01,
87,1.52e-01,1.60e+01,
88,1.60e-01,1.52e+01,
89,1.76e-01,1.52e+01,
90,1.76e-01,1.60e+01,
91,1.92e-01,1.60e+01,
92,1.84e-01,1.68e+01,
93,1.84e-01,1.76e+01,
94,1.76e-01,1.84e+01,
95,1.76e-01,2.00e+01,
96,1.52e-01,2.16e+01,
97,1.36e-01,2.32e+01,
98,1.12e-01,2.64e+01,
99,9.60e-02,2.80e+01,
100,4.80e-02,3.04e+01,
101,2.40e-02,3.28e+01,
102,-8.00e-03,3.52e+01,
103,-4.00e-02,3.84e+01,
104,-7.20e-02,4.00e+01,
105,-9.60e-02,4.16e+01,
106,-1.36e-01,4.32e+01,
107,-1.52e-01,4.40e+01,
108,-1.68e-01,4.48e+01,
109,-1.76e-01,4.48e+01,
110,-1.84e-01,4.48e+01,
111,-1.84e-01,4.40e+01,
112,-1.84e-01,4.32e+01,
113,-1.76e-01,4.16e+01,
114,-1.60e-01,4.08e+01,
115,-1.44e-01,3.92e+01,
116,-1.28e-01,3.76e+01,
117,-1.04e-01,3.52e+01,
118,-8.80e-02,3.36e+01,
119,-6.40e-02,3.28e+01,
120,-4.80e-02,3.12e+01,
121,-3.20e-02,2.96e+01,
122,-1.60e-02,2.88e+01,
123,0.00e+00,2.80e+01,
124,8.00e-03,2.72e+01,
125,2.40e-02,2.72e+01,
126,3.20e-02,2.64e+01,
127,4.80e-02,2.64e+01,
128,4.80e-02,2.64e+01,
129,4.80e-02,2.64e+01,
130,4.80e-02,2.64e+01,
131,5.60e-02,2.64e+01,
132,4.80e-02,2.72e+01,
133,4.80e-02,2.80e+01,
134,4.00e-02,2.80e+01,
135,4.00e-02,2.88e+01,
136,2.40e-02,2.96e+01,
137,2.40e-02,3.04e+01,
138,8.00e-03,3.12e+01,
139,8.00e-03,3.20e+01,
140,-8.00e-03,3.28e+01,
141,-1.60e-02,3.36e+01,
142,-3.20e-02,3.36e+01,
143,-3.20e-02,3.44e+01,
144,-4.80e-02,3.52e+01,
145,-5.60e-02,3.52e+01,
146,-5.60e-02,3.52e+01,
147,-5.60e-02,3.52e+01,
148,-7.20e-02,3.52e+01,
149,-6.40e-02,3.52e+01,
150,-7.20e-02,3.52e+01,
151,-6.40e-02,3.52e+01,
152,-6.40e-02,3.44e+01,
153,-5.60e-02,3.44e+01,
154,-5.60e-02,3.36e+01,
155,-4.80e-02,3.36e+01,
156,-4.80e-02,3.28e+01,
157,-4.00e-02,3.28e+01,
158,-4.00e-02,3.20e+01,
159,-2.40e-02,3.12e+01,
160,-2.40e-02,3.12e+01,
161,-1.60e-02,3.12e+01,
162,-1.60e-02,3.04e+01,
163,-8.00e-03,3.04e+01,
164,-8.00e-03,3.04e+01,
165,0.00e+00,3.04e+01,
166,0.00e+00,3.04e+01,
167,8.00e-03,2.96e+01,
168,0.00e+00,2.96e+01,
169,0.00e+00,2.96e+01,
170,0.00e+00,3.04e+01,
171,8.00e-03,3.04e+01,
172,0.00e+00,3.04e+01,
173,0.00e+00,3.04e+01,
174,0.00e+00,3.12e+01,
175,0.00e+00,3.12e+01,
176,-8.00e-03,3.12e+01,
177,-8.00e-03,3.12e+01,
178,-1.60e-02,3.20e+01,
179,-8.00e-03,3.20e+01,
180,-2.40e-02,3.20e+01,
181,-2.40e-02,3.20e+01,
182,-2.40e-02,3.28e+01,
183,-2.40e-02,3.28e+01,
184,-3.20e-02,3.28e+01,
185,-3.20e-02,3.28e+01,
186,-3.20e-02,3.28e+01,
187,-3.20e-02,3.28e+01,
188,-3.20e-02,3.28e+01,
189,-3.20e-02,3.28e+01,
190,-4.00e-02,3.28e+01,
191,-3.20e-02,3.28e+01,
192,-3.20e-02,3.28e+01,
193,-3.20e-02,3.28e+01,
194,-3.20e-02,3.20e+01,
195,-2.40e-02,3.20e+01,
196,-2.40e-02,3.20e+01,
197,-2.40e-02,3.20e+01,
198,-2.40e-02,3.20e+01,
199,-1.60e-02,3.20e+01,
200,-1.60e-02,3.12e+01,
201,-1.60e-02,3.12e+01,
202,-1.60e-02,3.12e+01,
203,-8.00e-03,3.12e+01,
204,-1.60e-02,3.12e+01,
205,-8.00e-03,3.12e+01,
206,-1.60e-02,3.12e+01,
207,-8.00e-03,3.12e+01,
208,-8.00e-03,3.12e+01,
209,-8.00e-03,3.12e+01,
210,-1.60e-02,3.12e+01,
211,-8.00e-03,3.12e+01,
212,-1.60e-02,3.12e+01,
213,-1.60e-02,3.12e+01,
214,-1.60e-02,3.12e+01,
215,-8.00e-03,3.12e+01,
216,-1.60e-02,3.12e+01,
217,-1.60e-02,3.20e+01,
218,-1.60e-02,3.20e+01,
219,-1.60e-02,3.20e+01,
220,-2.40e-02,3.20e+01,
221,-1.60e-02,3.20e+01,
222,-2.40e-02,3.20e+01,
223,-1.60e-02,3.20e+01,
224,-2.40e-02,3.20e+01,
225,-2.40e-02,3.20e+01,
226,-2.40e-02,3.20e+01,
227,-1.60e-02,3.20e+01,
228,-2.40e-02,3.20e+01,
229,-2.40e-02,3.20e+01,
230,-2.40e-02,3.20e+01,
231,-1.60e-02,3.20e+01,
232,-2.40e-02,3.20e+01,
233,-1.60e-02,3.20e+01,
234,-2.40e-02,3.20e+01,
235,-1.60e-02,3.20e+01,
236,-2.40e-02,3.20e+01,
237,-1.60e-02,3.20e+01,
238,-1.60e-02,3.20e+01,
239,-1.60e-02,3.12e+01,
240,-1.60e-02,3.12e+01,
241,-1.60e-02,3.12e+01,
242,-1.60e-02,3.12e+01,
243,-8.00e-03,3.12e+01,
244,-1.60e-02,3.12e+01,
245,-1.60e-02,3.12e+01,
246,-1.60e-02,3.12e+01,
247,-8.00e-03,3.12e+01,
248,-1.60e-02,3.12e+01,
249,-1.60e-02,3.12e+01,
250,-1.60e-02,3.12e+01,
251,-8.00e-03,3.12e+01,
252,-1.60e-02,3.12e+01,
253,-1.60e-02,3.12e+01,
254,-1.60e-02,3.20e+01,
255,-8.00e-03,3.20e+01,
256,-1.60e-02,3.20e+01,
257,-1.60e-02,3.20e+01,
258,-1.60e-02,3.20e+01,
259,-8.00e-03,3.20e+01,
260,-1.60e-02,3.20e+01,
261,-1.60e-02,3.20e+01,
262,-1.60e-02,3.20e+01,
263,-1.60e-02,3.20e+01,
264,-1.60e-02,3.20e+01,
265,-1.60e-02,3.20e+01,
266,-1.60e-02,3.20e+01,
267,-1.60e-02,3.20e+01,
268,-1.60e-02,3.20e+01,
269,-1.60e-02,3.20e+01,
270,-1.60e-02,3.20e+01,
271,-1.60e-02,3.20e+01,
272,-1.60e-02,3.12e+01,
273,-1.60e-02,3.12e+01,
274,-1.60e-02,3.20e+01,
275,-8.00e-03,3.12e+01,
276,-1.60e-02,3.12e+01,
277,-1.60e-02,3.12e+01,
278,-1.60e-02,3.12e+01,
279,-8.00e-03,3.12e+01,
280,-1.60e-02,3.12e+01,
281,-1.60e-02,3.12e+01,
282,-1.60e-02,3.12e+01,
283,-1.60e-02,3.12e+01,
284,-1.60e-02,3.12e+01,
285,-8.00e-03,3.12e+01,
286,-1.60e-02,3.12e+01,
287,-8.00e-03,3.12e+01,
288,-1.60e-02,3.12e+01,
289,-1.60e-02,3.12e+01,
290,-1.60e-02,3.12e+01,
291,-8.00e-03,3.12e+01,
292,-1.60e-02,3.12e+01,
293,-1.60e-02,3.12e+01,
294,-1.60e-02,3.12e+01,
295,-8.00e-03,3.12e+01,
296,-1.60e-02,3.12e+01,
297,-1.60e-02,3.12e+01,
298,-1.60e-02,3.12e+01,
299,-8.00e-03,3.12e+01,
300,-1.60e-02,3.12e+01,
301,-1.60e-02,3.12e+01,
302,-1.60e-02,3.12e+01,
303,-8.00e-03,3.12e+01,
304,-1.60e-02,3.12e+01,
305,-1.60e-02,3.12e+01,
306,-1.60e-02,3.12e+01,
307,-8.00e-03,3.12e+01,
308,-1.60e-02,3.12e+01,
309,-1.60e-02,3.12e+01,
310,-1.60e-02,3.12e+01,
311,-8.00e-03,3.12e+01,
312,-1.60e-02,3.12e+01,
313,-1.60e-02,3.12e+01,
314,-1.60e-02,3.12e+01,
315,-8.00e-03,3.12e+01,
316,-1.60e-02,3.12e+01,
317,-1.60e-02,3.12e+01,
318,-1.60e-02,3.12e+01,
319,-8.00e-03,3.12e+01,
320,-1.60e-02,3.12e+01,
321,-1.60e-02,3.12e+01,
322,-1.60e-02,3.12e+01,
323,-8.00e-03,3.12e+01,
324,-1.60e-02,3.12e+01,
325,-1.60e-02,3.12e+01,
326,-1.60e-02,3.12e+01,
327,-8.00e-03,3.12e+01,
328,-1.60e-02,3.12e+01,
329,-1.60e-02,3.12e+01,
330,-1.60e-02,3.12e+01,
331,-8.00e-03,3.12e+01,
332,-1.60e-02,3.12e+01,
333,-1.60e-02,3.12e+01,
334,-1.60e-02,3.12e+01,
335,-8.00e-03,3.12e+01,
336,-1.60e-02,3.12e+01,
337,-1.60e-02,3.12e+01,
338,-1.60e-02,3.12e+01,
339,-8.00e-03,3.12e+01,
340,-1.60e-02,3.12e+01,
341,-1.60e-02,3.12e+01,
342,-1.60e-02,3.12e+01,
343,-8.00e-03,3.12e+01,
344,-1.60e-02,3.12e+01,
345,-1.60e-02,3.12e+01,
346,-1.60e-02,3.12e+01,
347,-8.00e-03,3.12e+01,
348,-1.60e-02,3.12e+01,
349,-1.60e-02,3.12e+01,
350,-1.60e-02,3.12e+01,
351,-8.00e-03,3.12e+01,
352,-1.60e-02,3.12e+01,
353,-1.60e-02,3.12e+01,
354,-1.60e-02,3.12e+01,
355,-8.00e-03,3.12e+01,
356,-1.60e-02,3.12e+01,
357,-1.60e-02,3.12e+01,
358,-1.60e-02,3.12e+01,
359,-8.00e-03,3.12e+01,
360,-1.60e-02,3.12e+01,
361,-1.60e-02,3.12e+01,
362,-1.60e-02,3.12e+01,
363,-8.00e-03,3.12e+01,
364,-1.60e-02,3.12e+01,
365,-1.60e-02,3.12e+01,
366,-1.60e-02,3.12e+01,
367,-8.00e-03,3.12e+01,
368,-1.60e-02,3.12e+01,
369,-1.60e-02,3.12e+01,
370,-1.60e-02,3.12e+01,
371,-8.00e-03,3.12e+01,
372,-1.60e-02,3.12e+01,
373,-1.60e-02,3.12e+01,
374,-1.60e-02,3.12e+01,
375,-8.00e-03,3.12e+01,
376,-1.60e-02,3.12e+01,
377,-1.60e-02,3.12e+01,
378,-1.60e-02,3.12e+01,
379,-8.00e-03,3.12e+01,
380,-1.60e-02,3.12e+01,
381,-1.60e-02,3.12e+01,
382,-1.60e-02,3.12e+01,
383,-8.00e-03,3.12e+01,
384,-1.60e-02,3.12e+01,
385,-1.60e-02,3.12e+01,
386,-1.60e-02,3.12e+01,
387,-8.00e-03,3.12e+01,
388,-1.60e-02,3.12e+01,
389,-1.60e-02,3.12e+01,
390,-1.60e-02,3.12e+01,
391,-8.00e-03,3.12e+01,
392,-8.00e-03,3.12e+01,
393,-1.60e-02,3.12e+01,
394,-1.60e-02,3.12e+01,
395,-8.00e-03,3.12e+01,
396,-1.60e-02,3.12e+01,
397,-8.00e-03,3.12e+01,
398,-1.60e-02,3.12e+01,
399,-8.00e-03,3.12e+01,
400,-1.60e-02,3.12e+01,
401,-8.00e-03,3.12e+01,
402,-1.60e-02,3.12e+01,
403,-8.00e-03,3.12e+01,
404,-8.00e-03,3.12e+01,
405,-8.00e-03,3.12e+01,
406,-1.60e-02,3.12e+01,
407,-8.00e-03,3.12e+01,
408,-1.60e-02,3.12e+01,
409,-8.00e-03,3.12e+01,
410,-1.60e-02,3.12e+01,
411,-8.00e-03,3.12e+01,
412,-1.60e-02,3.12e+01,
413,-8.00e-03,3.12e+01,
414,-1.60e-02,3.12e+01,
415,-8.00e-03,3.12e+01,
416,-1.60e-02,3.12e+01,
417,-8.00e-03,3.12e+01,
418,-1.60e-02,3.12e+01,
419,-8.00e-03,3.12e+01,
420,-1.60e-02,3.12e+01,
421,-1.60e-02,3.12e+01,
422,-1.60e-02,3.12e+01,
423,-8.00e-03,3.12e+01,
424,-8.00e-03,3.12e+01,
425,-1.60e-02,3.12e+01,
426,-1.60e-02,3.12e+01,
427,-8.00e-03,3.12e+01,
428,-1.60e-02,3.12e+01,
429,-1.60e-02,3.12e+01,
430,-8.00e-03,3.12e+01,
431,-8.00e-03,3.12e+01,
432,-1.60e-02,3.12e+01,
433,-8.00e-03,3.12e+01,
434,-1.60e-02,3.12e+01,
435,-8.00e-03,3.12e+01,
436,-1.60e-02,3.12e+01,
437,-8.00e-03,3.12e+01,
438,-1.60e-02,3.12e+01,
439,-8.00e-03,3.12e+01,
440,-8.00e-03,3.12e+01,
441,-8.00e-03,3.12e+01,
442,-8.00e-03,3.12e+01,
443,-8.00e-03,3.12e+01,
444,-1.60e-02,3.12e+01,
445,-8.00e-03,3.12e+01,
446,-1.60e-02,3.12e+01,
447,-8.00e-03,3.12e+01,
448,-8.00e-03,3.12e+01,
449,-8.00e-03,3.12e+01,
450,-8.00e-03,3.12e+01,
451,-8.00e-03,3.12e+01,
452,-1.60e-02,3.12e+01,
453,-8.00e-03,3.12e+01,
454,-8.00e-03,3.12e+01,
455,-8.00e-03,3.12e+01,
456,-8.00e-03,3.12e+01,
457,-8.00e-03,3.12e+01,
458,-1.60e-02,3.12e+01,
459,-8.00e-03,3.12e+01,
460,-1.60e-02,3.12e+01,
461,-8.00e-03,3.12e+01,
462,-8.00e-03,3.12e+01,
463,-8.00e-03,3.12e+01,
464,-1.60e-02,3.12e+01,
465,-8.00e-03,3.12e+01,
466,-1.60e-02,3.12e+01,
467,-8.00e-03,3.12e+01,
468,-1.60e-02,3.12e+01,
469,-8.00e-03,3.12e+01,
470,-1.60e-02,3.12e+01,
471,-8.00e-03,3.12e+01,
472,-8.00e-03,3.12e+01,
473,-8.00e-03,3.12e+01,
474,-8.00e-03,3.12e+01,
475,-8.00e-03,3.12e+01,
476,-1.60e-02,3.12e+01,
477,-8.00e-03,3.12e+01,
478,-1.60e-02,3.12e+01,
479,-8.00e-03,3.12e+01,
480,-8.00e-03,3.12e+01,
481,-8.00e-03,3.12e+01,
482,-1.60e-02,3.12e+01,
483,-8.00e-03,3.12e+01,
484,-1.60e-02,3.12e+01,
485,-8.00e-03,3.12e+01,
486,-1.60e-02,3.12e+01,
487,-8.00e-03,3.12e+01,
488,-1.60e-02,3.12e+01,
489,-8.00e-03,3.12e+01,
490,-1.60e-02,3.12e+01,
491,-8.00e-03,3.12e+01,
492,-1.60e-02,3.12e+01,
493,-8.00e-03,3.12e+01,
494,-8.00e-03,3.12e+01,
495,-8.00e-03,3.12e+01,
496,-1.60e-02,3.12e+01,
497,-8.00e-03,3.12e+01,
498,-1.60e-02,3.12e+01,
499,-8.00e-03,3.12e+01,
500,-1.60e-02,3.12e+01,
501,-8.00e-03,3.12e+01,
502,-1.60e-02,3.12e+01,
503,-8.00e-03,3.12e+01,
504,-8.00e-03,3.12e+01,
505,-8.00e-03,3.12e+01,
506,-8.00e-03,3.12e+01,
507,-8.00e-03,3.12e+01,
508,-1.60e-02,3.12e+01,
509,-8.00e-03,3.12e+01,
510,-1.60e-02,3.12e+01,
511,-8.00e-03,3.12e+01,
512,-8.00e-03,3.12e+01,
513,-8.00e-03,3.12e+01,
514,-1.60e-02,3.12e+01,
515,-8.00e-03,3.12e+01,
516,-1.60e-02,3.12e+01,
517,-8.00e-03,3.12e+01,
518,-1.60e-02,3.12e+01,
519,-8.00e-03,3.12e+01,
520,-8.00e-03,3.12e+01,
521,-8.00e-03,3.12e+01,
522,-8.00e-03,3.12e+01,
523,-8.00e-03,3.12e+01,
524,-1.60e-02,3.12e+01,
525,-8.00e-03,3.12e+01,
526,-1.60e-02,3.12e+01,
527,-8.00e-03,3.12e+01,
528,-8.00e-03,3.12e+01,
529,-8.00e-03,3.12e+01,
530,-8.00e-03,3.12e+01,
531,-8.00e-03,3.12e+01,
532,-1.60e-02,3.12e+01,
533,-8.00e-03,3.12e+01,
534,-8.00e-03,3.12e+01,
535,-8.00e-03,3.12e+01,
536,-8.00e-03,3.12e+01,
537,-8.00e-03,3.12e+01,
538,-1.60e-02,3.12e+01,
539,-8.00e-03,3.12e+01,
540,-1.60e-02,3.12e+01,
541,-8.00e-03,3.12e+01,
542,-8.00e-03,3.12e+01,
543,-8.00e-03,3.12e+01,
544,-8.00e-03,3.12e+01,
545,-8.00e-03,3.12e+01,
546,-8.00e-03,3.12e+01,
547,-8.00e-03,3.12e+01,
548,-1.60e-02,3.12e+01,
549,-8.00e-03,3.12e+01,
550,-1.60e-02,3.12e+01,
551,-8.00e-03,3.12e+01,
552,-8.00e-03,3.12e+01,
553,-8.00e-03,3.12e+01,
554,-8.00e-03,3.12e+01,
555,-8.00e-03,3.12e+01,
556,-1.60e-02,3.12e+01,
557,-8.00e-03,3.12e+01,
558,-8.00e-03,3.12e+01,
559,-8.00e-03,3.12e+01,
560,-8.00e-03,3.12e+01,
561,-8.00e-03,3.12e+01,
562,-8.00e-03,3.12e+01,
563,-8.00e-03,3.12e+01,
564,-8.00e-03,3.12e+01,
565,-8.00e-03,3.12e+01,
566,-8.00e-03,3.12e+01,
567,0.00e+00,3.12e+01,
568,-8.00e-03,3.12e+01,
569,-8.00e-03,3.12e+01,
570,-8.00e-03,3.12e+01,
571,-8.00e-03,3.12e+01,
572,-8.00e-03,3.12e+01,
573,-8.00e-03,3.12e+01,
574,-8.00e-03,3.12e+01,
575,-8.00e-03,3.12e+01,
576,-8.00e-03,3.12e+01,
577,-8.00e-03,3.12e+01,
578,-8.00e-03,3.12e+01,
579,-8.00e-03,3.12e+01,
580,-8.00e-03,3.12e+01,
581,-8.00e-03,3.12e+01,
582,-8.00e-03,3.12e+01,
583,-8.00e-03,3.12e+01,
584,-8.00e-03,3.12e+01,
585,-8.00e-03,3.12e+01,
586,-1.60e-02,3.12e+01,
587,-8.00e-03,3.12e+01,
588,-8.00e-03,3.12e+01,
589,-8.00e-03,3.12e+01,
590,-8.00e-03,3.12e+01,
591,-8.00e-03,3.12e+01,
592,-8.00e-03,3.12e+01,
593,-8.00e-03,3.12e+01,
594,-8.00e-03,3.12e+01,
595,-8.00e-03,3.12e+01,
596,-8.00e-03,3.12e+01,
597,-8.00e-03,3.12e+01,
598,-8.00e-03,3.12e+01,
599,-8.00e-03,3.12e+01,
