Lab 3/NewData/t3_7.csv

X,CH1,CH2,Start,Increment,
Sequence,Volt,Volt,-2.148000e-05,2.000000e-09
0,-8.00e-03,1.54e+01,
1,-8.00e-03,1.52e+01,
2,-8.00e-03,1.52e+01,
3,-8.00e-03,1.54e+01,
4,-8.00e-03,1.56e+01,
5,-8.00e-03,1.54e+01,
6,-8.00e-03,1.52e+01,
7,-8.00e-03,1.56e+01,
8,-8.00e-03,1.56e+01,
9,-8.00e-03,1.54e+01,
10,-8.00e-03,1.54e+01,
11,-8.00e-03,1.58e+01,
12,-8.00e-03,1.58e+01,
13,-8.00e-03,1.56e+01,
14,-8.00e-03,1.56e+01,
15,-8.00e-03,1.58e+01,
16,-8.00e-03,1.58e+01,
17,-8.00e-03,1.58e+01,
18,-8.00e-03,1.58e+01,
19,-8.00e-03,1.58e+01,
20,-8.00e-03,1.60e+01,
21,-8.00e-03,1.58e+01,
22,-8.00e-03,1.58e+01,
23,-8.00e-03,1.60e+01,
24,-8.00e-03,1.60e+01,
25,-8.00e-03,1.58e+01,
26,-8.00e-03,1.58e+01,
27,-8.00e-03,1.60e+01,
28,-8.00e-03,1.60e+01,
29,-8.00e-03,1.58e+01,
30,-8.00e-03,1.58e+01,
31,-8.00e-03,1.60e+01,
32,-8.00e-03,1.62e+01,
33,-8.00e-03,1.60e+01,
34,-8.00e-03,1.60e+01,
35,-8.00e-03,1.60e+01,
36,-8.00e-03,1.62e+01,
37,-8.00e-03,1.60e+01,
38,-8.00e-03,1.60e+01,
39,-8.00e-03,1.62e+01,
40,-8.00e-03,1.62e+01,
41,-8.00e-03,1.60e+01,
42,-8.00e-03,1.58e+01,
43,-8.00e-03,1.62e+01,
44,-8.00e-03,1.62e+01,
45,-8.00e-03,1.60e+01,
46,-8.00e-03,1.60e+01,
47,-8.00e-03,1.62e+01,
48,-8.00e-03,1.62e+01,
49,-8.00e-03,1.60e+01,
50,-8.00e-03,1.60e+01,
51,-8.00e-03,1.60e+01,
52,-8.00e-03,1.62e+01,
53,-8.00e-03,1.60e+01,
54,-8.00e-03,1.58e+01,
55,-8.00e-03,1.60e+01,
56,-8.00e-03,1.62e+01,
57,-8.00e-03,1.60e+01,
58,-8.00e-03,1.58e+01,
59,-8.00e-03,1.60e+01,
60,-8.00e-03,1.62e+01,
61,-8.00e-03,1.60e+01,
62,-8.00e-03,1.58e+01,
63,-8.00e-03,1.60e+01,
64,-8.00e-03,1.58e+01,
65,-8.00e-03,1.58e+01,
66,-8.00e-03,1.58e+01,
67,-8.00e-03,1.58e+01,
68,-8.00e-03,1.60e+01,
69,-8.00e-03,1.58e+01,
70,-8.00e-03,1.56e+01,
71,-8.00e-03,1.58e+01,
72,-8.00e-03,1.58e+01,
73,-8.00e-03,1.58e+01,
74,-8.00e-03,1.56e+01,
75,-8.00e-03,1.58e+01,
76,-8.00e-03,1.58e+01,
77,-8.00e-03,1.56e+01,
78,-8.00e-03,1.54e+01,
79,-8.00e-03,1.56e+01,
80,-8.00e-03,1.56e+01,
81,-8.00e-03,1.54e+01,
82,-8.00e-03,1.54e+01,
83,-8.00e-03,1.54e+01,
84,-8.00e-03,1.56e+01,
85,-8.00e-03,1.52e+01,
86,-8.00e-03,1.52e+01,
87,-8.00e-03,1.52e+01,
88,-8.00e-03,1.54e+01,
89,-8.00e-03,1.52e+01,
90,-8.00e-03,1.50e+01,
91,-8.00e-03,1.52e+01,
92,-8.00e-03,1.52e+01,
93,-8.00e-03,1.50e+01,
94,-8.00e-03,1.48e+01,
95,-8.00e-03,1.50e+01,
96,-8.00e-03,1.50e+01,
97,-8.00e-03,1.48e+01,
98,-8.00e-03,1.48e+01,
99,-8.00e-03,1.48e+01,
100,-8.00e-03,1.50e+01,
101,-8.00e-03,1.46e+01,
102,-8.00e-03,1.46e+01,
103,-8.00e-03,1.48e+01,
104,-8.00e-03,1.46e+01,
105,-8.00e-03,1.44e+01,
106,-8.00e-03,1.44e+01,
107,-8.00e-03,1.46e+01,
108,-8.00e-03,1.46e+01,
109,-8.00e-03,1.42e+01,
110,-8.00e-03,1.42e+01,
111,-8.00e-03,1.44e+01,
112,-8.00e-03,1.42e+01,
113,-8.00e-03,1.40e+01,
114,-8.00e-03,1.40e+01,
115,-8.00e-03,1.40e+01,
116,-8.00e-03,1.42e+01,
117,-8.00e-03,1.36e+01,
118,-8.00e-03,1.36e+01,
119,-8.00e-03,1.40e+01,
120,-8.00e-03,1.36e+01,
121,-8.00e-03,1.34e+01,
122,-8.00e-03,1.34e+01,
123,-8.00e-03,1.34e+01,
124,-8.00e-03,1.34e+01,
125,-8.00e-03,1.32e+01,
126,-8.00e-03,1.32e+01,
127,-8.00e-03,1.34e+01,
128,-8.00e-03,1.32e+01,
129,-8.00e-03,1.30e+01,
130,-8.00e-03,1.30e+01,
131,-8.00e-03,1.30e+01,
132,-8.00e-03,1.32e+01,
133,-8.00e-03,1.30e+01,
134,-8.00e-03,1.28e+01,
135,-8.00e-03,1.28e+01,
136,-8.00e-03,1.28e+01,
137,-8.00e-03,1.26e+01,
138,-8.00e-03,1.24e+01,
139,-8.00e-03,1.26e+01,
140,-8.00e-03,1.26e+01,
141,-8.00e-03,1.24e+01,
142,-8.00e-03,1.22e+01,
143,-8.00e-03,1.24e+01,
144,-8.00e-03,1.24e+01,
145,-8.00e-03,1.22e+01,
146,-8.00e-03,1.20e+01,
147,-8.00e-03,1.22e+01,
148,-8.00e-03,1.22e+01,
149,-8.00e-03,1.20e+01,
150,-8.00e-03,1.18e+01,
151,-8.00e-03,1.20e+01,
152,-8.00e-03,1.18e+01,
153,-8.00e-03,1.18e+01,
154,-8.00e-03,1.14e+01,
155,-8.00e-03,1.18e+01,
156,-8.00e-03,1.18e+01,
157,-8.00e-03,1.16e+01,
158,-8.00e-03,1.14e+01,
159,-8.00e-03,1.16e+01,
160,-8.00e-03,1.16e+01,
161,-8.00e-03,1.12e+01,
162,-8.00e-03,1.10e+01,
163,-8.00e-03,1.12e+01,
164,-8.00e-03,1.14e+01,
165,-8.00e-03,1.10e+01,
166,-8.00e-03,1.06e+01,
167,-8.00e-03,1.10e+01,
168,-8.00e-03,1.10e+01,
169,-8.00e-03,1.06e+01,
170,-8.00e-03,1.06e+01,
171,-8.00e-03,1.06e+01,
172,-8.00e-03,1.06e+01,
173,-8.00e-03,1.04e+01,
174,-8.00e-03,1.02e+01,
175,-8.00e-03,1.06e+01,
176,-8.00e-03,1.04e+01,
177,-8.00e-03,1.02e+01,
178,-8.00e-03,1.02e+01,
179,-8.00e-03,1.02e+01,
180,-8.00e-03,1.02e+01,
181,-8.00e-03,1.00e+01,
182,-8.00e-03,9.80e+00,
183,-8.00e-03,1.02e+01,
184,-8.00e-03,1.00e+01,
185,-8.00e-03,9.80e+00,
186,-8.00e-03,9.80e+00,
187,-8.00e-03,9.80e+00,
188,-8.00e-03,1.00e+01,
189,-8.00e-03,9.60e+00,
190,-8.00e-03,9.40e+00,
191,-8.00e-03,9.80e+00,
192,-8.00e-03,9.60e+00,
193,-8.00e-03,9.40e+00,
194,-8.00e-03,9.40e+00,
195,-8.00e-03,9.60e+00,
196,-8.00e-03,9.60e+00,
197,-8.00e-03,9.40e+00,
198,-8.00e-03,9.20e+00,
199,-8.00e-03,9.40e+00,
200,-8.00e-03,9.40e+00,
201,-8.00e-03,9.20e+00,
202,-8.00e-03,9.00e+00,
203,-8.00e-03,9.20e+00,
204,-8.00e-03,9.20e+00,
205,-8.00e-03,9.00e+00,
206,-8.00e-03,8.80e+00,
207,-8.00e-03,9.00e+00,
208,-8.00e-03,9.00e+00,
209,-8.00e-03,8.80e+00,
210,-8.00e-03,8.60e+00,
211,-8.00e-03,8.80e+00,
212,-8.00e-03,9.00e+00,
213,-8.00e-03,8.80e+00,
214,-8.00e-03,8.40e+00,
215,-8.00e-03,8.80e+00,
216,-8.00e-03,8.80e+00,
217,-8.00e-03,8.60e+00,
218,-8.00e-03,8.60e+00,
219,-8.00e-03,8.60e+00,
220,-8.00e-03,8.60e+00,
221,-8.00e-03,8.60e+00,
222,-8.00e-03,8.40e+00,
223,-8.00e-03,8.60e+00,
224,-8.00e-03,8.40e+00,
225,-8.00e-03,8.40e+00,
226,-8.00e-03,8.20e+00,
227,-8.00e-03,8.40e+00,
228,-8.00e-03,8.60e+00,
229,-8.00e-03,8.20e+00,
230,-8.00e-03,8.20e+00,
231,-8.00e-03,8.40e+00,
232,-8.00e-03,8.40e+00,
233,-8.00e-03,8.20e+00,
234,-8.00e-03,8.00e+00,
235,-8.00e-03,8.20e+00,
236,0.00e+00,8.20e+00,
237,-8.00e-03,8.00e+00,
238,-8.00e-03,8.00e+00,
239,-8.00e-03,8.20e+00,
240,-8.00e-03,8.20e+00,
241,0.00e+00,8.00e+00,
242,-8.00e-03,8.00e+00,
243,-8.00e-03,8.00e+00,
244,-8.00e-03,8.20e+00,
245,-8.00e-03,8.00e+00,
246,0.00e+00,7.60e+00,
247,-8.00e-03,8.20e+00,
248,-8.00e-03,8.00e+00,
249,-8.00e-03,7.60e+00,
250,-8.00e-03,7.60e+00,
251,-8.00e-03,7.60e+00,
252,-8.00e-03,8.00e+00,
253,-8.00e-03,7.60e+00,
254,-8.00e-03,7.40e+00,
255,-8.00e-03,8.00e+00,
256,-8.00e-03,8.00e+00,
257,-8.00e-03,7.60e+00,
258,-8.00e-03,7.40e+00,
259,-8.00e-03,8.00e+00,
260,-8.00e-03,8.00e+00,
261,-8.00e-03,7.60e+00,
262,-8.00e-03,7.40e+00,
263,-8.00e-03,8.00e+00,
264,-8.00e-03,8.00e+00,
265,-8.00e-03,7.60e+00,
266,-8.00e-03,7.40e+00,
267,-8.00e-03,8.00e+00,
268,-8.00e-03,8.00e+00,
269,-8.00e-03,7.40e+00,
270,-8.00e-03,7.40e+00,
271,-8.00e-03,7.60e+00,
272,-8.00e-03,8.00e+00,
273,-8.00e-03,7.60e+00,
274,-8.00e-03,7.40e+00,
275,-8.00e-03,8.00e+00,
276,0.00e+00,8.00e+00,
277,-8.00e-03,7.60e+00,
278,-8.00e-03,7.60e+00,
279,-8.00e-03,8.00e+00,
280,-8.00e-03,8.00e+00,
281,0.00e+00,7.60e+00,
282,-8.00e-03,7.60e+00,
283,-8.00e-03,8.00e+00,
284,-8.00e-03,8.00e+00,
285,-8.00e-03,7.60e+00,
286,-8.00e-03,7.60e+00,
287,-8.00e-03,8.00e+00,
288,-8.00e-03,8.00e+00,
289,-8.00e-03,7.60e+00,
290,-8.00e-03,8.00e+00,
291,-8.00e-03,8.00e+00,
292,-8.00e-03,8.00e+00,
293,-8.00e-03,8.00e+00,
294,-8.00e-03,7.60e+00,
295,-8.00e-03,8.20e+00,
296,-8.00e-03,8.20e+00,
297,-8.00e-03,8.00e+00,
298,-8.00e-03,8.00e+00,
299,-8.00e-03,8.00e+00,
300,0.00e+00,8.20e+00,
301,-8.00e-03,8.00e+00,
302,0.00e+00,8.00e+00,
303,-8.00e-03,8.20e+00,
304,-8.00e-03,8.20e+00,
305,-8.00e-03,8.20e+00,
306,0.00e+00,8.00e+00,
307,-8.00e-03,8.20e+00,
308,0.00e+00,8.40e+00,
309,-8.00e-03,8.20e+00,
310,0.00e+00,8.20e+00,
311,-8.00e-03,8.40e+00,
312,-8.00e-03,8.40e+00,
313,-8.00e-03,8.40e+00,
314,0.00e+00,8.40e+00,
315,0.00e+00,8.40e+00,
316,-8.00e-03,8.40e+00,
317,-8.00e-03,8.40e+00,
318,-8.00e-03,8.40e+00,
319,-8.00e-03,8.60e+00,
320,0.00e+00,8.60e+00,
321,0.00e+00,8.60e+00,
322,-8.00e-03,8.40e+00,
323,-8.00e-03,8.80e+00,
324,-8.00e-03,8.80e+00,
325,-8.00e-03,8.60e+00,
326,-8.00e-03,8.60e+00,
327,0.00e+00,9.00e+00,
328,0.00e+00,9.00e+00,
329,0.00e+00,8.80e+00,
330,-8.00e-03,8.80e+00,
331,-8.00e-03,9.00e+00,
332,-8.00e-03,9.00e+00,
333,0.00e+00,9.00e+00,
334,-8.00e-03,8.80e+00,
335,-8.00e-03,9.20e+00,
336,-8.00e-03,9.20e+00,
337,-8.00e-03,9.00e+00,
338,0.00e+00,9.00e+00,
339,0.00e+00,9.20e+00,
340,-8.00e-03,9.20e+00,
341,-8.00e-03,9.20e+00,
342,-8.00e-03,9.20e+00,
343,-8.00e-03,9.40e+00,
344,0.00e+00,9.60e+00,
345,0.00e+00,9.40e+00,
346,-8.00e-03,9.40e+00,
347,-8.00e-03,9.60e+00,
348,0.00e+00,9.60e+00,
349,0.00e+00,9.60e+00,
350,-8.00e-03,9.60e+00,
351,-8.00e-03,9.80e+00,
352,-8.00e-03,9.80e+00,
353,0.00e+00,9.80e+00,
354,-8.00e-03,9.60e+00,
355,-8.00e-03,1.00e+01,
356,-8.00e-03,1.00e+01,
357,-8.00e-03,1.00e+01,
358,0.00e+00,9.80e+00,
359,0.00e+00,1.00e+01,
360,-8.00e-03,1.02e+01,
361,-8.00e-03,1.00e+01,
362,-8.00e-03,1.02e+01,
363,-8.00e-03,1.04e+01,
364,0.00e+00,1.04e+01,
365,-8.00e-03,1.02e+01,
366,-8.00e-03,1.02e+01,
367,-8.00e-03,1.04e+01,
368,-8.00e-03,1.06e+01,
369,-8.00e-03,1.04e+01,
370,-8.00e-03,1.04e+01,
371,-8.00e-03,1.10e+01,
372,-8.00e-03,1.10e+01,
373,0.00e+00,1.10e+01,
374,-8.00e-03,1.06e+01,
375,-8.00e-03,1.12e+01,
376,-8.00e-03,1.12e+01,
377,0.00e+00,1.10e+01,
378,-8.00e-03,1.12e+01,
379,-8.00e-03,1.12e+01,
380,-8.00e-03,1.14e+01,
381,0.00e+00,1.12e+01,
382,-8.00e-03,1.12e+01,
383,-8.00e-03,1.16e+01,
384,-8.00e-03,1.16e+01,
385,-8.00e-03,1.16e+01,
386,-8.00e-03,1.16e+01,
387,0.00e+00,1.18e+01,
388,-8.00e-03,1.18e+01,
389,-8.00e-03,1.18e+01,
390,-8.00e-03,1.16e+01,
391,-8.00e-03,1.20e+01,
392,0.00e+00,1.20e+01,
393,0.00e+00,1.20e+01,
394,-8.00e-03,1.18e+01,
395,-8.00e-03,1.20e+01,
396,0.00e+00,1.22e+01,
397,-8.00e-03,1.22e+01,
398,-8.00e-03,1.20e+01,
399,-8.00e-03,1.24e+01,
400,-8.00e-03,1.24e+01,
401,-8.00e-03,1.22e+01,
402,0.00e+00,1.22e+01,
403,-8.00e-03,1.26e+01,
404,-8.00e-03,1.26e+01,
405,0.00e+00,1.26e+01,
406,-8.00e-03,1.24e+01,
407,-8.00e-03,1.28e+01,
408,-8.00e-03,1.28e+01,
409,-8.00e-03,1.26e+01,
410,0.00e+00,1.28e+01,
411,0.00e+00,1.30e+01,
412,-8.00e-03,1.30e+01,
413,-8.00e-03,1.28e+01,
414,-8.00e-03,1.28e+01,
415,-8.00e-03,1.32e+01,
416,0.00e+00,1.32e+01,
417,-8.00e-03,1.32e+01,
418,0.00e+00,1.32e+01,
419,-8.00e-03,1.34e+01,
420,-8.00e-03,1.34e+01,
421,-8.00e-03,1.34e+01,
422,0.00e+00,1.32e+01,
423,-8.00e-03,1.36e+01,
424,-8.00e-03,1.36e+01,
425,-8.00e-03,1.34e+01,
426,-8.00e-03,1.36e+01,
427,-8.00e-03,1.40e+01,
428,-8.00e-03,1.40e+01,
429,-8.00e-03,1.36e+01,
430,-8.00e-03,1.36e+01,
431,-8.00e-03,1.42e+01,
432,-8.00e-03,1.42e+01,
433,-8.00e-03,1.42e+01,
434,-8.00e-03,1.40e+01,
435,-8.00e-03,1.42e+01,
436,-8.00e-03,1.44e+01,
437,-8.00e-03,1.42e+01,
438,-8.00e-03,1.42e+01,
439,-8.00e-03,1.44e+01,
440,-8.00e-03,1.46e+01,
441,-8.00e-03,1.44e+01,
442,-8.00e-03,1.44e+01,
443,-8.00e-03,1.46e+01,
444,-8.00e-03,1.48e+01,
445,-8.00e-03,1.46e+01,
446,-8.00e-03,1.44e+01,
447,-8.00e-03,1.48e+01,
448,-8.00e-03,1.48e+01,
449,0.00e+00,1.46e+01,
450,0.00e+00,1.46e+01,
451,-8.00e-03,1.48e+01,
452,-8.00e-03,1.50e+01,
453,-8.00e-03,1.48e+01,
454,-8.00e-03,1.48e+01,
455,-8.00e-03,1.50e+01,
456,-8.00e-03,1.50e+01,
457,-8.00e-03,1.48e+01,
458,-8.00e-03,1.50e+01,
459,-8.00e-03,1.52e+01,
460,-8.00e-03,1.52e+01,
461,-8.00e-03,1.50e+01,
462,-8.00e-03,1.50e+01,
463,-8.00e-03,1.52e+01,
464,-8.00e-03,1.52e+01,
465,-8.00e-03,1.52e+01,
466,-8.00e-03,1.52e+01,
467,-8.00e-03,1.54e+01,
468,-8.00e-03,1.54e+01,
469,-8.00e-03,1.52e+01,
470,-8.00e-03,1.52e+01,
471,-8.00e-03,1.54e+01,
472,-8.00e-03,1.54e+01,
473,-8.00e-03,1.52e+01,
474,0.00e+00,1.52e+01,
475,-8.00e-03,1.54e+01,
476,-8.00e-03,1.54e+01,
477,-8.00e-03,1.54e+01,
478,-8.00e-03,1.54e+01,
479,-8.00e-03,1.56e+01,
480,-8.00e-03,1.56e+01,
481,-8.00e-03,1.54e+01,
482,-8.00e-03,1.54e+01,
483,-8.00e-03,1.56e+01,
484,-8.00e-03,1.56e+01,
485,-8.00e-03,1.54e+01,
486,-8.00e-03,1.54e+01,
487,-8.00e-03,1.56e+01,
488,-8.00e-03,1.56e+01,
489,-8.00e-03,1.56e+01,
490,-8.00e-03,1.56e+01,
491,-8.00e-03,1.56e+01,
492,-8.00e-03,1.56e+01,
493,-8.00e-03,1.56e+01,
494,-8.00e-03,1.54e+01,
495,-8.00e-03,1.56e+01,
496,-8.00e-03,1.56e+01,
497,-8.00e-03,1.56e+01,
498,-8.00e-03,1.54e+01,
499,-8.00e-03,1.56e+01,
500,-8.00e-03,1.56e+01,
501,-8.00e-03,1.54e+01,
502,-8.00e-03,1.54e+01,
503,-8.00e-03,1.56e+01,
504,-8.00e-03,1.56e+01,
505,-8.00e-03,1.54e+01,
506,-8.00e-03,1.54e+01,
507,-8.00e-03,1.56e+01,
508,0.00e+00,1.56e+01,
509,-8.00e-03,1.54e+01,
510,-8.00e-03,1.54e+01,
511,-8.00e-03,1.56e+01,
512,-8.00e-03,1.56e+01,
513,-8.00e-03,1.54e+01,
514,-8.00e-03,1.54e+01,
515,-8.00e-03,1.54e+01,
516,-8.00e-03,1.54e+01,
517,-8.00e-03,1.52e+01,
518,-8.00e-03,1.52e+01,
519,-8.00e-03,1.54e+01,
520,-8.00e-03,1.54e+01,
521,-8.00e-03,1.52e+01,
522,-8.00e-03,1.52e+01,
523,-8.00e-03,1.54e+01,
524,-8.00e-03,1.54e+01,
525,-8.00e-03,1.52e+01,
526,-8.00e-03,1.50e+01,
527,-8.00e-03,1.52e+01,
528,-8.00e-03,1.52e+01,
529,-8.00e-03,1.52e+01,
530,-8.00e-03,1.50e+01,
531,-8.00e-03,1.52e+01,
532,-8.00e-03,1.52e+01,
533,-8.00e-03,1.50e+01,
534,-8.00e-03,1.48e+01,
535,-8.00e-03,1.50e+01,
536,-8.00e-03,1.50e+01,
537,-8.00e-03,1.48e+01,
538,-8.00e-03,1.48e+01,
539,-8.00e-03,1.48e+01,
540,-8.00e-03,1.48e+01,
541,-8.00e-03,1.46e+01,
542,-8.00e-03,1.44e+01,
543,-8.00e-03,1.48e+01,
544,-8.00e-03,1.48e+01,
545,-8.00e-03,1.46e+01,
546,-8.00e-03,1.44e+01,
547,-8.00e-03,1.46e+01,
548,-8.00e-03,1.46e+01,
549,-8.00e-03,1.44e+01,
550,-8.00e-03,1.42e+01,
551,-8.00e-03,1.46e+01,
552,-8.00e-03,1.44e+01,
553,-8.00e-03,1.42e+01,
554,-8.00e-03,1.42e+01,
555,-8.00e-03,1.44e+01,
556,-8.00e-03,1.42e+01,
557,-8.00e-03,1.40e+01,
558,-8.00e-03,1.40e+01,
559,-8.00e-03,1.42e+01,
560,-8.00e-03,1.42e+01,
561,-8.00e-03,1.40e+01,
562,-8.00e-03,1.36e+01,
563,-8.00e-03,1.40e+01,
564,-8.00e-03,1.40e+01,
565,-8.00e-03,1.36e+01,
566,-8.00e-03,1.34e+01,
567,-8.00e-03,1.36e+01,
568,-8.00e-03,1.36e+01,
569,-8.00e-03,1.34e+01,
570,-8.00e-03,1.34e+01,
571,-8.00e-03,1.34e+01,
572,-8.00e-03,1.34e+01,
573,-8.00e-03,1.32e+01,
574,-8.00e-03,1.30e+01,
575,-8.00e-03,1.32e+01,
576,-8.00e-03,1.32e+01,
577,-8.00e-03,1.30e+01,
578,-8.00e-03,1.28e+01,
579,-8.00e-03,1.30e+01,
580,-8.00e-03,1.30e+01,
581,-8.00e-03,1.28e+01,
582,-8.00e-03,1.26e+01,
583,-8.00e-03,1.28e+01,
584,-8.00e-03,1.28e+01,
585,-8.00e-03,1.26e+01,
586,-8.00e-03,1.24e+01,
587,-8.00e-03,1.26e+01,
588,-8.00e-03,1.26e+01,
589,-8.00e-03,1.24e+01,
590,-8.00e-03,1.24e+01,
591,-8.00e-03,1.24e+01,
592,-8.00e-03,1.24e+01,
593,-8.00e-03,1.22e+01,
594,-8.00e-03,1.22e+01,
595,-8.00e-03,1.22e+01,
596,-8.00e-03,1.22e+01,
597,-8.00e-03,1.20e+01,
598,-8.00e-03,1.18e+01,
599,-8.00e-03,1.20e+01,
600,-8.00e-03,1.20e+01,
601,-8.00e-03,1.18e+01,
602,-8.00e-03,1.16e+01,
603,-8.00e-03,1.18e+01,
604,-8.00e-03,1.20e+01,
605,-8.00e-03,1.16e+01,
606,-8.00e-03,1.14e+01,
607,-8.00e-03,1.16e+01,
608,-8.00e-03,1.16e+01,
609,-8.00e-03,1.14e+01,
610,-8.00e-03,1.14e+01,
611,-8.00e-03,1.14e+01,
612,-8.00e-03,1.14e+01,
613,-8.00e-03,1.12e+01,
614,-8.00e-03,1.12e+01,
615,-8.00e-03,1.12e+01,
616,-8.00e-03,1.12e+01,
617,-8.00e-03,1.10e+01,
618,-8.00e-03,1.06e+01,
619,-8.00e-03,1.10e+01,
620,-8.00e-03,1.10e+01,
621,-8.00e-03,1.06e+01,
622,-8.00e-03,1.04e+01,
623,-8.00e-03,1.10e+01,
624,-8.00e-03,1.06e+01,
625,-8.00e-03,1.06e+01,
626,-8.00e-03,1.04e+01,
627,-8.00e-03,1.06e+01,
628,-8.00e-03,1.04e+01,
629,-8.00e-03,1.02e+01,
630,-8.00e-03,1.02e+01,
631,-8.00e-03,1.02e+01,
632,-8.00e-03,1.04e+01,
633,-8.00e-03,1.00e+01,
634,-8.00e-03,1.00e+01,
635,-8.00e-03,1.02e+01,
636,-8.00e-03,1.02e+01,
637,-8.00e-03,9.80e+00,
638,-8.00e-03,9.80e+00,
639,-8.00e-03,1.00e+01,
640,-8.00e-03,1.00e+01,
641,-8.00e-03,9.80e+00,
642,-8.00e-03,9.60e+00,
643,-8.00e-03,9.80e+00,
644,-8.00e-03,9.80e+00,
645,-8.00e-03,9.60e+00,
646,-8.00e-03,9.40e+00,
647,-8.00e-03,9.60e+00,
648,-8.00e-03,9.60e+00,
649,-8.00e-03,9.40e+00,
650,-8.00e-03,9.40e+00,
651,-8.00e-03,9.40e+00,
652,-8.00e-03,9.60e+00,
653,-8.00e-03,9.40e+00,
654,-8.00e-03,9.20e+00,
655,-8.00e-03,9.40e+00,
656,-8.00e-03,9.40e+00,
657,-8.00e-03,9.20e+00,
658,-8.00e-03,9.00e+00,
659,-8.00e-03,9.20e+00,
660,-8.00e-03,9.20e+00,
661,-8.00e-03,9.00e+00,
662,-8.00e-03,9.00e+00,
663,-8.00e-03,9.00e+00,
664,-8.00e-03,9.20e+00,
665,-8.00e-03,9.00e+00,
666,-8.00e-03,8.80e+00,
667,-8.00e-03,9.00e+00,
668,-8.00e-03,9.00e+00,
669,-8.00e-03,8.80e+00,
670,-8.00e-03,8.60e+00,
671,-8.00e-03,8.80e+00,
672,-8.00e-03,9.00e+00,
673,-8.00e-03,8.80e+00,
674,-8.00e-03,8.60e+00,
675,-8.00e-03,8.80e+00,
676,-8.00e-03,8.80e+00,
677,-8.00e-03,8.60e+00,
678,-8.00e-03,8.40e+00,
679,-8.00e-03,8.80e+00,
680,-8.00e-03,8.80e+00,
681,-8.00e-03,8.40e+00,
682,-8.00e-03,8.40e+00,
683,-8.00e-03,8.80e+00,
684,-8.00e-03,8.40e+00,
685,-8.00e-03,8.40e+00,
686,-8.00e-03,8.40e+00,
687,-8.00e-03,8.40e+00,
688,-8.00e-03,8.60e+00,
689,-8.00e-03,8.40e+00,
690,-8.00e-03,8.20e+00,
691,-8.00e-03,8.40e+00,
692,-8.00e-03,8.60e+00,
693,-8.00e-03,8.40e+00,
694,-8.00e-03,8.20e+00,
695,-8.00e-03,8.40e+00,
696,-8.00e-03,8.40e+00,
697,0.00e+00,8.20e+00,
698,-8.00e-03,8.20e+00,
699,-8.00e-03,8.40e+00,
700,-8.00e-03,8.40e+00,
701,-8.00e-03,8.20e+00,
702,-8.00e-03,8.00e+00,
703,-8.00e-03,8.40e+00,
704,-8.00e-03,8.40e+00,
705,-8.00e-03,8.20e+00,
706,-8.00e-03,8.00e+00,
707,-8.00e-03,8.20e+00,
708,-8.00e-03,8.40e+00,
709,-8.00e-03,8.20e+00,
710,-8.00e-03,8.00e+00,
711,-8.00e-03,8.20e+00,
712,-8.00e-03,8.20e+00,
713,-8.00e-03,8.20e+00,
714,-8.00e-03,8.00e+00,
715,-8.00e-03,8.20e+00,
716,0.00e+00,8.20e+00,
717,-8.00e-03,8.00e+00,
718,-8.00e-03,8.00e+00,
719,-8.00e-03,8.20e+00,
720,-8.00e-03,8.40e+00,
721,-8.00e-03,8.20e+00,
722,-8.00e-03,8.00e+00,
723,-8.00e-03,8.40e+00,
724,-8.00e-03,8.20e+00,
725,-8.00e-03,8.20e+00,
726,-8.00e-03,8.00e+00,
727,-8.00e-03,8.20e+00,
728,-8.00e-03,8.20e+00,
729,-8.00e-03,8.20e+00,
730,-8.00e-03,8.00e+00,
731,-8.00e-03,8.20e+00,
732,-8.00e-03,8.40e+00,
733,-8.00e-03,8.20e+00,
734,-8.00e-03,8.00e+00,
735,-8.00e-03,8.40e+00,
736,0.00e+00,8.40e+00,
737,-8.00e-03,8.20e+00,
738,-8.00e-03,8.20e+00,
739,-8.00e-03,8.40e+00,
740,-8.00e-03,8.40e+00,
741,-8.00e-03,8.20e+00,
742,-8.00e-03,8.20e+00,
743,-8.00e-03,8.40e+00,
744,-8.00e-03,8.40e+00,
745,0.00e+00,8.40e+00,
746,0.00e+00,8.20e+00,
747,-8.00e-03,8.40e+00,
748,-8.00e-03,8.40e+00,
749,-8.00e-03,8.40e+00,
750,0.00e+00,8.20e+00,
751,-8.00e-03,8.40e+00,
752,-8.00e-03,8.60e+00,
753,-8.00e-03,8.40e+00,
754,-8.00e-03,8.40e+00,
755,-8.00e-03,8.60e+00,
756,-8.00e-03,8.60e+00,
757,-8.00e-03,8.40e+00,
758,-8.00e-03,8.40e+00,
759,-8.00e-03,8.60e+00,
760,-8.00e-03,8.60e+00,
761,0.00e+00,8.60e+00,
762,-8.00e-03,8.40e+00,
763,-8.00e-03,8.60e+00,
764,-8.00e-03,8.80e+00,
765,0.00e+00,8.60e+00,
766,0.00e+00,8.40e+00,
767,-8.00e-03,8.80e+00,
768,-8.00e-03,8.80e+00,
769,-8.00e-03,8.80e+00,
770,-8.00e-03,8.80e+00,
771,0.00e+00,8.80e+00,
772,-8.00e-03,9.00e+00,
773,-8.00e-03,8.80e+00,
774,-8.00e-03,8.80e+00,
775,-8.00e-03,9.00e+00,
776,-8.00e-03,9.20e+00,
777,0.00e+00,9.00e+00,
778,0.00e+00,9.00e+00,
779,-8.00e-03,9.00e+00,
780,-8.00e-03,9.20e+00,
781,-8.00e-03,9.00e+00,
782,-8.00e-03,9.00e+00,
783,-8.00e-03,9.20e+00,
784,0.00e+00,9.40e+00,
785,-8.00e-03,9.20e+00,
786,-8.00e-03,9.20e+00,
787,-8.00e-03,9.20e+00,
788,0.00e+00,9.60e+00,
789,-8.00e-03,9.20e+00,
790,-8.00e-03,9.40e+00,
791,-8.00e-03,9.60e+00,
792,-8.00e-03,9.60e+00,
793,0.00e+00,9.60e+00,
794,0.00e+00,9.40e+00,
795,-8.00e-03,9.60e+00,
796,-8.00e-03,9.80e+00,
797,0.00e+00,9.60e+00,
798,0.00e+00,9.60e+00,
799,-8.00e-03,9.80e+00,
800,-8.00e-03,9.80e+00,
801,-8.00e-03,9.80e+00,
802,-8.00e-03,9.80e+00,
803,0.00e+00,1.00e+01,
804,0.00e+00,1.00e+01,
805,-8.00e-03,9.80e+00,
806,-8.00e-03,1.00e+01,
807,-8.00e-03,1.02e+01,
808,0.00e+00,1.02e+01,
809,0.00e+00,1.00e+01,
810,-8.00e-03,1.02e+01,
811,-8.00e-03,1.02e+01,
812,-8.00e-03,1.04e+01,
813,-8.00e-03,1.02e+01,
814,-8.00e-03,1.02e+01,
815,-8.00e-03,1.04e+01,
816,0.00e+00,1.06e+01,
817,-8.00e-03,1.04e+01,
818,-8.00e-03,1.04e+01,
819,-8.00e-03,1.06e+01,
820,0.00e+00,1.10e+01,
821,-8.00e-03,1.06e+01,
822,-8.00e-03,1.06e+01,
823,-8.00e-03,1.12e+01,
824,-8.00e-03,1.12e+01,
825,0.00e+00,1.10e+01,
826,-8.00e-03,1.10e+01,
827,0.00e+00,1.12e+01,
828,-8.00e-03,1.12e+01,
829,-8.00e-03,1.12e+01,
830,-8.00e-03,1.12e+01,
831,-8.00e-03,1.12e+01,
832,0.00e+00,1.14e+01,
833,-8.00e-03,1.14e+01,
834,-8.00e-03,1.12e+01,
835,-8.00e-03,1.16e+01,
836,0.00e+00,1.16e+01,
