Lab9/data2/off1_6.csv

X,CH1,CH2,Start,Increment,
Sequence,Volt,Volt,-4.190000e-05,2.000000e-09
0,5.20e-02,-2.25e-05,
1,5.20e-02,-2.25e-05,
2,5.20e-02,4.00e-01,
3,5.60e-02,4.00e-01,
4,4.80e-02,-2.25e-05,
5,5.20e-02,4.00e-01,
6,5.20e-02,4.00e-01,
7,5.60e-02,4.00e-01,
8,5.20e-02,-2.25e-05,
9,5.20e-02,-2.25e-05,
10,5.20e-02,4.00e-01,
11,5.60e-02,4.00e-01,
12,5.20e-02,-2.25e-05,
13,5.20e-02,4.00e-01,
14,4.80e-02,4.00e-01,
15,5.20e-02,4.00e-01,
16,5.20e-02,-2.25e-05,
17,5.20e-02,-2.25e-05,
18,5.20e-02,6.00e-01,
19,5.60e-02,4.00e-01,
20,5.20e-02,-2.25e-05,
21,5.20e-02,4.00e-01,
22,5.20e-02,4.00e-01,
23,5.60e-02,4.00e-01,
24,5.20e-02,-2.25e-05,
25,5.20e-02,4.00e-01,
26,5.20e-02,4.00e-01,
27,5.60e-02,4.00e-01,
28,5.20e-02,-2.25e-05,
29,5.20e-02,4.00e-01,
30,5.20e-02,4.00e-01,
31,5.60e-02,4.00e-01,
32,5.60e-02,-2.25e-05,
33,5.20e-02,4.00e-01,
34,5.20e-02,4.00e-01,
35,5.60e-02,4.00e-01,
36,5.60e-02,-2.25e-05,
37,5.60e-02,-2.25e-05,
38,5.20e-02,4.00e-01,
39,5.60e-02,4.00e-01,
40,5.20e-02,-2.25e-05,
41,5.60e-02,4.00e-01,
42,5.60e-02,4.00e-01,
43,5.60e-02,4.00e-01,
44,5.60e-02,-2.25e-05,
45,5.60e-02,-2.25e-05,
46,5.60e-02,4.00e-01,
47,6.00e-02,4.00e-01,
48,5.60e-02,-2.25e-05,
49,5.60e-02,4.00e-01,
50,5.60e-02,4.00e-01,
51,6.00e-02,4.00e-01,
52,5.60e-02,-2.25e-05,
53,5.20e-02,4.00e-01,
54,5.60e-02,4.00e-01,
55,6.00e-02,4.00e-01,
56,5.60e-02,-2.25e-05,
57,6.00e-02,-2.25e-05,
58,5.20e-02,4.00e-01,
59,6.00e-02,4.00e-01,
60,5.60e-02,-2.25e-05,
61,5.60e-02,4.00e-01,
62,5.60e-02,4.00e-01,
63,6.00e-02,4.00e-01,
64,5.60e-02,-2.25e-05,
65,6.00e-02,4.00e-01,
66,5.60e-02,4.00e-01,
67,6.00e-02,4.00e-01,
68,5.60e-02,-2.25e-05,
69,5.60e-02,4.00e-01,
70,5.60e-02,4.00e-01,
71,6.00e-02,6.00e-01,
72,5.60e-02,-2.25e-05,
73,5.60e-02,4.00e-01,
74,5.60e-02,4.00e-01,
75,6.00e-02,4.00e-01,
76,6.00e-02,-2.25e-05,
77,6.00e-02,4.00e-01,
78,5.60e-02,4.00e-01,
79,6.00e-02,4.00e-01,
80,6.00e-02,-2.25e-05,
81,6.00e-02,4.00e-01,
82,6.00e-02,4.00e-01,
83,6.00e-02,4.00e-01,
84,5.60e-02,-2.25e-05,
85,5.60e-02,-2.25e-05,
86,6.00e-02,4.00e-01,
87,6.40e-02,-2.25e-05,
88,6.00e-02,-2.25e-05,
89,6.00e-02,4.00e-01,
90,5.60e-02,4.00e-01,
91,6.40e-02,4.00e-01,
92,6.00e-02,-2.25e-05,
93,6.00e-02,4.00e-01,
94,6.00e-02,4.00e-01,
95,6.00e-02,4.00e-01,
96,5.60e-02,-2.25e-05,
97,6.00e-02,4.00e-01,
98,6.00e-02,4.00e-01,
99,6.40e-02,4.00e-01,
100,6.00e-02,-2.25e-05,
101,6.00e-02,4.00e-01,
102,6.00e-02,4.00e-01,
103,6.40e-02,4.00e-01,
104,6.00e-02,-2.25e-05,
105,6.00e-02,-2.25e-05,
106,6.00e-02,6.00e-01,
107,6.80e-02,4.00e-01,
108,6.40e-02,-2.25e-05,
109,6.00e-02,4.00e-01,
110,6.00e-02,4.00e-01,
111,6.40e-02,4.00e-01,
112,6.00e-02,-2.25e-05,
113,6.40e-02,4.00e-01,
114,6.40e-02,4.00e-01,
115,6.40e-02,4.00e-01,
116,6.00e-02,4.00e-01,
117,6.40e-02,4.00e-01,
118,6.40e-02,4.00e-01,
119,6.40e-02,4.00e-01,
120,6.00e-02,-2.25e-05,
121,6.40e-02,4.00e-01,
122,6.40e-02,4.00e-01,
123,6.80e-02,4.00e-01,
124,6.40e-02,-2.25e-05,
125,6.40e-02,4.00e-01,
126,6.00e-02,4.00e-01,
127,6.40e-02,4.00e-01,
128,6.40e-02,-2.25e-05,
129,6.40e-02,4.00e-01,
130,6.40e-02,4.00e-01,
131,6.80e-02,4.00e-01,
132,6.40e-02,-2.25e-05,
133,6.00e-02,4.00e-01,
134,6.40e-02,4.00e-01,
135,6.40e-02,4.00e-01,
136,6.40e-02,-2.25e-05,
137,6.40e-02,4.00e-01,
138,6.40e-02,4.00e-01,
139,6.80e-02,4.00e-01,
140,6.40e-02,4.00e-01,
141,6.40e-02,4.00e-01,
142,6.40e-02,4.00e-01,
143,6.80e-02,4.00e-01,
144,6.40e-02,-2.25e-05,
145,6.40e-02,-2.25e-05,
146,6.40e-02,6.00e-01,
147,6.80e-02,4.00e-01,
148,6.40e-02,-2.25e-05,
149,6.40e-02,4.00e-01,
150,6.40e-02,4.00e-01,
151,6.80e-02,4.00e-01,
152,6.40e-02,-2.25e-05,
153,6.80e-02,4.00e-01,
154,6.80e-02,6.00e-01,
155,6.80e-02,4.00e-01,
156,6.40e-02,-2.25e-05,
157,6.40e-02,4.00e-01,
158,6.40e-02,6.00e-01,
159,7.20e-02,4.00e-01,
160,6.40e-02,-2.25e-05,
161,6.40e-02,4.00e-01,
162,6.40e-02,6.00e-01,
163,7.20e-02,4.00e-01,
164,6.80e-02,-2.25e-05,
165,6.80e-02,-2.25e-05,
166,6.40e-02,6.00e-01,
167,6.80e-02,4.00e-01,
168,6.80e-02,-2.00e-01,
169,6.80e-02,4.00e-01,
170,6.80e-02,4.00e-01,
171,6.80e-02,4.00e-01,
172,6.80e-02,4.00e-01,
173,6.80e-02,4.00e-01,
174,6.80e-02,4.00e-01,
175,7.20e-02,4.00e-01,
176,6.80e-02,-2.25e-05,
177,6.80e-02,-2.25e-05,
178,6.80e-02,4.00e-01,
179,7.20e-02,4.00e-01,
180,6.80e-02,-2.25e-05,
181,6.80e-02,4.00e-01,
182,6.80e-02,4.00e-01,
183,7.20e-02,4.00e-01,
184,6.80e-02,-2.25e-05,
185,6.80e-02,4.00e-01,
186,6.80e-02,4.00e-01,
187,6.80e-02,4.00e-01,
188,6.80e-02,4.00e-01,
189,6.80e-02,4.00e-01,
190,6.80e-02,4.00e-01,
191,7.60e-02,4.00e-01,
192,6.80e-02,-2.25e-05,
193,7.20e-02,4.00e-01,
194,6.80e-02,4.00e-01,
195,7.20e-02,4.00e-01,
196,6.80e-02,4.00e-01,
197,7.20e-02,-2.25e-05,
198,7.20e-02,6.00e-01,
199,7.20e-02,4.00e-01,
200,6.80e-02,4.00e-01,
201,6.80e-02,4.00e-01,
202,6.80e-02,6.00e-01,
203,7.60e-02,4.00e-01,
204,6.80e-02,-2.25e-05,
205,7.20e-02,4.00e-01,
206,6.80e-02,4.00e-01,
207,7.20e-02,4.00e-01,
208,7.20e-02,-2.25e-05,
209,7.20e-02,-2.25e-05,
210,7.20e-02,4.00e-01,
211,7.20e-02,4.00e-01,
212,6.80e-02,-2.25e-05,
213,7.20e-02,4.00e-01,
214,7.20e-02,4.00e-01,
215,7.60e-02,4.00e-01,
216,7.20e-02,-2.25e-05,
217,7.20e-02,-2.25e-05,
218,6.80e-02,4.00e-01,
219,7.60e-02,4.00e-01,
220,7.20e-02,4.00e-01,
221,7.20e-02,4.00e-01,
222,7.20e-02,4.00e-01,
223,7.60e-02,4.00e-01,
224,7.20e-02,-2.25e-05,
225,7.20e-02,4.00e-01,
226,7.20e-02,4.00e-01,
227,7.60e-02,4.00e-01,
228,7.20e-02,4.00e-01,
229,7.60e-02,4.00e-01,
230,7.20e-02,4.00e-01,
231,7.60e-02,4.00e-01,
232,7.20e-02,-2.25e-05,
233,7.20e-02,4.00e-01,
234,7.60e-02,4.00e-01,
235,8.00e-02,4.00e-01,
236,7.20e-02,-2.25e-05,
237,7.20e-02,4.00e-01,
238,6.80e-02,4.00e-01,
239,7.60e-02,4.00e-01,
240,7.60e-02,-2.25e-05,
241,7.60e-02,4.00e-01,
242,7.20e-02,4.00e-01,
243,7.60e-02,4.00e-01,
244,7.20e-02,-2.25e-05,
245,7.20e-02,4.00e-01,
246,7.60e-02,4.00e-01,
247,8.00e-02,4.00e-01,
248,7.20e-02,-2.25e-05,
249,7.20e-02,4.00e-01,
250,7.20e-02,4.00e-01,
251,8.00e-02,4.00e-01,
252,7.60e-02,-2.25e-05,
253,7.60e-02,4.00e-01,
254,7.20e-02,4.00e-01,
255,7.60e-02,4.00e-01,
256,7.60e-02,-2.25e-05,
257,7.60e-02,4.00e-01,
258,7.60e-02,4.00e-01,
259,8.00e-02,4.00e-01,
260,7.60e-02,-2.25e-05,
261,7.60e-02,4.00e-01,
262,7.60e-02,6.00e-01,
263,7.60e-02,4.00e-01,
264,7.60e-02,-2.25e-05,
265,7.60e-02,4.00e-01,
266,7.60e-02,6.00e-01,
267,7.60e-02,4.00e-01,
268,7.60e-02,-2.25e-05,
269,7.60e-02,4.00e-01,
270,7.60e-02,4.00e-01,
271,8.00e-02,4.00e-01,
272,7.60e-02,-2.25e-05,
273,7.60e-02,4.00e-01,
274,7.60e-02,4.00e-01,
275,8.00e-02,4.00e-01,
276,7.60e-02,-2.25e-05,
277,8.00e-02,4.00e-01,
278,7.60e-02,6.00e-01,
279,8.00e-02,4.00e-01,
280,7.60e-02,-2.25e-05,
281,8.00e-02,4.00e-01,
282,7.60e-02,4.00e-01,
283,8.40e-02,4.00e-01,
284,7.60e-02,-2.25e-05,
285,7.60e-02,4.00e-01,
286,7.60e-02,4.00e-01,
287,8.00e-02,4.00e-01,
288,7.60e-02,-2.25e-05,
289,8.00e-02,-2.25e-05,
290,7.60e-02,4.00e-01,
291,8.40e-02,4.00e-01,
292,8.00e-02,-2.25e-05,
293,7.60e-02,4.00e-01,
294,7.60e-02,4.00e-01,
295,8.40e-02,4.00e-01,
296,8.00e-02,4.00e-01,
297,8.00e-02,4.00e-01,
298,7.60e-02,4.00e-01,
299,8.00e-02,4.00e-01,
300,7.60e-02,-2.25e-05,
301,8.00e-02,4.00e-01,
302,8.00e-02,4.00e-01,
303,8.40e-02,4.00e-01,
304,8.00e-02,-2.25e-05,
305,8.00e-02,-2.25e-05,
306,8.00e-02,4.00e-01,
307,8.40e-02,4.00e-01,
308,8.00e-02,-2.25e-05,
309,8.00e-02,4.00e-01,
310,8.00e-02,4.00e-01,
311,8.40e-02,4.00e-01,
312,8.00e-02,-2.25e-05,
313,8.00e-02,4.00e-01,
314,8.00e-02,4.00e-01,
315,8.40e-02,4.00e-01,
316,8.00e-02,-2.25e-05,
317,8.00e-02,4.00e-01,
318,8.00e-02,4.00e-01,
319,8.40e-02,4.00e-01,
320,8.40e-02,-2.25e-05,
321,8.40e-02,-2.25e-05,
322,8.00e-02,4.00e-01,
323,8.40e-02,4.00e-01,
324,8.00e-02,-2.25e-05,
325,8.40e-02,4.00e-01,
326,8.00e-02,6.00e-01,
327,8.40e-02,4.00e-01,
328,8.00e-02,4.00e-01,
329,8.40e-02,-2.25e-05,
330,8.00e-02,4.00e-01,
331,9.20e-02,4.00e-01,
332,8.40e-02,-2.25e-05,
333,8.00e-02,4.00e-01,
334,8.00e-02,4.00e-01,
335,8.40e-02,4.00e-01,
336,8.40e-02,-2.25e-05,
337,8.40e-02,-2.25e-05,
338,8.00e-02,4.00e-01,
339,9.20e-02,4.00e-01,
340,8.40e-02,-2.25e-05,
341,8.00e-02,4.00e-01,
342,8.00e-02,4.00e-01,
343,8.40e-02,4.00e-01,
344,8.40e-02,-2.25e-05,
345,8.40e-02,4.00e-01,
346,8.40e-02,6.00e-01,
347,9.20e-02,4.00e-01,
348,8.40e-02,-2.25e-05,
349,8.40e-02,4.00e-01,
350,8.40e-02,4.00e-01,
351,9.20e-02,4.00e-01,
352,8.40e-02,-2.25e-05,
353,8.40e-02,-2.25e-05,
354,8.40e-02,4.00e-01,
355,9.20e-02,4.00e-01,
356,8.40e-02,-2.25e-05,
357,8.40e-02,-2.25e-05,
358,8.40e-02,6.00e-01,
359,9.20e-02,4.00e-01,
360,8.40e-02,-2.25e-05,
361,8.40e-02,4.00e-01,
362,8.40e-02,4.00e-01,
363,9.20e-02,4.00e-01,
364,8.40e-02,4.00e-01,
365,8.40e-02,-2.25e-05,
366,8.40e-02,6.00e-01,
367,9.20e-02,4.00e-01,
368,8.40e-02,-2.00e-01,
369,9.20e-02,4.00e-01,
370,8.40e-02,4.00e-01,
371,9.20e-02,4.00e-01,
372,9.20e-02,4.00e-01,
373,9.20e-02,4.00e-01,
374,9.20e-02,6.00e-01,
375,9.20e-02,4.00e-01,
376,8.40e-02,-2.25e-05,
377,9.20e-02,4.00e-01,
378,9.20e-02,4.00e-01,
379,9.60e-02,4.00e-01,
380,8.40e-02,-2.25e-05,
381,8.40e-02,4.00e-01,
382,9.20e-02,4.00e-01,
383,9.60e-02,4.00e-01,
384,9.20e-02,-2.25e-05,
385,9.20e-02,4.00e-01,
386,8.40e-02,6.00e-01,
387,9.60e-02,4.00e-01,
388,9.20e-02,4.00e-01,
389,9.20e-02,4.00e-01,
390,9.20e-02,4.00e-01,
391,9.20e-02,4.00e-01,
392,9.20e-02,-2.25e-05,
393,9.20e-02,4.00e-01,
394,9.20e-02,4.00e-01,
395,9.60e-02,4.00e-01,
396,9.20e-02,-2.25e-05,
397,9.20e-02,4.00e-01,
398,9.20e-02,4.00e-01,
399,9.60e-02,4.00e-01,
400,9.20e-02,-2.25e-05,
401,9.60e-02,4.00e-01,
402,9.20e-02,4.00e-01,
403,9.60e-02,4.00e-01,
404,9.20e-02,-2.25e-05,
405,9.20e-02,4.00e-01,
406,9.20e-02,4.00e-01,
407,9.60e-02,4.00e-01,
408,9.20e-02,-2.25e-05,
409,9.60e-02,4.00e-01,
410,9.20e-02,4.00e-01,
411,9.60e-02,4.00e-01,
412,9.60e-02,4.00e-01,
413,9.60e-02,4.00e-01,
414,9.20e-02,4.00e-01,
415,9.60e-02,4.00e-01,
416,9.20e-02,-2.25e-05,
417,9.60e-02,4.00e-01,
418,9.60e-02,6.00e-01,
419,9.60e-02,4.00e-01,
420,9.20e-02,-2.25e-05,
421,9.20e-02,4.00e-01,
422,9.60e-02,4.00e-01,
423,1.00e-01,4.00e-01,
424,9.20e-02,-2.25e-05,
425,9.60e-02,-2.25e-05,
426,9.20e-02,6.00e-01,
427,1.00e-01,4.00e-01,
428,9.60e-02,-2.25e-05,
429,9.60e-02,4.00e-01,
430,9.20e-02,4.00e-01,
431,1.00e-01,4.00e-01,
432,9.60e-02,-2.25e-05,
433,9.60e-02,4.00e-01,
434,9.20e-02,4.00e-01,
435,9.60e-02,4.00e-01,
436,9.60e-02,4.00e-01,
437,1.00e-01,4.00e-01,
438,9.60e-02,6.00e-01,
439,9.60e-02,4.00e-01,
440,9.20e-02,-2.25e-05,
441,9.60e-02,4.00e-01,
442,9.60e-02,4.00e-01,
443,1.04e-01,4.00e-01,
444,9.60e-02,4.00e-01,
445,9.20e-02,4.00e-01,
446,9.60e-02,4.00e-01,
447,1.00e-01,4.00e-01,
448,9.60e-02,-2.25e-05,
449,1.00e-01,4.00e-01,
450,9.60e-02,4.00e-01,
451,1.00e-01,4.00e-01,
452,1.00e-01,-2.25e-05,
453,1.00e-01,4.00e-01,
454,9.60e-02,4.00e-01,
455,1.00e-01,4.00e-01,
456,9.60e-02,-2.25e-05,
457,1.00e-01,4.00e-01,
458,9.60e-02,4.00e-01,
459,1.00e-01,4.00e-01,
460,9.60e-02,-2.25e-05,
461,9.60e-02,4.00e-01,
462,1.00e-01,4.00e-01,
463,1.04e-01,4.00e-01,
464,1.00e-01,-2.25e-05,
465,1.00e-01,4.00e-01,
466,9.60e-02,6.00e-01,
467,1.04e-01,4.00e-01,
468,1.00e-01,4.00e-01,
469,1.00e-01,4.00e-01,
470,9.60e-02,4.00e-01,
471,1.00e-01,4.00e-01,
472,1.00e-01,-2.25e-05,
473,1.04e-01,4.00e-01,
474,1.00e-01,4.00e-01,
475,1.00e-01,4.00e-01,
476,9.60e-02,-2.25e-05,
477,1.00e-01,-2.25e-05,
478,1.00e-01,4.00e-01,
479,1.04e-01,4.00e-01,
480,1.00e-01,-2.25e-05,
481,1.00e-01,4.00e-01,
482,9.60e-02,4.00e-01,
483,1.04e-01,4.00e-01,
484,1.00e-01,-2.25e-05,
485,1.00e-01,4.00e-01,
486,1.00e-01,4.00e-01,
487,1.04e-01,4.00e-01,
488,1.00e-01,-2.25e-05,
489,1.04e-01,4.00e-01,
490,1.00e-01,4.00e-01,
491,1.04e-01,4.00e-01,
492,1.00e-01,4.00e-01,
493,1.04e-01,4.00e-01,
494,1.00e-01,4.00e-01,
495,1.04e-01,4.00e-01,
496,1.00e-01,-2.25e-05,
497,1.04e-01,4.00e-01,
498,1.00e-01,4.00e-01,
499,1.08e-01,4.00e-01,
500,1.00e-01,-2.25e-05,
501,1.00e-01,4.00e-01,
502,1.00e-01,4.00e-01,
503,1.04e-01,4.00e-01,
504,1.04e-01,-2.25e-05,
505,1.08e-01,4.00e-01,
506,1.00e-01,4.00e-01,
507,1.04e-01,4.00e-01,
508,1.00e-01,-2.25e-05,
509,1.04e-01,4.00e-01,
510,1.04e-01,6.00e-01,
511,1.08e-01,4.00e-01,
512,1.00e-01,-2.25e-05,
513,1.00e-01,4.00e-01,
514,1.04e-01,6.00e-01,
515,1.08e-01,4.00e-01,
516,1.04e-01,4.00e-01,
517,1.00e-01,4.00e-01,
518,1.00e-01,6.00e-01,
519,1.08e-01,4.00e-01,
520,1.04e-01,-2.25e-05,
521,1.04e-01,4.00e-01,
522,1.04e-01,6.00e-01,
523,1.08e-01,4.00e-01,
524,1.04e-01,-2.25e-05,
525,1.04e-01,4.00e-01,
526,1.00e-01,4.00e-01,
527,1.04e-01,4.00e-01,
528,1.04e-01,-2.25e-05,
529,1.08e-01,-2.25e-05,
530,1.04e-01,6.00e-01,
531,1.08e-01,4.00e-01,
532,1.04e-01,-2.25e-05,
533,1.08e-01,4.00e-01,
534,1.04e-01,4.00e-01,
535,1.12e-01,4.00e-01,
536,1.04e-01,-2.25e-05,
537,1.04e-01,4.00e-01,
538,1.04e-01,4.00e-01,
539,1.12e-01,4.00e-01,
540,1.08e-01,-2.25e-05,
541,1.04e-01,4.00e-01,
542,1.04e-01,6.00e-01,
543,1.12e-01,4.00e-01,
544,1.08e-01,-2.25e-05,
545,1.08e-01,4.00e-01,
546,1.04e-01,6.00e-01,
547,1.12e-01,4.00e-01,
548,1.08e-01,4.00e-01,
549,1.08e-01,4.00e-01,
550,1.04e-01,4.00e-01,
551,1.08e-01,4.00e-01,
552,1.08e-01,-2.25e-05,
553,1.08e-01,4.00e-01,
554,1.08e-01,4.00e-01,
555,1.12e-01,4.00e-01,
556,1.04e-01,-2.25e-05,
557,1.08e-01,4.00e-01,
558,1.08e-01,6.00e-01,
559,1.16e-01,4.00e-01,
560,1.08e-01,-2.25e-05,
561,1.08e-01,4.00e-01,
562,1.04e-01,6.00e-01,
563,1.12e-01,4.00e-01,
564,1.08e-01,-2.25e-05,
565,1.08e-01,-2.25e-05,
566,1.04e-01,6.00e-01,
567,1.12e-01,4.00e-01,
568,1.08e-01,-2.00e-01,
569,1.08e-01,6.00e-01,
570,1.08e-01,4.00e-01,
571,1.12e-01,4.00e-01,
572,1.08e-01,-2.25e-05,
573,1.08e-01,4.00e-01,
574,1.08e-01,4.00e-01,
575,1.16e-01,4.00e-01,
576,1.08e-01,-2.25e-05,
577,1.08e-01,4.00e-01,
578,1.08e-01,4.00e-01,
579,1.16e-01,4.00e-01,
580,1.08e-01,-2.25e-05,
581,1.08e-01,4.00e-01,
582,1.08e-01,6.00e-01,
583,1.12e-01,4.00e-01,
584,1.08e-01,-2.25e-05,
585,1.12e-01,4.00e-01,
586,1.08e-01,6.00e-01,
587,1.16e-01,4.00e-01,
588,1.08e-01,-2.25e-05,
589,1.12e-01,4.00e-01,
590,1.12e-01,4.00e-01,
591,1.16e-01,6.00e-01,
592,1.12e-01,-2.25e-05,
593,1.12e-01,4.00e-01,
594,1.12e-01,4.00e-01,
595,1.16e-01,4.00e-01,
596,1.12e-01,4.00e-01,
597,1.12e-01,4.00e-01,
598,1.12e-01,4.00e-01,
599,1.16e-01,4.00e-01,
600,1.12e-01,-2.25e-05,
601,1.12e-01,4.00e-01,
602,1.12e-01,4.00e-01,
603,1.16e-01,4.00e-01,
604,1.12e-01,-2.25e-05,
605,1.12e-01,4.00e-01,
606,1.12e-01,6.00e-01,
607,1.16e-01,4.00e-01,
608,1.12e-01,-2.25e-05,
609,1.12e-01,4.00e-01,
610,1.12e-01,4.00e-01,
611,1.16e-01,4.00e-01,
612,1.12e-01,-2.25e-05,
613,1.12e-01,4.00e-01,
614,1.08e-01,4.00e-01,
615,1.20e-01,4.00e-01,
616,1.16e-01,-2.25e-05,
617,1.12e-01,4.00e-01,
618,1.08e-01,4.00e-01,
619,1.16e-01,4.00e-01,
620,1.16e-01,-2.25e-05,
621,1.16e-01,4.00e-01,
622,1.12e-01,4.00e-01,
623,1.16e-01,4.00e-01,
624,1.12e-01,-2.25e-05,
625,1.12e-01,4.00e-01,
626,1.16e-01,6.00e-01,
627,1.20e-01,4.00e-01,
628,1.12e-01,-2.25e-05,
629,1.12e-01,4.00e-01,
630,1.12e-01,6.00e-01,
631,1.20e-01,4.00e-01,
632,1.16e-01,-2.25e-05,
633,1.16e-01,4.00e-01,
634,1.12e-01,6.00e-01,
635,1.20e-01,4.00e-01,
636,1.16e-01,4.00e-01,
637,1.16e-01,4.00e-01,
638,1.16e-01,4.00e-01,
639,1.20e-01,6.00e-01,
640,1.16e-01,-2.25e-05,
641,1.16e-01,4.00e-01,
642,1.12e-01,4.00e-01,
643,1.20e-01,6.00e-01,
644,1.16e-01,-2.25e-05,
645,1.16e-01,4.00e-01,
646,1.16e-01,4.00e-01,
647,1.20e-01,4.00e-01,
648,1.12e-01,-2.25e-05,
649,1.16e-01,4.00e-01,
650,1.16e-01,4.00e-01,
651,1.20e-01,4.00e-01,
652,1.16e-01,4.00e-01,
653,1.16e-01,4.00e-01,
654,1.12e-01,6.00e-01,
655,1.20e-01,4.00e-01,
656,1.16e-01,-2.25e-05,
657,1.16e-01,4.00e-01,
658,1.16e-01,6.00e-01,
659,1.20e-01,4.00e-01,
660,1.20e-01,-2.25e-05,
661,1.16e-01,4.00e-01,
662,1.16e-01,4.00e-01,
663,1.20e-01,4.00e-01,
664,1.16e-01,-2.25e-05,
665,1.20e-01,4.00e-01,
666,1.16e-01,6.00e-01,
667,1.20e-01,4.00e-01,
668,1.16e-01,4.00e-01,
669,1.16e-01,4.00e-01,
670,1.20e-01,4.00e-01,
671,1.24e-01,4.00e-01,
672,1.16e-01,-2.25e-05,
673,1.16e-01,4.00e-01,
674,1.16e-01,4.00e-01,
675,1.24e-01,4.00e-01,
676,1.20e-01,4.00e-01,
677,1.20e-01,4.00e-01,
678,1.16e-01,4.00e-01,
679,1.20e-01,4.00e-01,
680,1.20e-01,-2.25e-05,
681,1.20e-01,4.00e-01,
682,1.20e-01,6.00e-01,
683,1.20e-01,4.00e-01,
684,1.16e-01,-2.25e-05,
685,1.20e-01,4.00e-01,
686,1.20e-01,4.00e-01,
687,1.24e-01,4.00e-01,
688,1.20e-01,-2.25e-05,
689,1.20e-01,4.00e-01,
690,1.20e-01,4.00e-01,
691,1.24e-01,4.00e-01,
692,1.20e-01,-2.25e-05,
693,1.16e-01,4.00e-01,
694,1.16e-01,4.00e-01,
695,1.24e-01,4.00e-01,
696,1.20e-01,-2.25e-05,
697,1.20e-01,4.00e-01,
698,1.16e-01,4.00e-01,
699,1.24e-01,4.00e-01,
700,1.20e-01,-2.25e-05,
701,1.20e-01,4.00e-01,
702,1.20e-01,4.00e-01,
703,1.24e-01,4.00e-01,
704,1.20e-01,-2.25e-05,
705,1.24e-01,4.00e-01,
706,1.20e-01,6.00e-01,
707,1.28e-01,4.00e-01,
708,1.20e-01,-2.25e-05,
709,1.20e-01,4.00e-01,
710,1.20e-01,4.00e-01,
711,1.28e-01,4.00e-01,
712,1.24e-01,4.00e-01,
713,1.24e-01,4.00e-01,
714,1.20e-01,4.00e-01,
715,1.28e-01,4.00e-01,
716,1.20e-01,-2.25e-05,
717,1.24e-01,4.00e-01,
718,1.24e-01,4.00e-01,
719,1.28e-01,4.00e-01,
720,1.20e-01,-2.25e-05,
721,1.24e-01,4.00e-01,
722,1.20e-01,6.00e-01,
723,1.28e-01,4.00e-01,
724,1.24e-01,-2.25e-05,
725,1.24e-01,4.00e-01,
726,1.24e-01,6.00e-01,
727,1.28e-01,4.00e-01,
728,1.24e-01,-2.25e-05,
729,1.24e-01,4.00e-01,
730,1.20e-01,4.00e-01,
731,1.28e-01,4.00e-01,
732,1.24e-01,-2.25e-05,
733,1.24e-01,4.00e-01,
734,1.24e-01,4.00e-01,
735,1.28e-01,4.00e-01,
736,1.24e-01,-2.25e-05,
737,1.28e-01,4.00e-01,
738,1.24e-01,6.00e-01,
739,1.28e-01,4.00e-01,
740,1.20e-01,-2.25e-05,
741,1.24e-01,6.00e-01,
742,1.24e-01,4.00e-01,
743,1.32e-01,6.00e-01,
744,1.24e-01,-2.25e-05,
745,1.24e-01,4.00e-01,
746,1.20e-01,6.00e-01,
747,1.32e-01,4.00e-01,
748,1.24e-01,4.00e-01,
749,1.24e-01,4.00e-01,
750,1.24e-01,4.00e-01,
751,1.28e-01,4.00e-01,
752,1.24e-01,-2.25e-05,
753,1.24e-01,4.00e-01,
754,1.24e-01,4.00e-01,
755,1.28e-01,4.00e-01,
756,1.24e-01,4.00e-01,
757,1.28e-01,-2.25e-05,
758,1.24e-01,6.00e-01,
759,1.32e-01,4.00e-01,
760,1.28e-01,-2.25e-05,
761,1.24e-01,4.00e-01,
762,1.28e-01,6.00e-01,
763,1.32e-01,4.00e-01,
764,1.28e-01,4.00e-01,
765,1.28e-01,4.00e-01,
766,1.24e-01,6.00e-01,
767,1.28e-01,4.00e-01,
768,1.20e-01,-2.00e-01,
769,1.08e-01,6.00e-01,
770,9.20e-02,4.00e-01,
771,6.40e-02,4.00e-01,
772,4.40e-02,-2.25e-05,
773,3.60e-02,-2.00e-01,
774,3.60e-02,4.00e-01,
775,4.80e-02,-2.25e-05,
776,5.60e-02,-2.25e-05,
777,7.60e-02,4.00e-01,
778,9.20e-02,4.00e-01,
779,1.04e-01,4.00e-01,
780,1.04e-01,-2.25e-05,
781,1.04e-01,4.00e-01,
782,1.08e-01,-2.25e-05,
783,1.12e-01,4.00e-01,
784,1.08e-01,-2.25e-05,
785,1.08e-01,4.00e-01,
786,1.04e-01,6.00e-01,
787,1.08e-01,4.00e-01,
788,1.04e-01,-2.25e-05,
789,1.08e-01,4.00e-01,
790,1.08e-01,4.00e-01,
791,1.16e-01,4.00e-01,
792,1.12e-01,-2.25e-05,
793,1.16e-01,4.00e-01,
794,1.16e-01,4.00e-01,
795,1.16e-01,4.00e-01,
796,1.12e-01,4.00e-01,
797,1.12e-01,4.00e-01,
798,1.12e-01,4.00e-01,
799,1.16e-01,4.00e-01,
800,1.12e-01,-2.25e-05,
801,1.16e-01,4.00e-01,
802,1.16e-01,4.00e-01,
803,1.24e-01,4.00e-01,
804,1.20e-01,-2.25e-05,
805,1.16e-01,4.00e-01,
806,1.16e-01,4.00e-01,
807,1.20e-01,4.00e-01,
808,1.16e-01,4.00e-01,
809,1.16e-01,4.00e-01,
810,1.16e-01,4.00e-01,
811,1.20e-01,4.00e-01,
812,1.16e-01,-2.25e-05,
813,1.20e-01,4.00e-01,
814,1.20e-01,4.00e-01,
815,1.24e-01,6.00e-01,
816,1.20e-01,4.00e-01,
817,1.20e-01,4.00e-01,
818,1.20e-01,6.00e-01,
819,1.24e-01,4.00e-01,
820,1.16e-01,-2.25e-05,
821,1.16e-01,4.00e-01,
822,1.20e-01,4.00e-01,
823,1.28e-01,4.00e-01,
824,1.24e-01,-2.25e-05,
825,1.24e-01,4.00e-01,
826,1.24e-01,6.00e-01,
827,1.28e-01,4.00e-01,
828,1.24e-01,-2.25e-05,
829,1.20e-01,4.00e-01,
830,1.20e-01,4.00e-01,
831,1.28e-01,6.00e-01,
832,1.20e-01,-2.25e-05,
833,1.24e-01,4.00e-01,
834,1.24e-01,4.00e-01,
835,1.32e-01,4.00e-01,
836,1.24e-01,-2.25e-05,
837,1.24e-01,4.00e-01,
838,1.24e-01,4.00e-01,
839,1.28e-01,6.00e-01,
840,1.24e-01,-2.25e-05,
841,1.24e-01,4.00e-01,
842,1.24e-01,4.00e-01,
843,1.28e-01,4.00e-01,
844,1.28e-01,4.00e-01,
845,1.28e-01,4.00e-01,
846,1.24e-01,4.00e-01,
847,1.28e-01,4.00e-01,
848,1.28e-01,-2.25e-05,
849,1.28e-01,4.00e-01,
850,1.28e-01,6.00e-01,
851,1.28e-01,4.00e-01,
852,1.24e-01,-2.25e-05,
853,1.28e-01,4.00e-01,
854,1.28e-01,4.00e-01,
855,1.36e-01,4.00e-01,
856,1.28e-01,-2.25e-05,
857,1.28e-01,4.00e-01,
858,1.28e-01,6.00e-01,
859,1.36e-01,4.00e-01,
860,1.32e-01,-2.25e-05,
