Lab9/data2/off1_7.csv

X,CH1,CH2,Start,Increment,
Sequence,Volt,Volt,-4.190000e-05,2.000000e-09
0,8.00e-02,4.00e-01,
1,8.40e-02,4.00e-01,
2,8.00e-02,-2.25e-05,
3,8.40e-02,4.00e-01,
4,8.40e-02,4.00e-01,
5,8.40e-02,4.00e-01,
6,8.00e-02,-2.25e-05,
7,8.40e-02,4.00e-01,
8,8.40e-02,6.00e-01,
9,9.20e-02,4.00e-01,
10,8.40e-02,-2.25e-05,
11,8.00e-02,4.00e-01,
12,8.00e-02,4.00e-01,
13,9.20e-02,4.00e-01,
14,8.40e-02,-2.25e-05,
15,8.40e-02,4.00e-01,
16,8.40e-02,6.00e-01,
17,9.20e-02,4.00e-01,
18,8.40e-02,-2.25e-05,
19,8.40e-02,4.00e-01,
20,8.40e-02,4.00e-01,
21,9.20e-02,4.00e-01,
22,8.40e-02,-2.25e-05,
23,8.40e-02,4.00e-01,
24,8.40e-02,4.00e-01,
25,9.60e-02,4.00e-01,
26,8.40e-02,-2.25e-05,
27,8.40e-02,4.00e-01,
28,8.40e-02,4.00e-01,
29,9.20e-02,4.00e-01,
30,8.40e-02,-2.25e-05,
31,9.20e-02,4.00e-01,
32,8.40e-02,6.00e-01,
33,9.20e-02,4.00e-01,
34,8.40e-02,-2.25e-05,
35,8.40e-02,4.00e-01,
36,8.40e-02,4.00e-01,
37,9.20e-02,4.00e-01,
38,8.40e-02,-2.25e-05,
39,8.40e-02,4.00e-01,
40,8.40e-02,4.00e-01,
41,9.20e-02,4.00e-01,
42,8.40e-02,4.00e-01,
43,8.40e-02,4.00e-01,
44,8.40e-02,4.00e-01,
45,9.20e-02,4.00e-01,
46,8.40e-02,-2.25e-05,
47,9.20e-02,4.00e-01,
48,9.20e-02,4.00e-01,
49,9.60e-02,4.00e-01,
50,8.40e-02,-2.25e-05,
51,9.20e-02,4.00e-01,
52,9.20e-02,4.00e-01,
53,9.60e-02,4.00e-01,
54,9.20e-02,-2.25e-05,
55,9.20e-02,4.00e-01,
56,9.20e-02,4.00e-01,
57,9.60e-02,4.00e-01,
58,9.20e-02,-2.25e-05,
59,9.20e-02,4.00e-01,
60,9.20e-02,4.00e-01,
61,9.60e-02,4.00e-01,
62,9.20e-02,-2.25e-05,
63,9.20e-02,4.00e-01,
64,9.20e-02,6.00e-01,
65,9.60e-02,4.00e-01,
66,9.20e-02,-2.25e-05,
67,9.20e-02,-2.25e-05,
68,9.20e-02,4.00e-01,
69,9.60e-02,4.00e-01,
70,9.20e-02,-2.25e-05,
71,9.20e-02,4.00e-01,
72,9.20e-02,4.00e-01,
73,9.60e-02,4.00e-01,
74,9.20e-02,-2.25e-05,
75,9.20e-02,-2.25e-05,
76,9.20e-02,6.00e-01,
77,9.60e-02,4.00e-01,
78,9.20e-02,-2.25e-05,
79,9.20e-02,4.00e-01,
80,9.20e-02,4.00e-01,
81,9.60e-02,4.00e-01,
82,9.20e-02,-2.25e-05,
83,9.60e-02,4.00e-01,
84,9.20e-02,4.00e-01,
85,9.60e-02,4.00e-01,
86,9.20e-02,-2.25e-05,
87,9.20e-02,-2.25e-05,
88,9.20e-02,4.00e-01,
89,1.00e-01,4.00e-01,
90,9.60e-02,-2.25e-05,
91,9.60e-02,-2.25e-05,
92,9.20e-02,4.00e-01,
93,9.60e-02,4.00e-01,
94,9.60e-02,-2.25e-05,
95,9.60e-02,-2.25e-05,
96,9.60e-02,4.00e-01,
97,9.60e-02,4.00e-01,
98,9.60e-02,-2.25e-05,
99,9.60e-02,4.00e-01,
100,9.60e-02,4.00e-01,
101,1.00e-01,6.00e-01,
102,9.20e-02,-2.25e-05,
103,9.60e-02,-2.25e-05,
104,9.60e-02,6.00e-01,
105,1.00e-01,4.00e-01,
106,9.60e-02,-2.25e-05,
107,9.60e-02,4.00e-01,
108,9.60e-02,4.00e-01,
109,1.00e-01,4.00e-01,
110,9.60e-02,-2.25e-05,
111,9.60e-02,4.00e-01,
112,9.20e-02,4.00e-01,
113,1.00e-01,4.00e-01,
114,1.00e-01,-2.25e-05,
115,1.00e-01,4.00e-01,
116,9.60e-02,4.00e-01,
117,1.00e-01,4.00e-01,
118,9.60e-02,-2.25e-05,
119,1.00e-01,4.00e-01,
120,1.00e-01,4.00e-01,
121,1.00e-01,4.00e-01,
122,9.60e-02,-2.25e-05,
123,1.00e-01,4.00e-01,
124,9.60e-02,4.00e-01,
125,1.00e-01,6.00e-01,
126,1.00e-01,-2.25e-05,
127,1.00e-01,4.00e-01,
128,9.60e-02,4.00e-01,
129,1.04e-01,4.00e-01,
130,1.00e-01,4.00e-01,
131,1.00e-01,-2.25e-05,
132,1.00e-01,4.00e-01,
133,1.00e-01,4.00e-01,
134,9.60e-02,-2.25e-05,
135,1.00e-01,-2.25e-05,
136,9.60e-02,6.00e-01,
137,1.04e-01,4.00e-01,
138,9.60e-02,-2.25e-05,
139,1.00e-01,4.00e-01,
140,9.60e-02,4.00e-01,
141,1.00e-01,4.00e-01,
142,1.00e-01,-2.25e-05,
143,1.00e-01,-2.25e-05,
144,1.00e-01,4.00e-01,
145,1.04e-01,4.00e-01,
146,1.00e-01,-2.25e-05,
147,1.00e-01,4.00e-01,
148,1.00e-01,4.00e-01,
149,1.04e-01,4.00e-01,
150,1.00e-01,-2.25e-05,
151,1.00e-01,4.00e-01,
152,1.00e-01,6.00e-01,
153,1.04e-01,4.00e-01,
154,1.00e-01,-2.25e-05,
155,1.00e-01,4.00e-01,
156,1.00e-01,4.00e-01,
157,1.04e-01,4.00e-01,
158,1.00e-01,-2.25e-05,
159,1.00e-01,4.00e-01,
160,1.00e-01,4.00e-01,
161,1.04e-01,4.00e-01,
162,1.00e-01,-2.25e-05,
163,1.04e-01,4.00e-01,
164,1.00e-01,4.00e-01,
165,1.04e-01,4.00e-01,
166,1.00e-01,-2.25e-05,
167,1.04e-01,4.00e-01,
168,1.00e-01,4.00e-01,
169,1.04e-01,4.00e-01,
170,1.00e-01,4.00e-01,
171,1.04e-01,-2.25e-05,
172,1.00e-01,6.00e-01,
173,1.04e-01,4.00e-01,
174,1.04e-01,-2.25e-05,
175,1.00e-01,6.00e-01,
176,1.04e-01,4.00e-01,
177,1.08e-01,4.00e-01,
178,1.00e-01,4.00e-01,
179,1.00e-01,-2.25e-05,
180,1.00e-01,4.00e-01,
181,1.08e-01,4.00e-01,
182,1.04e-01,-2.25e-05,
183,1.04e-01,4.00e-01,
184,1.00e-01,4.00e-01,
185,1.08e-01,4.00e-01,
186,1.04e-01,-2.25e-05,
187,1.08e-01,4.00e-01,
188,1.04e-01,6.00e-01,
189,1.04e-01,4.00e-01,
190,1.04e-01,-2.25e-05,
191,1.08e-01,4.00e-01,
192,1.04e-01,6.00e-01,
193,1.12e-01,4.00e-01,
194,1.04e-01,-2.25e-05,
195,1.04e-01,4.00e-01,
196,1.04e-01,4.00e-01,
197,1.12e-01,4.00e-01,
198,1.04e-01,-2.25e-05,
199,1.04e-01,4.00e-01,
200,1.04e-01,4.00e-01,
201,1.08e-01,4.00e-01,
202,1.04e-01,-2.25e-05,
203,1.04e-01,4.00e-01,
204,1.04e-01,4.00e-01,
205,1.08e-01,4.00e-01,
206,1.08e-01,-2.25e-05,
207,1.08e-01,4.00e-01,
208,1.04e-01,4.00e-01,
209,1.08e-01,4.00e-01,
210,1.04e-01,-2.25e-05,
211,1.08e-01,4.00e-01,
212,1.08e-01,6.00e-01,
213,1.08e-01,4.00e-01,
214,1.04e-01,-2.25e-05,
215,1.04e-01,4.00e-01,
216,1.08e-01,4.00e-01,
217,1.12e-01,4.00e-01,
218,1.08e-01,4.00e-01,
219,1.04e-01,4.00e-01,
220,1.04e-01,4.00e-01,
221,1.12e-01,4.00e-01,
222,1.08e-01,-2.25e-05,
223,1.08e-01,-2.25e-05,
224,1.04e-01,4.00e-01,
225,1.12e-01,4.00e-01,
226,1.08e-01,-2.25e-05,
227,1.08e-01,4.00e-01,
228,1.08e-01,4.00e-01,
229,1.12e-01,4.00e-01,
230,1.08e-01,-2.25e-05,
231,1.08e-01,-2.25e-05,
232,1.08e-01,4.00e-01,
233,1.12e-01,4.00e-01,
234,1.04e-01,-2.25e-05,
235,1.08e-01,-2.25e-05,
236,1.12e-01,4.00e-01,
237,1.12e-01,4.00e-01,
238,1.08e-01,-2.25e-05,
239,1.08e-01,4.00e-01,
240,1.08e-01,6.00e-01,
241,1.12e-01,6.00e-01,
242,1.08e-01,-2.25e-05,
243,1.08e-01,4.00e-01,
244,1.08e-01,4.00e-01,
245,1.12e-01,4.00e-01,
246,1.08e-01,-2.25e-05,
247,1.12e-01,4.00e-01,
248,1.08e-01,4.00e-01,
249,1.12e-01,4.00e-01,
250,1.08e-01,-2.25e-05,
251,1.08e-01,4.00e-01,
252,1.12e-01,4.00e-01,
253,1.16e-01,4.00e-01,
254,1.08e-01,-2.25e-05,
255,1.08e-01,4.00e-01,
256,1.08e-01,4.00e-01,
257,1.16e-01,4.00e-01,
258,1.12e-01,4.00e-01,
259,1.12e-01,4.00e-01,
260,1.08e-01,4.00e-01,
261,1.12e-01,4.00e-01,
262,1.12e-01,-2.25e-05,
263,1.12e-01,4.00e-01,
264,1.08e-01,6.00e-01,
265,1.12e-01,4.00e-01,
266,1.08e-01,4.00e-01,
267,1.12e-01,4.00e-01,
268,1.12e-01,4.00e-01,
269,1.16e-01,4.00e-01,
270,1.12e-01,-2.25e-05,
271,1.12e-01,4.00e-01,
272,1.12e-01,4.00e-01,
273,1.16e-01,4.00e-01,
274,1.12e-01,-2.25e-05,
275,1.08e-01,4.00e-01,
276,1.12e-01,4.00e-01,
277,1.12e-01,-2.25e-05,
278,1.12e-01,-2.25e-05,
279,1.16e-01,4.00e-01,
280,1.12e-01,4.00e-01,
281,1.16e-01,4.00e-01,
282,1.08e-01,-2.25e-05,
283,1.12e-01,4.00e-01,
284,1.12e-01,4.00e-01,
285,1.16e-01,4.00e-01,
286,1.12e-01,-2.25e-05,
287,1.12e-01,4.00e-01,
288,1.12e-01,4.00e-01,
289,1.20e-01,4.00e-01,
290,1.12e-01,-2.25e-05,
291,1.12e-01,-2.25e-05,
292,1.12e-01,4.00e-01,
293,1.16e-01,4.00e-01,
294,1.16e-01,-2.25e-05,
295,1.16e-01,4.00e-01,
296,1.12e-01,6.00e-01,
297,1.20e-01,4.00e-01,
298,1.16e-01,-2.25e-05,
299,1.16e-01,4.00e-01,
300,1.16e-01,4.00e-01,
301,1.16e-01,4.00e-01,
302,1.12e-01,-2.25e-05,
303,1.16e-01,-2.25e-05,
304,1.16e-01,4.00e-01,
305,1.20e-01,4.00e-01,
306,1.12e-01,-2.25e-05,
307,1.16e-01,4.00e-01,
308,1.16e-01,4.00e-01,
309,1.20e-01,4.00e-01,
310,1.16e-01,-2.25e-05,
311,1.16e-01,4.00e-01,
312,1.12e-01,4.00e-01,
313,1.20e-01,4.00e-01,
314,1.16e-01,-2.25e-05,
315,1.16e-01,4.00e-01,
316,1.16e-01,4.00e-01,
317,1.20e-01,4.00e-01,
318,1.16e-01,-2.25e-05,
319,1.16e-01,4.00e-01,
320,1.16e-01,4.00e-01,
321,1.20e-01,4.00e-01,
322,1.16e-01,-2.25e-05,
323,1.16e-01,4.00e-01,
324,1.16e-01,4.00e-01,
325,1.20e-01,6.00e-01,
326,1.16e-01,-2.25e-05,
327,1.16e-01,4.00e-01,
328,1.20e-01,4.00e-01,
329,1.20e-01,6.00e-01,
330,1.16e-01,-2.25e-05,
331,1.16e-01,4.00e-01,
332,1.16e-01,4.00e-01,
333,1.24e-01,4.00e-01,
334,1.16e-01,-2.25e-05,
335,1.16e-01,-2.25e-05,
336,1.16e-01,6.00e-01,
337,1.20e-01,4.00e-01,
338,1.20e-01,-2.25e-05,
339,1.20e-01,4.00e-01,
340,1.16e-01,4.00e-01,
341,1.20e-01,4.00e-01,
342,1.16e-01,-2.25e-05,
343,1.20e-01,4.00e-01,
344,1.16e-01,6.00e-01,
345,1.20e-01,4.00e-01,
346,1.16e-01,4.00e-01,
347,1.20e-01,4.00e-01,
348,1.20e-01,4.00e-01,
349,1.20e-01,4.00e-01,
350,1.16e-01,-2.25e-05,
351,1.20e-01,-2.25e-05,
352,1.20e-01,6.00e-01,
353,1.24e-01,4.00e-01,
354,1.16e-01,-2.25e-05,
355,1.16e-01,4.00e-01,
356,1.20e-01,4.00e-01,
357,1.20e-01,4.00e-01,
358,1.20e-01,-2.25e-05,
359,1.20e-01,4.00e-01,
360,1.20e-01,6.00e-01,
361,1.24e-01,4.00e-01,
362,1.20e-01,4.00e-01,
363,1.24e-01,4.00e-01,
364,1.20e-01,6.00e-01,
365,1.24e-01,4.00e-01,
366,1.16e-01,-2.25e-05,
367,1.20e-01,4.00e-01,
368,1.20e-01,4.00e-01,
369,1.24e-01,4.00e-01,
370,1.20e-01,-2.25e-05,
371,1.20e-01,-2.25e-05,
372,1.20e-01,6.00e-01,
373,1.24e-01,4.00e-01,
374,1.24e-01,-2.00e-01,
375,1.20e-01,6.00e-01,
376,1.20e-01,4.00e-01,
377,1.24e-01,4.00e-01,
378,1.20e-01,-2.25e-05,
379,1.24e-01,4.00e-01,
380,1.20e-01,4.00e-01,
381,1.24e-01,4.00e-01,
382,1.20e-01,-2.25e-05,
383,1.24e-01,4.00e-01,
384,1.24e-01,4.00e-01,
385,1.28e-01,4.00e-01,
386,1.20e-01,-2.25e-05,
387,1.20e-01,4.00e-01,
388,1.24e-01,4.00e-01,
389,1.28e-01,4.00e-01,
390,1.24e-01,-2.25e-05,
391,1.24e-01,4.00e-01,
392,1.20e-01,6.00e-01,
393,1.28e-01,4.00e-01,
394,1.24e-01,-2.25e-05,
395,1.24e-01,4.00e-01,
396,1.24e-01,4.00e-01,
397,1.28e-01,4.00e-01,
398,1.24e-01,-2.25e-05,
399,1.24e-01,-2.25e-05,
400,1.24e-01,6.00e-01,
401,1.28e-01,4.00e-01,
402,1.24e-01,-2.25e-05,
403,1.24e-01,4.00e-01,
404,1.24e-01,4.00e-01,
405,1.28e-01,4.00e-01,
406,1.24e-01,-2.25e-05,
407,1.24e-01,4.00e-01,
408,1.24e-01,4.00e-01,
409,1.28e-01,6.00e-01,
410,1.28e-01,-2.25e-05,
411,1.28e-01,4.00e-01,
412,1.24e-01,4.00e-01,
413,1.28e-01,4.00e-01,
414,1.24e-01,-2.25e-05,
415,1.28e-01,4.00e-01,
416,1.24e-01,6.00e-01,
417,1.32e-01,4.00e-01,
418,1.24e-01,-2.25e-05,
419,1.24e-01,4.00e-01,
420,1.28e-01,4.00e-01,
421,1.32e-01,4.00e-01,
422,1.24e-01,-2.25e-05,
423,1.28e-01,4.00e-01,
424,1.24e-01,6.00e-01,
425,1.28e-01,4.00e-01,
426,1.28e-01,-2.25e-05,
427,1.28e-01,4.00e-01,
428,1.28e-01,4.00e-01,
429,1.32e-01,4.00e-01,
430,1.24e-01,-2.25e-05,
431,1.28e-01,4.00e-01,
432,1.24e-01,6.00e-01,
433,1.32e-01,4.00e-01,
434,1.24e-01,-2.25e-05,
435,1.28e-01,4.00e-01,
436,1.24e-01,4.00e-01,
437,1.32e-01,4.00e-01,
438,1.28e-01,-2.25e-05,
439,1.28e-01,4.00e-01,
440,1.28e-01,4.00e-01,
441,1.32e-01,4.00e-01,
442,1.24e-01,4.00e-01,
443,1.28e-01,4.00e-01,
444,1.28e-01,4.00e-01,
445,1.32e-01,4.00e-01,
446,1.28e-01,-2.25e-05,
447,1.28e-01,4.00e-01,
448,1.24e-01,4.00e-01,
449,1.32e-01,6.00e-01,
450,1.28e-01,-2.25e-05,
451,1.32e-01,4.00e-01,
452,1.28e-01,4.00e-01,
453,1.32e-01,4.00e-01,
454,1.28e-01,-2.25e-05,
455,1.32e-01,4.00e-01,
456,1.32e-01,4.00e-01,
457,1.32e-01,4.00e-01,
458,1.28e-01,-2.25e-05,
459,1.28e-01,4.00e-01,
460,1.32e-01,4.00e-01,
461,1.32e-01,4.00e-01,
462,1.28e-01,-2.25e-05,
463,1.32e-01,4.00e-01,
464,1.28e-01,4.00e-01,
465,1.36e-01,4.00e-01,
466,1.28e-01,-2.25e-05,
467,1.28e-01,4.00e-01,
468,1.28e-01,6.00e-01,
469,1.32e-01,4.00e-01,
470,1.32e-01,-2.25e-05,
471,1.32e-01,4.00e-01,
472,1.28e-01,6.00e-01,
473,1.32e-01,4.00e-01,
474,1.28e-01,-2.25e-05,
475,1.32e-01,4.00e-01,
476,1.32e-01,4.00e-01,
477,1.32e-01,4.00e-01,
478,1.28e-01,-2.25e-05,
479,1.32e-01,4.00e-01,
480,1.28e-01,4.00e-01,
481,1.36e-01,4.00e-01,
482,1.28e-01,-2.25e-05,
483,1.32e-01,4.00e-01,
484,1.28e-01,4.00e-01,
485,1.36e-01,4.00e-01,
486,1.32e-01,4.00e-01,
487,1.32e-01,4.00e-01,
488,1.32e-01,6.00e-01,
489,1.36e-01,4.00e-01,
490,1.32e-01,-2.25e-05,
491,1.32e-01,4.00e-01,
492,1.32e-01,4.00e-01,
493,1.36e-01,4.00e-01,
494,1.32e-01,-2.25e-05,
495,1.32e-01,4.00e-01,
496,1.32e-01,6.00e-01,
497,1.40e-01,4.00e-01,
498,1.32e-01,-2.25e-05,
499,1.32e-01,4.00e-01,
500,1.32e-01,6.00e-01,
501,1.36e-01,4.00e-01,
502,1.32e-01,-2.25e-05,
503,1.32e-01,4.00e-01,
504,1.32e-01,6.00e-01,
505,1.36e-01,4.00e-01,
506,1.32e-01,-2.25e-05,
507,1.32e-01,4.00e-01,
508,1.32e-01,4.00e-01,
509,1.36e-01,4.00e-01,
510,1.32e-01,-2.25e-05,
511,1.36e-01,4.00e-01,
512,1.32e-01,6.00e-01,
513,1.40e-01,4.00e-01,
514,1.32e-01,-2.25e-05,
515,1.36e-01,4.00e-01,
516,1.32e-01,4.00e-01,
517,1.40e-01,4.00e-01,
518,1.32e-01,-2.25e-05,
519,1.36e-01,4.00e-01,
520,1.32e-01,4.00e-01,
521,1.40e-01,4.00e-01,
522,1.36e-01,4.00e-01,
523,1.32e-01,4.00e-01,
524,1.32e-01,4.00e-01,
525,1.40e-01,6.00e-01,
526,1.36e-01,-2.25e-05,
527,1.40e-01,4.00e-01,
528,1.36e-01,6.00e-01,
529,1.40e-01,4.00e-01,
530,1.32e-01,-2.25e-05,
531,1.36e-01,4.00e-01,
532,1.36e-01,6.00e-01,
533,1.40e-01,4.00e-01,
534,1.36e-01,-2.25e-05,
535,1.36e-01,4.00e-01,
536,1.36e-01,6.00e-01,
537,1.40e-01,4.00e-01,
538,1.36e-01,-2.25e-05,
539,1.36e-01,4.00e-01,
540,1.36e-01,6.00e-01,
541,1.40e-01,4.00e-01,
542,1.36e-01,-2.25e-05,
543,1.40e-01,4.00e-01,
544,1.36e-01,4.00e-01,
545,1.40e-01,4.00e-01,
546,1.36e-01,-2.25e-05,
547,1.40e-01,4.00e-01,
548,1.36e-01,4.00e-01,
549,1.44e-01,4.00e-01,
550,1.36e-01,-2.25e-05,
551,1.36e-01,-2.25e-05,
552,1.36e-01,6.00e-01,
553,1.44e-01,4.00e-01,
554,1.36e-01,-2.25e-05,
555,1.40e-01,4.00e-01,
556,1.36e-01,4.00e-01,
557,1.40e-01,4.00e-01,
558,1.36e-01,-2.25e-05,
559,1.40e-01,4.00e-01,
560,1.36e-01,6.00e-01,
561,1.44e-01,6.00e-01,
562,1.40e-01,4.00e-01,
563,1.40e-01,4.00e-01,
564,1.36e-01,6.00e-01,
565,1.40e-01,6.00e-01,
566,1.40e-01,-2.25e-05,
567,1.40e-01,4.00e-01,
568,1.40e-01,6.00e-01,
569,1.44e-01,4.00e-01,
570,1.36e-01,4.00e-01,
571,1.40e-01,-2.25e-05,
572,1.40e-01,6.00e-01,
573,1.44e-01,6.00e-01,
574,1.40e-01,-2.00e-01,
575,1.36e-01,6.00e-01,
576,1.40e-01,4.00e-01,
577,1.44e-01,4.00e-01,
578,1.40e-01,4.00e-01,
579,1.40e-01,4.00e-01,
580,1.36e-01,4.00e-01,
581,1.44e-01,6.00e-01,
582,1.40e-01,-2.25e-05,
583,1.44e-01,4.00e-01,
584,1.40e-01,6.00e-01,
585,1.44e-01,4.00e-01,
586,1.40e-01,-2.25e-05,
587,1.44e-01,4.00e-01,
588,1.40e-01,4.00e-01,
589,1.44e-01,4.00e-01,
590,1.40e-01,-2.25e-05,
591,1.44e-01,-2.25e-05,
592,1.40e-01,6.00e-01,
593,1.48e-01,4.00e-01,
594,1.40e-01,-2.25e-05,
595,1.40e-01,4.00e-01,
596,1.40e-01,4.00e-01,
597,1.48e-01,6.00e-01,
598,1.44e-01,4.00e-01,
599,1.44e-01,4.00e-01,
600,1.40e-01,4.00e-01,
601,1.44e-01,4.00e-01,
602,1.40e-01,-2.25e-05,
603,1.44e-01,4.00e-01,
604,1.44e-01,6.00e-01,
605,1.48e-01,4.00e-01,
606,1.40e-01,-2.25e-05,
607,1.44e-01,4.00e-01,
608,1.40e-01,4.00e-01,
609,1.48e-01,4.00e-01,
610,1.44e-01,4.00e-01,
611,1.44e-01,4.00e-01,
612,1.44e-01,4.00e-01,
613,1.48e-01,4.00e-01,
614,1.44e-01,-2.25e-05,
615,1.44e-01,4.00e-01,
616,1.40e-01,6.00e-01,
617,1.52e-01,4.00e-01,
618,1.44e-01,4.00e-01,
619,1.44e-01,4.00e-01,
620,1.44e-01,4.00e-01,
621,1.48e-01,4.00e-01,
622,1.44e-01,-2.25e-05,
623,1.44e-01,4.00e-01,
624,1.40e-01,6.00e-01,
625,1.48e-01,4.00e-01,
626,1.44e-01,-2.25e-05,
627,1.48e-01,4.00e-01,
628,1.44e-01,4.00e-01,
629,1.48e-01,6.00e-01,
630,1.40e-01,-2.25e-05,
631,1.44e-01,4.00e-01,
632,1.44e-01,6.00e-01,
633,1.48e-01,4.00e-01,
634,1.44e-01,4.00e-01,
635,1.44e-01,4.00e-01,
636,1.44e-01,4.00e-01,
637,1.48e-01,4.00e-01,
638,1.44e-01,-2.25e-05,
639,1.44e-01,4.00e-01,
640,1.44e-01,6.00e-01,
641,1.52e-01,4.00e-01,
642,1.48e-01,-2.25e-05,
643,1.48e-01,4.00e-01,
644,1.44e-01,4.00e-01,
645,1.48e-01,4.00e-01,
646,1.48e-01,-2.25e-05,
647,1.48e-01,4.00e-01,
648,1.44e-01,6.00e-01,
649,1.52e-01,4.00e-01,
650,1.48e-01,-2.25e-05,
651,1.48e-01,4.00e-01,
652,1.48e-01,4.00e-01,
653,1.52e-01,4.00e-01,
654,1.48e-01,-2.25e-05,
655,1.48e-01,4.00e-01,
656,1.44e-01,6.00e-01,
657,1.48e-01,4.00e-01,
658,1.44e-01,-2.25e-05,
659,1.52e-01,4.00e-01,
660,1.48e-01,4.00e-01,
661,1.52e-01,4.00e-01,
662,1.44e-01,4.00e-01,
663,1.48e-01,4.00e-01,
664,1.48e-01,4.00e-01,
665,1.56e-01,4.00e-01,
666,1.48e-01,-2.25e-05,
667,1.48e-01,4.00e-01,
668,1.44e-01,4.00e-01,
669,1.52e-01,4.00e-01,
670,1.48e-01,-2.25e-05,
671,1.52e-01,4.00e-01,
672,1.44e-01,6.00e-01,
673,1.52e-01,4.00e-01,
674,1.48e-01,-2.25e-05,
675,1.52e-01,4.00e-01,
676,1.48e-01,4.00e-01,
677,1.52e-01,6.00e-01,
678,1.48e-01,-2.25e-05,
679,1.52e-01,4.00e-01,
680,1.48e-01,6.00e-01,
681,1.56e-01,4.00e-01,
682,1.48e-01,4.00e-01,
683,1.48e-01,4.00e-01,
684,1.48e-01,4.00e-01,
685,1.56e-01,6.00e-01,
686,1.52e-01,-2.25e-05,
687,1.48e-01,4.00e-01,
688,1.48e-01,6.00e-01,
689,1.56e-01,4.00e-01,
690,1.52e-01,-2.25e-05,
691,1.52e-01,4.00e-01,
692,1.52e-01,6.00e-01,
693,1.52e-01,4.00e-01,
694,1.48e-01,-2.25e-05,
695,1.52e-01,4.00e-01,
696,1.48e-01,6.00e-01,
697,1.56e-01,6.00e-01,
698,1.48e-01,-2.25e-05,
699,1.52e-01,4.00e-01,
700,1.52e-01,4.00e-01,
701,1.56e-01,4.00e-01,
702,1.48e-01,-2.25e-05,
703,1.52e-01,4.00e-01,
704,1.52e-01,4.00e-01,
705,1.60e-01,4.00e-01,
706,1.48e-01,-2.25e-05,
707,1.48e-01,4.00e-01,
708,1.52e-01,4.00e-01,
709,1.56e-01,4.00e-01,
710,1.52e-01,-2.25e-05,
711,1.52e-01,4.00e-01,
712,1.48e-01,6.00e-01,
713,1.60e-01,4.00e-01,
714,1.52e-01,-2.25e-05,
715,1.52e-01,4.00e-01,
716,1.52e-01,4.00e-01,
717,1.56e-01,4.00e-01,
718,1.52e-01,-2.25e-05,
719,1.56e-01,4.00e-01,
720,1.52e-01,6.00e-01,
721,1.56e-01,4.00e-01,
722,1.48e-01,4.00e-01,
723,1.52e-01,4.00e-01,
724,1.56e-01,4.00e-01,
725,1.56e-01,6.00e-01,
726,1.52e-01,4.00e-01,
727,1.52e-01,4.00e-01,
728,1.52e-01,6.00e-01,
729,1.60e-01,4.00e-01,
730,1.56e-01,-2.25e-05,
731,1.56e-01,4.00e-01,
732,1.52e-01,4.00e-01,
733,1.60e-01,4.00e-01,
734,1.56e-01,-2.25e-05,
735,1.56e-01,4.00e-01,
736,1.52e-01,4.00e-01,
737,1.60e-01,4.00e-01,
738,1.56e-01,-2.25e-05,
739,1.56e-01,4.00e-01,
740,1.56e-01,6.00e-01,
741,1.60e-01,6.00e-01,
742,1.56e-01,-2.25e-05,
743,1.56e-01,4.00e-01,
744,1.56e-01,6.00e-01,
745,1.60e-01,6.00e-01,
746,1.56e-01,4.00e-01,
747,1.56e-01,4.00e-01,
748,1.56e-01,6.00e-01,
749,1.60e-01,4.00e-01,
750,1.56e-01,-2.25e-05,
751,1.60e-01,4.00e-01,
752,1.52e-01,6.00e-01,
753,1.64e-01,4.00e-01,
754,1.56e-01,-2.25e-05,
755,1.56e-01,4.00e-01,
756,1.56e-01,4.00e-01,
757,1.60e-01,4.00e-01,
758,1.56e-01,-2.25e-05,
759,1.56e-01,4.00e-01,
760,1.56e-01,6.00e-01,
761,1.60e-01,6.00e-01,
762,1.56e-01,4.00e-01,
763,1.56e-01,4.00e-01,
764,1.56e-01,6.00e-01,
765,1.64e-01,4.00e-01,
766,1.56e-01,-2.25e-05,
767,1.60e-01,4.00e-01,
768,1.56e-01,4.00e-01,
769,1.60e-01,4.00e-01,
770,1.52e-01,4.00e-01,
771,1.48e-01,4.00e-01,
772,1.28e-01,6.00e-01,
773,1.08e-01,6.00e-01,
774,8.40e-02,-2.00e-01,
775,6.80e-02,4.00e-01,
776,6.40e-02,-2.25e-05,
777,7.20e-02,-2.25e-05,
778,8.40e-02,-2.25e-05,
779,1.04e-01,-2.25e-05,
780,1.20e-01,4.00e-01,
781,1.36e-01,4.00e-01,
782,1.36e-01,-2.25e-05,
783,1.40e-01,4.00e-01,
784,1.36e-01,4.00e-01,
785,1.44e-01,4.00e-01,
786,1.40e-01,-2.25e-05,
787,1.36e-01,-2.25e-05,
788,1.36e-01,4.00e-01,
789,1.40e-01,4.00e-01,
790,1.36e-01,-2.25e-05,
791,1.40e-01,4.00e-01,
792,1.40e-01,6.00e-01,
793,1.48e-01,4.00e-01,
794,1.44e-01,4.00e-01,
795,1.48e-01,4.00e-01,
796,1.44e-01,4.00e-01,
797,1.48e-01,6.00e-01,
798,1.44e-01,-2.25e-05,
799,1.44e-01,4.00e-01,
800,1.40e-01,4.00e-01,
801,1.48e-01,4.00e-01,
802,1.44e-01,-2.25e-05,
803,1.48e-01,4.00e-01,
804,1.44e-01,4.00e-01,
805,1.52e-01,4.00e-01,
806,1.52e-01,4.00e-01,
807,1.52e-01,4.00e-01,
808,1.48e-01,6.00e-01,
809,1.52e-01,6.00e-01,
810,1.48e-01,4.00e-01,
811,1.48e-01,4.00e-01,
812,1.48e-01,4.00e-01,
813,1.52e-01,4.00e-01,
814,1.48e-01,-2.25e-05,
815,1.52e-01,4.00e-01,
816,1.52e-01,6.00e-01,
817,1.60e-01,4.00e-01,
818,1.52e-01,-2.25e-05,
819,1.52e-01,4.00e-01,
820,1.52e-01,6.00e-01,
821,1.56e-01,4.00e-01,
822,1.48e-01,4.00e-01,
823,1.52e-01,4.00e-01,
824,1.52e-01,6.00e-01,
825,1.60e-01,4.00e-01,
826,1.52e-01,4.00e-01,
827,1.52e-01,4.00e-01,
828,1.56e-01,4.00e-01,
829,1.60e-01,6.00e-01,
830,1.56e-01,-2.25e-05,
831,1.56e-01,4.00e-01,
832,1.52e-01,6.00e-01,
833,1.56e-01,4.00e-01,
834,1.52e-01,-2.25e-05,
835,1.56e-01,4.00e-01,
836,1.56e-01,4.00e-01,
837,1.60e-01,4.00e-01,
838,1.56e-01,-2.25e-05,
839,1.56e-01,4.00e-01,
840,1.60e-01,6.00e-01,
841,1.64e-01,4.00e-01,
842,1.56e-01,4.00e-01,
843,1.52e-01,4.00e-01,
844,1.52e-01,4.00e-01,
845,1.64e-01,4.00e-01,
846,1.56e-01,-2.25e-05,
847,1.56e-01,4.00e-01,
848,1.56e-01,4.00e-01,
849,1.60e-01,4.00e-01,
850,1.60e-01,-2.25e-05,
851,1.60e-01,4.00e-01,
852,1.56e-01,6.00e-01,
853,1.60e-01,6.00e-01,
854,1.56e-01,4.00e-01,
855,1.60e-01,4.00e-01,
856,1.56e-01,4.00e-01,
857,1.64e-01,4.00e-01,
858,1.60e-01,-2.25e-05,
859,1.60e-01,4.00e-01,
860,1.60e-01,6.00e-01,
861,1.68e-01,4.00e-01,
