Lab9/data2/off1_5.csv

X,CH1,CH2,Start,Increment,
Sequence,Volt,Volt,-5.240000e-05,2.000000e-09
0,0.00e+00,2.20e+01,
1,0.00e+00,2.20e+01,
2,-1.60e-02,2.20e+01,
3,0.00e+00,2.20e+01,
4,0.00e+00,2.20e+01,
5,0.00e+00,2.20e+01,
6,-1.60e-02,2.20e+01,
7,0.00e+00,2.20e+01,
8,0.00e+00,2.20e+01,
9,0.00e+00,2.20e+01,
10,-1.60e-02,2.20e+01,
11,-1.60e-02,2.20e+01,
12,0.00e+00,2.20e+01,
13,0.00e+00,2.20e+01,
14,-1.60e-02,2.20e+01,
15,-1.60e-02,2.20e+01,
16,-1.60e-02,2.20e+01,
17,0.00e+00,2.20e+01,
18,0.00e+00,2.20e+01,
19,0.00e+00,2.20e+01,
20,0.00e+00,2.20e+01,
21,-1.60e-02,2.20e+01,
22,-1.60e-02,2.20e+01,
23,0.00e+00,2.20e+01,
24,0.00e+00,2.20e+01,
25,0.00e+00,2.20e+01,
26,-1.60e-02,2.20e+01,
27,0.00e+00,2.20e+01,
28,0.00e+00,2.20e+01,
29,0.00e+00,2.20e+01,
30,-1.60e-02,2.20e+01,
31,-1.60e-02,2.20e+01,
32,0.00e+00,2.20e+01,
33,0.00e+00,2.20e+01,
34,0.00e+00,2.20e+01,
35,-1.60e-02,2.20e+01,
36,-1.60e-02,2.20e+01,
37,0.00e+00,2.20e+01,
38,0.00e+00,2.20e+01,
39,0.00e+00,2.20e+01,
40,-1.60e-02,2.20e+01,
41,0.00e+00,2.20e+01,
42,-1.60e-02,2.20e+01,
43,0.00e+00,2.20e+01,
44,0.00e+00,2.20e+01,
45,0.00e+00,2.20e+01,
46,0.00e+00,2.20e+01,
47,-1.60e-02,2.20e+01,
48,0.00e+00,2.20e+01,
49,0.00e+00,2.20e+01,
50,-1.60e-02,2.20e+01,
51,-1.60e-02,2.20e+01,
52,0.00e+00,2.20e+01,
53,0.00e+00,2.20e+01,
54,-1.60e-02,2.20e+01,
55,-1.60e-02,2.20e+01,
56,-1.60e-02,2.20e+01,
57,0.00e+00,2.20e+01,
58,0.00e+00,2.20e+01,
59,0.00e+00,2.20e+01,
60,0.00e+00,2.20e+01,
61,0.00e+00,2.20e+01,
62,-1.60e-02,2.20e+01,
63,0.00e+00,2.20e+01,
64,0.00e+00,2.20e+01,
65,0.00e+00,2.20e+01,
66,-1.60e-02,2.20e+01,
67,-1.60e-02,2.20e+01,
68,0.00e+00,2.20e+01,
69,0.00e+00,2.20e+01,
70,0.00e+00,2.20e+01,
71,-1.60e-02,2.20e+01,
72,-1.60e-02,2.20e+01,
73,0.00e+00,2.20e+01,
74,-1.60e-02,2.20e+01,
75,0.00e+00,2.20e+01,
76,0.00e+00,2.20e+01,
77,0.00e+00,2.20e+01,
78,-1.60e-02,2.20e+01,
79,0.00e+00,2.20e+01,
80,0.00e+00,2.20e+01,
81,0.00e+00,2.20e+01,
82,-1.60e-02,2.20e+01,
83,-1.60e-02,2.20e+01,
84,0.00e+00,2.20e+01,
85,0.00e+00,2.20e+01,
86,0.00e+00,2.20e+01,
87,-1.60e-02,2.20e+01,
88,-1.60e-02,2.20e+01,
89,-1.60e-02,2.20e+01,
90,-1.60e-02,2.20e+01,
91,0.00e+00,2.20e+01,
92,0.00e+00,2.20e+01,
93,0.00e+00,2.20e+01,
94,-1.60e-02,2.20e+01,
95,0.00e+00,2.20e+01,
96,0.00e+00,2.20e+01,
97,0.00e+00,2.20e+01,
98,-1.60e-02,2.20e+01,
99,-1.60e-02,2.20e+01,
100,0.00e+00,2.20e+01,
101,0.00e+00,2.20e+01,
102,0.00e+00,2.20e+01,
103,-1.60e-02,2.20e+01,
104,-1.60e-02,2.20e+01,
105,0.00e+00,2.20e+01,
106,-1.60e-02,2.20e+01,
107,0.00e+00,2.20e+01,
108,-1.60e-02,2.20e+01,
109,0.00e+00,2.20e+01,
110,-1.60e-02,2.20e+01,
111,0.00e+00,2.20e+01,
112,-1.60e-02,2.20e+01,
113,0.00e+00,2.20e+01,
114,-1.60e-02,2.20e+01,
115,0.00e+00,2.16e+01,
116,-1.60e-02,2.20e+01,
117,0.00e+00,2.20e+01,
118,0.00e+00,2.20e+01,
119,0.00e+00,2.20e+01,
120,0.00e+00,2.20e+01,
121,0.00e+00,2.20e+01,
122,-1.60e-02,2.20e+01,
123,0.00e+00,2.20e+01,
124,0.00e+00,2.20e+01,
125,0.00e+00,2.20e+01,
126,-1.60e-02,2.20e+01,
127,-1.60e-02,2.20e+01,
128,-1.60e-02,2.20e+01,
129,0.00e+00,2.20e+01,
130,0.00e+00,2.20e+01,
131,0.00e+00,2.20e+01,
132,-1.60e-02,2.20e+01,
133,0.00e+00,2.20e+01,
134,0.00e+00,2.20e+01,
135,0.00e+00,2.20e+01,
136,-1.60e-02,2.20e+01,
137,-1.60e-02,2.20e+01,
138,-1.60e-02,2.20e+01,
139,0.00e+00,2.20e+01,
140,0.00e+00,2.20e+01,
141,0.00e+00,2.20e+01,
142,-1.60e-02,2.20e+01,
143,-1.60e-02,2.20e+01,
144,0.00e+00,2.20e+01,
145,0.00e+00,2.20e+01,
146,0.00e+00,2.20e+01,
147,-1.60e-02,2.16e+01,
148,-1.60e-02,2.20e+01,
149,0.00e+00,2.20e+01,
150,0.00e+00,2.20e+01,
151,0.00e+00,2.20e+01,
152,-1.60e-02,2.20e+01,
153,0.00e+00,2.20e+01,
154,-1.60e-02,2.20e+01,
155,0.00e+00,2.20e+01,
156,0.00e+00,2.20e+01,
157,0.00e+00,2.20e+01,
158,-1.60e-02,2.20e+01,
159,0.00e+00,2.20e+01,
160,0.00e+00,2.20e+01,
161,0.00e+00,2.20e+01,
162,-1.60e-02,2.20e+01,
163,-1.60e-02,2.20e+01,
164,0.00e+00,2.20e+01,
165,0.00e+00,2.20e+01,
166,-1.60e-02,2.20e+01,
167,-1.60e-02,2.16e+01,
168,-1.60e-02,2.20e+01,
169,0.00e+00,2.20e+01,
170,-1.60e-02,2.20e+01,
171,0.00e+00,2.20e+01,
172,0.00e+00,2.20e+01,
173,0.00e+00,2.20e+01,
174,-1.60e-02,2.20e+01,
175,-1.60e-02,2.16e+01,
176,0.00e+00,2.20e+01,
177,0.00e+00,2.20e+01,
178,0.00e+00,2.16e+01,
179,-1.60e-02,2.20e+01,
180,0.00e+00,2.20e+01,
181,0.00e+00,2.20e+01,
182,0.00e+00,2.20e+01,
183,-1.60e-02,2.20e+01,
184,-1.60e-02,2.20e+01,
185,0.00e+00,2.20e+01,
186,-1.60e-02,2.20e+01,
187,0.00e+00,2.16e+01,
188,-1.60e-02,2.20e+01,
189,0.00e+00,2.20e+01,
190,-1.60e-02,2.20e+01,
191,0.00e+00,2.20e+01,
192,0.00e+00,2.16e+01,
193,0.00e+00,2.20e+01,
194,-1.60e-02,2.20e+01,
195,-1.60e-02,2.20e+01,
196,0.00e+00,2.20e+01,
197,0.00e+00,2.20e+01,
198,-1.60e-02,2.20e+01,
199,-1.60e-02,2.20e+01,
200,0.00e+00,2.20e+01,
201,0.00e+00,2.20e+01,
202,0.00e+00,2.16e+01,
203,0.00e+00,2.20e+01,
204,-1.60e-02,2.20e+01,
205,0.00e+00,2.20e+01,
206,0.00e+00,2.20e+01,
207,0.00e+00,2.20e+01,
208,0.00e+00,2.20e+01,
209,0.00e+00,2.20e+01,
210,-1.60e-02,2.20e+01,
211,-1.60e-02,2.20e+01,
212,0.00e+00,2.20e+01,
213,0.00e+00,2.20e+01,
214,-1.60e-02,2.20e+01,
215,0.00e+00,2.20e+01,
216,-1.60e-02,2.20e+01,
217,0.00e+00,2.20e+01,
218,0.00e+00,2.20e+01,
219,-1.60e-02,2.20e+01,
220,0.00e+00,2.20e+01,
221,0.00e+00,2.20e+01,
222,-1.60e-02,2.20e+01,
223,0.00e+00,2.20e+01,
224,-1.60e-02,2.20e+01,
225,0.00e+00,2.20e+01,
226,-1.60e-02,2.20e+01,
227,0.00e+00,2.16e+01,
228,0.00e+00,2.20e+01,
229,0.00e+00,2.20e+01,
230,-1.60e-02,2.20e+01,
231,0.00e+00,2.20e+01,
232,0.00e+00,2.20e+01,
233,0.00e+00,2.20e+01,
234,-1.60e-02,2.16e+01,
235,-1.60e-02,2.20e+01,
236,-1.60e-02,2.20e+01,
237,0.00e+00,2.20e+01,
238,-1.60e-02,2.20e+01,
239,0.00e+00,2.20e+01,
240,0.00e+00,2.20e+01,
241,0.00e+00,2.20e+01,
242,0.00e+00,2.20e+01,
243,0.00e+00,2.20e+01,
244,-1.60e-02,2.20e+01,
245,0.00e+00,2.20e+01,
246,-1.60e-02,2.20e+01,
247,-1.60e-02,2.20e+01,
248,-1.60e-02,2.20e+01,
249,0.00e+00,2.20e+01,
250,0.00e+00,2.16e+01,
251,0.00e+00,2.20e+01,
252,-1.60e-02,2.20e+01,
253,0.00e+00,2.20e+01,
254,-1.60e-02,2.20e+01,
255,0.00e+00,2.20e+01,
256,0.00e+00,2.20e+01,
257,0.00e+00,2.20e+01,
258,-1.60e-02,2.20e+01,
259,-1.60e-02,2.20e+01,
260,0.00e+00,2.20e+01,
261,0.00e+00,2.20e+01,
262,-1.60e-02,2.20e+01,
263,-1.60e-02,2.20e+01,
264,-1.60e-02,2.20e+01,
265,0.00e+00,2.20e+01,
266,0.00e+00,2.20e+01,
267,0.00e+00,2.20e+01,
268,-1.60e-02,2.20e+01,
269,0.00e+00,2.20e+01,
270,-1.60e-02,2.20e+01,
271,0.00e+00,2.16e+01,
272,-1.60e-02,2.20e+01,
273,0.00e+00,2.20e+01,
274,-1.60e-02,2.20e+01,
275,-1.60e-02,2.16e+01,
276,0.00e+00,2.20e+01,
277,0.00e+00,2.20e+01,
278,-1.60e-02,2.20e+01,
279,-1.60e-02,2.20e+01,
280,-1.60e-02,2.20e+01,
281,0.00e+00,2.20e+01,
282,-1.60e-02,2.16e+01,
283,-1.60e-02,2.20e+01,
284,-1.60e-02,2.20e+01,
285,0.00e+00,2.20e+01,
286,-1.60e-02,2.16e+01,
287,0.00e+00,2.20e+01,
288,0.00e+00,2.20e+01,
289,0.00e+00,2.20e+01,
290,-1.60e-02,2.16e+01,
291,-1.60e-02,2.20e+01,
292,0.00e+00,2.20e+01,
293,0.00e+00,2.20e+01,
294,-1.60e-02,2.16e+01,
295,-1.60e-02,2.20e+01,
296,-1.60e-02,2.20e+01,
297,0.00e+00,2.20e+01,
298,-1.60e-02,2.20e+01,
299,0.00e+00,2.20e+01,
300,-1.60e-02,2.20e+01,
301,0.00e+00,2.20e+01,
302,-1.60e-02,2.20e+01,
303,0.00e+00,2.20e+01,
304,-1.60e-02,2.20e+01,
305,0.00e+00,2.20e+01,
306,-1.60e-02,2.20e+01,
307,0.00e+00,2.20e+01,
308,0.00e+00,2.20e+01,
309,0.00e+00,2.20e+01,
310,-1.60e-02,2.20e+01,
311,-1.60e-02,2.20e+01,
312,-1.60e-02,2.20e+01,
313,0.00e+00,2.20e+01,
314,-1.60e-02,2.20e+01,
315,-1.60e-02,2.20e+01,
316,-1.60e-02,2.20e+01,
317,0.00e+00,2.20e+01,
318,-1.60e-02,2.20e+01,
319,-1.60e-02,2.16e+01,
320,-1.60e-02,2.20e+01,
321,0.00e+00,2.20e+01,
322,-1.60e-02,2.16e+01,
323,0.00e+00,2.16e+01,
324,-1.60e-02,2.20e+01,
325,0.00e+00,2.20e+01,
326,-1.60e-02,2.20e+01,
327,-1.60e-02,2.16e+01,
328,0.00e+00,2.20e+01,
329,0.00e+00,2.20e+01,
330,-1.60e-02,2.20e+01,
331,-1.60e-02,2.20e+01,
332,-1.60e-02,2.20e+01,
333,0.00e+00,2.20e+01,
334,0.00e+00,2.20e+01,
335,-1.60e-02,2.20e+01,
336,-1.60e-02,2.20e+01,
337,0.00e+00,2.20e+01,
338,0.00e+00,2.16e+01,
339,0.00e+00,2.20e+01,
340,0.00e+00,2.20e+01,
341,0.00e+00,2.20e+01,
342,-1.60e-02,2.20e+01,
343,0.00e+00,2.20e+01,
344,0.00e+00,2.20e+01,
345,0.00e+00,2.20e+01,
346,-1.60e-02,2.20e+01,
347,0.00e+00,2.16e+01,
348,0.00e+00,2.20e+01,
349,0.00e+00,2.20e+01,
350,-1.60e-02,2.20e+01,
351,-1.60e-02,2.16e+01,
352,0.00e+00,2.20e+01,
353,0.00e+00,2.20e+01,
354,-1.60e-02,2.16e+01,
355,0.00e+00,2.20e+01,
356,-1.60e-02,2.20e+01,
357,0.00e+00,2.20e+01,
358,0.00e+00,2.20e+01,
359,0.00e+00,2.16e+01,
360,-1.60e-02,2.20e+01,
361,0.00e+00,2.20e+01,
362,-1.60e-02,2.16e+01,
363,-1.60e-02,2.20e+01,
364,-1.60e-02,2.20e+01,
365,0.00e+00,2.20e+01,
366,-1.60e-02,2.20e+01,
367,0.00e+00,2.16e+01,
368,-1.60e-02,2.20e+01,
369,0.00e+00,2.20e+01,
370,0.00e+00,2.20e+01,
371,0.00e+00,2.20e+01,
372,0.00e+00,2.20e+01,
373,0.00e+00,2.16e+01,
374,-1.60e-02,2.20e+01,
375,-1.60e-02,2.16e+01,
376,-1.60e-02,2.20e+01,
377,0.00e+00,2.20e+01,
378,-1.60e-02,2.20e+01,
379,-1.60e-02,2.20e+01,
380,-1.60e-02,2.20e+01,
381,0.00e+00,2.20e+01,
382,0.00e+00,2.20e+01,
383,0.00e+00,2.20e+01,
384,-1.60e-02,2.20e+01,
385,0.00e+00,2.20e+01,
386,-1.60e-02,2.20e+01,
387,-1.60e-02,2.16e+01,
388,0.00e+00,2.20e+01,
389,0.00e+00,2.20e+01,
390,-1.60e-02,2.20e+01,
391,0.00e+00,2.20e+01,
392,-1.60e-02,2.20e+01,
393,0.00e+00,2.20e+01,
394,0.00e+00,2.20e+01,
395,-1.60e-02,2.16e+01,
396,-1.60e-02,2.20e+01,
397,0.00e+00,2.20e+01,
398,0.00e+00,2.20e+01,
399,0.00e+00,2.20e+01,
400,0.00e+00,2.20e+01,
401,-1.60e-02,2.20e+01,
402,-1.60e-02,2.20e+01,
403,0.00e+00,2.20e+01,
404,0.00e+00,2.20e+01,
405,0.00e+00,2.20e+01,
406,-1.60e-02,2.20e+01,
407,-1.60e-02,2.16e+01,
408,0.00e+00,2.20e+01,
409,0.00e+00,2.20e+01,
410,0.00e+00,2.16e+01,
411,-1.60e-02,2.16e+01,
412,-1.60e-02,2.20e+01,
413,0.00e+00,2.20e+01,
414,0.00e+00,2.20e+01,
415,0.00e+00,2.16e+01,
416,-1.60e-02,2.20e+01,
417,-1.60e-02,2.20e+01,
418,-1.60e-02,2.16e+01,
419,0.00e+00,2.16e+01,
420,0.00e+00,2.20e+01,
421,0.00e+00,2.20e+01,
422,-1.60e-02,2.20e+01,
423,-1.60e-02,2.20e+01,
424,0.00e+00,2.20e+01,
425,0.00e+00,2.20e+01,
426,-1.60e-02,2.16e+01,
427,-1.60e-02,2.16e+01,
428,-1.60e-02,2.20e+01,
429,0.00e+00,2.20e+01,
430,0.00e+00,2.20e+01,
431,-1.60e-02,2.16e+01,
432,-1.60e-02,2.20e+01,
433,0.00e+00,2.16e+01,
434,-1.60e-02,2.16e+01,
435,0.00e+00,2.16e+01,
436,0.00e+00,2.20e+01,
437,0.00e+00,2.20e+01,
438,-1.60e-02,2.20e+01,
439,0.00e+00,2.16e+01,
440,0.00e+00,2.20e+01,
441,0.00e+00,2.20e+01,
442,-1.60e-02,2.16e+01,
443,-1.60e-02,2.16e+01,
444,-1.60e-02,2.20e+01,
445,0.00e+00,2.20e+01,
446,-1.60e-02,2.16e+01,
447,-1.60e-02,2.16e+01,
448,0.00e+00,2.20e+01,
449,0.00e+00,2.20e+01,
450,-1.60e-02,2.16e+01,
451,0.00e+00,2.16e+01,
452,-1.60e-02,2.20e+01,
453,0.00e+00,2.20e+01,
454,-1.60e-02,2.20e+01,
455,0.00e+00,2.16e+01,
456,-1.60e-02,2.20e+01,
457,0.00e+00,2.20e+01,
458,-1.60e-02,2.20e+01,
459,0.00e+00,2.16e+01,
460,0.00e+00,2.20e+01,
461,0.00e+00,2.20e+01,
462,-1.60e-02,2.16e+01,
463,-1.60e-02,2.16e+01,
464,-1.60e-02,2.16e+01,
465,0.00e+00,2.20e+01,
466,-1.60e-02,2.20e+01,
467,0.00e+00,2.16e+01,
468,-1.60e-02,2.20e+01,
469,0.00e+00,2.16e+01,
470,-1.60e-02,2.16e+01,
471,0.00e+00,2.16e+01,
472,-1.60e-02,2.20e+01,
473,-1.60e-02,2.20e+01,
474,-1.60e-02,2.16e+01,
475,0.00e+00,2.20e+01,
476,0.00e+00,2.20e+01,
477,0.00e+00,2.20e+01,
478,-1.60e-02,2.16e+01,
479,-1.60e-02,2.16e+01,
480,-1.60e-02,2.16e+01,
481,0.00e+00,2.16e+01,
482,0.00e+00,2.20e+01,
483,0.00e+00,2.16e+01,
484,-1.60e-02,2.20e+01,
485,0.00e+00,2.20e+01,
486,-1.60e-02,2.20e+01,
487,0.00e+00,2.20e+01,
488,0.00e+00,2.20e+01,
489,0.00e+00,2.20e+01,
490,-1.60e-02,2.16e+01,
491,-1.60e-02,2.16e+01,
492,0.00e+00,2.20e+01,
493,0.00e+00,2.16e+01,
494,-1.60e-02,2.16e+01,
495,-1.60e-02,2.16e+01,
496,-1.60e-02,2.20e+01,
497,0.00e+00,2.16e+01,
498,-1.60e-02,2.20e+01,
499,0.00e+00,2.16e+01,
500,0.00e+00,2.20e+01,
501,0.00e+00,2.20e+01,
502,0.00e+00,2.16e+01,
503,0.00e+00,2.16e+01,
504,0.00e+00,2.20e+01,
505,0.00e+00,2.20e+01,
506,-1.60e-02,2.16e+01,
507,-1.60e-02,2.16e+01,
508,0.00e+00,2.16e+01,
509,0.00e+00,2.16e+01,
510,-1.60e-02,2.16e+01,
511,-1.60e-02,2.16e+01,
512,-1.60e-02,2.20e+01,
513,0.00e+00,2.20e+01,
514,-1.60e-02,2.20e+01,
515,0.00e+00,2.16e+01,
516,-1.60e-02,2.20e+01,
517,0.00e+00,2.16e+01,
518,-1.60e-02,2.20e+01,
519,0.00e+00,2.16e+01,
520,0.00e+00,2.20e+01,
521,0.00e+00,2.20e+01,
522,-1.60e-02,2.16e+01,
523,-1.60e-02,2.20e+01,
524,0.00e+00,2.20e+01,
525,0.00e+00,2.20e+01,
526,0.00e+00,2.20e+01,
527,-1.60e-02,2.16e+01,
528,-1.60e-02,2.16e+01,
529,-1.60e-02,2.20e+01,
530,0.00e+00,2.16e+01,
531,0.00e+00,2.20e+01,
532,0.00e+00,2.20e+01,
533,0.00e+00,2.16e+01,
534,-1.60e-02,2.16e+01,
535,0.00e+00,2.20e+01,
536,0.00e+00,2.20e+01,
537,0.00e+00,2.20e+01,
538,-1.60e-02,2.16e+01,
539,-1.60e-02,2.16e+01,
540,-1.60e-02,2.20e+01,
541,0.00e+00,2.16e+01,
542,-1.60e-02,2.20e+01,
543,-1.60e-02,2.16e+01,
544,-1.60e-02,2.20e+01,
545,0.00e+00,2.20e+01,
546,-1.60e-02,2.16e+01,
547,-1.60e-02,2.16e+01,
548,-1.60e-02,2.20e+01,
549,0.00e+00,2.20e+01,
550,0.00e+00,2.20e+01,
551,0.00e+00,2.16e+01,
552,0.00e+00,2.16e+01,
553,0.00e+00,2.16e+01,
554,-1.60e-02,2.16e+01,
555,-1.60e-02,2.16e+01,
556,0.00e+00,2.16e+01,
557,0.00e+00,2.16e+01,
558,-1.60e-02,2.20e+01,
559,-1.60e-02,2.16e+01,
560,-1.60e-02,2.16e+01,
561,0.00e+00,2.20e+01,
562,-1.60e-02,2.16e+01,
563,0.00e+00,2.16e+01,
564,0.00e+00,2.20e+01,
565,0.00e+00,2.20e+01,
566,-1.60e-02,2.16e+01,
567,-1.60e-02,2.16e+01,
568,0.00e+00,2.20e+01,
569,0.00e+00,2.16e+01,
570,-1.60e-02,2.16e+01,
571,-1.60e-02,2.16e+01,
572,-1.60e-02,2.20e+01,
573,0.00e+00,2.16e+01,
574,0.00e+00,2.20e+01,
575,0.00e+00,2.16e+01,
576,0.00e+00,2.20e+01,
577,0.00e+00,2.16e+01,
578,-1.60e-02,2.16e+01,
579,-1.60e-02,2.16e+01,
580,0.00e+00,2.20e+01,
581,0.00e+00,2.16e+01,
582,-1.60e-02,2.16e+01,
583,0.00e+00,2.16e+01,
584,0.00e+00,2.16e+01,
585,0.00e+00,2.20e+01,
586,-1.60e-02,2.16e+01,
587,0.00e+00,2.16e+01,
588,0.00e+00,2.20e+01,
589,0.00e+00,2.16e+01,
590,-1.60e-02,2.20e+01,
591,-1.60e-02,2.20e+01,
592,-1.60e-02,2.20e+01,
593,0.00e+00,2.16e+01,
594,-1.60e-02,2.16e+01,
595,-1.60e-02,2.16e+01,
596,0.00e+00,2.20e+01,
597,0.00e+00,2.16e+01,
598,0.00e+00,2.20e+01,
599,0.00e+00,2.16e+01,
600,-1.60e-02,2.16e+01,
601,0.00e+00,2.16e+01,
602,-1.60e-02,2.16e+01,
603,0.00e+00,2.16e+01,
604,-1.60e-02,2.16e+01,
605,0.00e+00,2.16e+01,
606,-1.60e-02,2.16e+01,
607,0.00e+00,2.16e+01,
608,0.00e+00,2.16e+01,
609,0.00e+00,2.16e+01,
610,-1.60e-02,2.16e+01,
611,-1.60e-02,2.16e+01,
612,-1.60e-02,2.16e+01,
613,0.00e+00,2.16e+01,
614,-1.60e-02,2.16e+01,
615,-1.60e-02,2.16e+01,
616,-1.60e-02,2.16e+01,
617,0.00e+00,2.16e+01,
618,-1.60e-02,2.16e+01,
619,-1.60e-02,2.16e+01,
620,-1.60e-02,2.16e+01,
621,0.00e+00,2.16e+01,
622,0.00e+00,2.16e+01,
623,0.00e+00,2.16e+01,
624,-1.60e-02,2.16e+01,
625,0.00e+00,2.16e+01,
626,-1.60e-02,2.16e+01,
627,0.00e+00,2.16e+01,
628,0.00e+00,2.20e+01,
629,0.00e+00,2.16e+01,
630,-1.60e-02,2.16e+01,
631,-1.60e-02,2.16e+01,
632,0.00e+00,2.20e+01,
633,0.00e+00,2.16e+01,
634,-1.60e-02,2.16e+01,
635,-1.60e-02,2.16e+01,
636,0.00e+00,2.16e+01,
637,0.00e+00,2.20e+01,
638,-1.60e-02,2.16e+01,
639,-1.60e-02,2.16e+01,
640,-1.60e-02,2.16e+01,
641,0.00e+00,2.16e+01,
642,0.00e+00,2.16e+01,
643,0.00e+00,2.16e+01,
644,-1.60e-02,2.16e+01,
645,-1.60e-02,2.16e+01,
646,-1.60e-02,2.16e+01,
647,0.00e+00,2.16e+01,
648,0.00e+00,2.16e+01,
649,-1.60e-02,2.16e+01,
650,-1.60e-02,2.16e+01,
651,0.00e+00,2.16e+01,
652,0.00e+00,2.16e+01,
653,0.00e+00,2.16e+01,
654,-1.60e-02,2.16e+01,
655,-1.60e-02,2.16e+01,
656,0.00e+00,2.16e+01,
657,0.00e+00,2.16e+01,
658,0.00e+00,2.16e+01,
659,-1.60e-02,2.16e+01,
660,-1.60e-02,2.16e+01,
661,0.00e+00,2.16e+01,
662,0.00e+00,2.16e+01,
663,0.00e+00,2.16e+01,
664,-1.60e-02,2.16e+01,
665,-1.60e-02,2.16e+01,
666,-1.60e-02,2.16e+01,
667,0.00e+00,2.16e+01,
668,0.00e+00,2.16e+01,
669,0.00e+00,2.16e+01,
670,-1.60e-02,2.16e+01,
671,-1.60e-02,2.16e+01,
672,0.00e+00,2.16e+01,
673,0.00e+00,2.16e+01,
674,-1.60e-02,2.16e+01,
675,-1.60e-02,2.12e+01,
676,-1.60e-02,2.16e+01,
677,0.00e+00,2.16e+01,
678,0.00e+00,2.12e+01,
679,-1.60e-02,2.12e+01,
680,-1.60e-02,2.12e+01,
681,0.00e+00,2.16e+01,
682,-1.60e-02,2.12e+01,
683,-1.60e-02,2.12e+01,
684,0.00e+00,2.16e+01,
685,0.00e+00,2.12e+01,
686,-1.60e-02,2.12e+01,
687,-1.60e-02,2.12e+01,
688,0.00e+00,2.12e+01,
689,0.00e+00,2.12e+01,
690,-1.60e-02,2.12e+01,
691,-1.60e-02,2.12e+01,
692,-1.60e-02,2.12e+01,
693,0.00e+00,2.12e+01,
694,-1.60e-02,2.12e+01,
695,0.00e+00,2.08e+01,
696,0.00e+00,2.12e+01,
697,-1.60e-02,2.08e+01,
698,-1.60e-02,2.08e+01,
699,0.00e+00,2.08e+01,
700,0.00e+00,2.12e+01,
701,0.00e+00,2.08e+01,
702,-1.60e-02,2.08e+01,
703,-1.60e-02,2.08e+01,
704,0.00e+00,2.08e+01,
705,0.00e+00,2.08e+01,
706,0.00e+00,2.08e+01,
707,-1.60e-02,2.08e+01,
708,-1.60e-02,2.08e+01,
709,0.00e+00,2.08e+01,
710,-1.60e-02,2.04e+01,
711,-1.60e-02,2.04e+01,
712,-1.60e-02,2.04e+01,
713,0.00e+00,2.08e+01,
714,-1.60e-02,2.04e+01,
715,-1.60e-02,2.04e+01,
716,-1.60e-02,2.04e+01,
717,0.00e+00,2.04e+01,
718,-1.60e-02,2.04e+01,
719,0.00e+00,2.04e+01,
720,0.00e+00,2.04e+01,
721,0.00e+00,2.04e+01,
722,-1.60e-02,2.04e+01,
723,-1.60e-02,2.00e+01,
724,-1.60e-02,2.04e+01,
725,0.00e+00,2.04e+01,
726,-1.60e-02,2.00e+01,
727,-1.60e-02,2.00e+01,
728,-1.60e-02,2.00e+01,
729,0.00e+00,2.00e+01,
730,-1.60e-02,2.00e+01,
731,-1.60e-02,2.00e+01,
732,-1.60e-02,2.00e+01,
733,0.00e+00,2.00e+01,
734,-1.60e-02,2.00e+01,
735,0.00e+00,1.96e+01,
736,-1.60e-02,1.96e+01,
737,-1.60e-02,1.96e+01,
738,-1.60e-02,1.96e+01,
739,0.00e+00,1.96e+01,
740,0.00e+00,1.96e+01,
741,0.00e+00,1.96e+01,
742,-1.60e-02,1.96e+01,
743,-1.60e-02,1.96e+01,
744,0.00e+00,1.96e+01,
745,0.00e+00,1.96e+01,
746,-1.60e-02,1.92e+01,
747,-1.60e-02,1.92e+01,
748,-1.60e-02,1.92e+01,
749,0.00e+00,1.92e+01,
750,-1.60e-02,1.92e+01,
751,0.00e+00,1.92e+01,
752,-1.60e-02,1.92e+01,
753,0.00e+00,1.92e+01,
754,-1.60e-02,1.92e+01,
755,-1.60e-02,1.88e+01,
756,0.00e+00,1.92e+01,
757,0.00e+00,1.88e+01,
758,-1.60e-02,1.88e+01,
759,-1.60e-02,1.88e+01,
760,0.00e+00,1.88e+01,
761,0.00e+00,1.88e+01,
762,-1.60e-02,1.88e+01,
763,0.00e+00,1.88e+01,
764,-1.60e-02,1.88e+01,
765,0.00e+00,1.88e+01,
766,-1.60e-02,1.88e+01,
767,-1.60e-02,1.84e+01,
768,-1.60e-02,1.84e+01,
769,-1.60e-02,1.84e+01,
770,-1.60e-02,1.84e+01,
771,-1.60e-02,1.84e+01,
772,-1.60e-02,1.84e+01,
773,0.00e+00,1.84e+01,
774,-1.60e-02,1.84e+01,
775,-1.60e-02,1.84e+01,
776,-1.60e-02,1.84e+01,
777,0.00e+00,1.80e+01,
778,-1.60e-02,1.80e+01,
779,0.00e+00,1.80e+01,
780,0.00e+00,1.80e+01,
781,0.00e+00,1.80e+01,
782,-1.60e-02,1.80e+01,
783,0.00e+00,1.80e+01,
784,0.00e+00,1.80e+01,
785,0.00e+00,1.80e+01,
786,-1.60e-02,1.76e+01,
787,-1.60e-02,1.76e+01,
788,-1.60e-02,1.80e+01,
789,0.00e+00,1.80e+01,
790,0.00e+00,1.76e+01,
791,-1.60e-02,1.76e+01,
792,-1.60e-02,1.76e+01,
793,-1.60e-02,1.76e+01,
794,-1.60e-02,1.76e+01,
795,0.00e+00,1.76e+01,
796,0.00e+00,1.76e+01,
797,0.00e+00,1.76e+01,
798,-1.60e-02,1.68e+01,
799,-1.60e-02,1.68e+01,
800,0.00e+00,1.68e+01,
801,0.00e+00,1.68e+01,
802,-1.60e-02,1.68e+01,
803,-1.60e-02,1.68e+01,
804,-1.60e-02,1.68e+01,
805,0.00e+00,1.68e+01,
806,-1.60e-02,1.68e+01,
807,-1.60e-02,1.68e+01,
808,-1.60e-02,1.68e+01,
809,0.00e+00,1.68e+01,
810,-1.60e-02,1.64e+01,
811,0.00e+00,1.64e+01,
812,-1.60e-02,1.64e+01,
813,-1.60e-02,1.64e+01,
814,-1.60e-02,1.64e+01,
815,-1.60e-02,1.64e+01,
816,0.00e+00,1.64e+01,
817,0.00e+00,1.64e+01,
818,-1.60e-02,1.64e+01,
819,-1.60e-02,1.64e+01,
820,0.00e+00,1.64e+01,
821,0.00e+00,1.64e+01,
822,0.00e+00,1.64e+01,
823,-1.60e-02,1.60e+01,
824,-1.60e-02,1.60e+01,
825,0.00e+00,1.64e+01,
826,0.00e+00,1.60e+01,
827,0.00e+00,1.60e+01,
828,0.00e+00,1.60e+01,
829,0.00e+00,1.60e+01,
830,-1.60e-02,1.60e+01,
831,0.00e+00,1.60e+01,
832,-1.60e-02,1.60e+01,
833,0.00e+00,1.60e+01,
834,-1.60e-02,1.56e+01,
835,-1.60e-02,1.60e+01,
836,-1.60e-02,1.60e+01,
837,0.00e+00,1.60e+01,
838,-1.60e-02,1.56e+01,
839,-1.60e-02,1.56e+01,
840,0.00e+00,1.56e+01,
841,0.00e+00,1.56e+01,
842,-1.60e-02,1.56e+01,
843,-1.60e-02,1.56e+01,
844,-1.60e-02,1.56e+01,
845,0.00e+00,1.56e+01,
846,0.00e+00,1.56e+01,
847,-1.60e-02,1.56e+01,
848,-1.60e-02,1.56e+01,
849,0.00e+00,1.56e+01,
850,-1.60e-02,1.52e+01,
851,0.00e+00,1.56e+01,
852,-1.60e-02,1.52e+01,
