Lab9/data2/off1_8.csv

X,CH1,CH2,Start,Increment,
Sequence,Volt,Volt,-4.190000e-05,2.000000e-09
0,1.16e-01,-2.25e-05,
1,1.16e-01,4.00e-01,
2,1.16e-01,4.00e-01,
3,1.24e-01,4.00e-01,
4,1.16e-01,-2.25e-05,
5,1.16e-01,4.00e-01,
6,1.16e-01,4.00e-01,
7,1.20e-01,4.00e-01,
8,1.20e-01,-2.25e-05,
9,1.20e-01,4.00e-01,
10,1.16e-01,4.00e-01,
11,1.20e-01,4.00e-01,
12,1.20e-01,-2.25e-05,
13,1.20e-01,4.00e-01,
14,1.16e-01,4.00e-01,
15,1.20e-01,4.00e-01,
16,1.16e-01,-2.25e-05,
17,1.20e-01,4.00e-01,
18,1.20e-01,6.00e-01,
19,1.24e-01,4.00e-01,
20,1.16e-01,-2.25e-05,
21,1.16e-01,4.00e-01,
22,1.20e-01,4.00e-01,
23,1.24e-01,4.00e-01,
24,1.16e-01,-2.25e-05,
25,1.16e-01,4.00e-01,
26,1.16e-01,6.00e-01,
27,1.24e-01,4.00e-01,
28,1.20e-01,-2.25e-05,
29,1.20e-01,4.00e-01,
30,1.20e-01,4.00e-01,
31,1.20e-01,4.00e-01,
32,1.20e-01,-2.25e-05,
33,1.20e-01,4.00e-01,
34,1.20e-01,4.00e-01,
35,1.24e-01,4.00e-01,
36,1.20e-01,-2.25e-05,
37,1.20e-01,4.00e-01,
38,1.20e-01,4.00e-01,
39,1.24e-01,4.00e-01,
40,1.20e-01,-2.25e-05,
41,1.20e-01,-2.25e-05,
42,1.20e-01,4.00e-01,
43,1.24e-01,4.00e-01,
44,1.20e-01,-2.25e-05,
45,1.20e-01,4.00e-01,
46,1.20e-01,4.00e-01,
47,1.24e-01,4.00e-01,
48,1.20e-01,-2.25e-05,
49,1.24e-01,-2.25e-05,
50,1.20e-01,4.00e-01,
51,1.24e-01,4.00e-01,
52,1.20e-01,-2.25e-05,
53,1.20e-01,4.00e-01,
54,1.24e-01,4.00e-01,
55,1.24e-01,4.00e-01,
56,1.20e-01,-2.25e-05,
57,1.20e-01,4.00e-01,
58,1.20e-01,4.00e-01,
59,1.28e-01,4.00e-01,
60,1.20e-01,-2.25e-05,
61,1.20e-01,4.00e-01,
62,1.20e-01,4.00e-01,
63,1.24e-01,4.00e-01,
64,1.20e-01,-2.25e-05,
65,1.24e-01,4.00e-01,
66,1.20e-01,6.00e-01,
67,1.28e-01,4.00e-01,
68,1.20e-01,-2.25e-05,
69,1.24e-01,4.00e-01,
70,1.20e-01,4.00e-01,
71,1.24e-01,4.00e-01,
72,1.20e-01,-2.00e-01,
73,1.24e-01,4.00e-01,
74,1.24e-01,4.00e-01,
75,1.28e-01,4.00e-01,
76,1.20e-01,4.00e-01,
77,1.24e-01,4.00e-01,
78,1.20e-01,6.00e-01,
79,1.28e-01,4.00e-01,
80,1.24e-01,-2.25e-05,
81,1.24e-01,4.00e-01,
82,1.24e-01,4.00e-01,
83,1.28e-01,4.00e-01,
84,1.24e-01,-2.25e-05,
85,1.28e-01,-2.25e-05,
86,1.24e-01,6.00e-01,
87,1.28e-01,4.00e-01,
88,1.24e-01,-2.00e-01,
89,1.24e-01,4.00e-01,
90,1.24e-01,-2.25e-05,
91,1.28e-01,4.00e-01,
92,1.24e-01,4.00e-01,
93,1.24e-01,4.00e-01,
94,1.24e-01,4.00e-01,
95,1.28e-01,4.00e-01,
96,1.24e-01,-2.25e-05,
97,1.28e-01,-2.25e-05,
98,1.24e-01,4.00e-01,
99,1.32e-01,4.00e-01,
100,1.28e-01,-2.25e-05,
101,1.28e-01,4.00e-01,
102,1.24e-01,4.00e-01,
103,1.28e-01,4.00e-01,
104,1.24e-01,-2.25e-05,
105,1.28e-01,-2.25e-05,
106,1.24e-01,4.00e-01,
107,1.32e-01,4.00e-01,
108,1.24e-01,-2.25e-05,
109,1.28e-01,4.00e-01,
110,1.24e-01,4.00e-01,
111,1.32e-01,4.00e-01,
112,1.24e-01,-2.25e-05,
113,1.28e-01,4.00e-01,
114,1.28e-01,4.00e-01,
115,1.28e-01,4.00e-01,
116,1.24e-01,4.00e-01,
117,1.28e-01,4.00e-01,
118,1.28e-01,4.00e-01,
119,1.32e-01,4.00e-01,
120,1.24e-01,-2.25e-05,
121,1.24e-01,-2.25e-05,
122,1.24e-01,6.00e-01,
123,1.32e-01,4.00e-01,
124,1.32e-01,4.00e-01,
125,1.28e-01,4.00e-01,
126,1.24e-01,4.00e-01,
127,1.32e-01,4.00e-01,
128,1.28e-01,-2.25e-05,
129,1.32e-01,4.00e-01,
130,1.28e-01,4.00e-01,
131,1.32e-01,4.00e-01,
132,1.28e-01,4.00e-01,
133,1.32e-01,4.00e-01,
134,1.32e-01,4.00e-01,
135,1.32e-01,4.00e-01,
136,1.28e-01,-2.25e-05,
137,1.28e-01,4.00e-01,
138,1.28e-01,4.00e-01,
139,1.36e-01,4.00e-01,
140,1.28e-01,-2.25e-05,
141,1.28e-01,4.00e-01,
142,1.28e-01,4.00e-01,
143,1.32e-01,4.00e-01,
144,1.32e-01,-2.25e-05,
145,1.32e-01,4.00e-01,
146,1.28e-01,6.00e-01,
147,1.32e-01,4.00e-01,
148,1.28e-01,4.00e-01,
149,1.36e-01,4.00e-01,
150,1.32e-01,4.00e-01,
151,1.32e-01,4.00e-01,
152,1.28e-01,-2.25e-05,
153,1.28e-01,4.00e-01,
154,1.32e-01,4.00e-01,
155,1.36e-01,4.00e-01,
156,1.32e-01,-2.25e-05,
157,1.28e-01,-2.25e-05,
158,1.28e-01,4.00e-01,
159,1.36e-01,4.00e-01,
160,1.32e-01,-2.25e-05,
161,1.32e-01,4.00e-01,
162,1.32e-01,6.00e-01,
163,1.32e-01,4.00e-01,
164,1.32e-01,-2.25e-05,
165,1.32e-01,4.00e-01,
166,1.32e-01,4.00e-01,
167,1.36e-01,4.00e-01,
168,1.32e-01,-2.25e-05,
169,1.32e-01,4.00e-01,
170,1.32e-01,4.00e-01,
171,1.36e-01,4.00e-01,
172,1.32e-01,-2.25e-05,
173,1.32e-01,4.00e-01,
174,1.32e-01,4.00e-01,
175,1.36e-01,4.00e-01,
176,1.32e-01,-2.25e-05,
177,1.32e-01,4.00e-01,
178,1.32e-01,4.00e-01,
179,1.40e-01,4.00e-01,
180,1.32e-01,-2.25e-05,
181,1.32e-01,4.00e-01,
182,1.32e-01,4.00e-01,
183,1.36e-01,4.00e-01,
184,1.32e-01,-2.25e-05,
185,1.32e-01,4.00e-01,
186,1.32e-01,4.00e-01,
187,1.36e-01,-2.25e-05,
188,1.36e-01,-2.25e-05,
189,1.36e-01,4.00e-01,
190,1.32e-01,4.00e-01,
191,1.36e-01,4.00e-01,
192,1.36e-01,-2.25e-05,
193,1.36e-01,-2.25e-05,
194,1.32e-01,6.00e-01,
195,1.36e-01,4.00e-01,
196,1.32e-01,4.00e-01,
197,1.36e-01,4.00e-01,
198,1.32e-01,4.00e-01,
199,1.40e-01,4.00e-01,
200,1.32e-01,-2.25e-05,
201,1.36e-01,4.00e-01,
202,1.32e-01,4.00e-01,
203,1.40e-01,4.00e-01,
204,1.36e-01,-2.25e-05,
205,1.36e-01,4.00e-01,
206,1.36e-01,6.00e-01,
207,1.40e-01,4.00e-01,
208,1.32e-01,-2.25e-05,
209,1.36e-01,4.00e-01,
210,1.36e-01,4.00e-01,
211,1.40e-01,4.00e-01,
212,1.36e-01,4.00e-01,
213,1.36e-01,4.00e-01,
214,1.32e-01,4.00e-01,
215,1.40e-01,4.00e-01,
216,1.36e-01,-2.25e-05,
217,1.40e-01,4.00e-01,
218,1.36e-01,6.00e-01,
219,1.40e-01,4.00e-01,
220,1.36e-01,4.00e-01,
221,1.36e-01,6.00e-01,
222,1.40e-01,4.00e-01,
223,1.40e-01,4.00e-01,
224,1.36e-01,-2.25e-05,
225,1.36e-01,4.00e-01,
226,1.36e-01,4.00e-01,
227,1.44e-01,4.00e-01,
228,1.36e-01,-2.25e-05,
229,1.36e-01,4.00e-01,
230,1.36e-01,4.00e-01,
231,1.44e-01,4.00e-01,
232,1.36e-01,-2.25e-05,
233,1.40e-01,4.00e-01,
234,1.36e-01,4.00e-01,
235,1.44e-01,4.00e-01,
236,1.40e-01,4.00e-01,
237,1.40e-01,4.00e-01,
238,1.36e-01,4.00e-01,
239,1.40e-01,4.00e-01,
240,1.36e-01,-2.25e-05,
241,1.40e-01,4.00e-01,
242,1.40e-01,6.00e-01,
243,1.44e-01,4.00e-01,
244,1.40e-01,-2.25e-05,
245,1.40e-01,4.00e-01,
246,1.40e-01,4.00e-01,
247,1.44e-01,4.00e-01,
248,1.40e-01,-2.25e-05,
249,1.40e-01,4.00e-01,
250,1.40e-01,6.00e-01,
251,1.44e-01,4.00e-01,
252,1.40e-01,-2.25e-05,
253,1.40e-01,4.00e-01,
254,1.40e-01,4.00e-01,
255,1.44e-01,4.00e-01,
256,1.40e-01,-2.25e-05,
257,1.44e-01,-2.25e-05,
258,1.36e-01,4.00e-01,
259,1.44e-01,4.00e-01,
260,1.40e-01,-2.25e-05,
261,1.44e-01,4.00e-01,
262,1.40e-01,4.00e-01,
263,1.44e-01,4.00e-01,
264,1.40e-01,-2.25e-05,
265,1.44e-01,4.00e-01,
266,1.40e-01,6.00e-01,
267,1.48e-01,4.00e-01,
268,1.36e-01,-2.25e-05,
269,1.40e-01,4.00e-01,
270,1.40e-01,4.00e-01,
271,1.48e-01,4.00e-01,
272,1.44e-01,-2.25e-05,
273,1.40e-01,4.00e-01,
274,1.40e-01,4.00e-01,
275,1.48e-01,4.00e-01,
276,1.44e-01,4.00e-01,
277,1.44e-01,4.00e-01,
278,1.40e-01,4.00e-01,
279,1.44e-01,6.00e-01,
280,1.40e-01,-2.25e-05,
281,1.44e-01,4.00e-01,
282,1.44e-01,4.00e-01,
283,1.48e-01,4.00e-01,
284,1.40e-01,4.00e-01,
285,1.44e-01,-2.25e-05,
286,1.40e-01,6.00e-01,
287,1.48e-01,6.00e-01,
288,1.44e-01,-2.00e-01,
289,1.40e-01,6.00e-01,
290,1.44e-01,4.00e-01,
291,1.48e-01,4.00e-01,
292,1.44e-01,-2.25e-05,
293,1.44e-01,4.00e-01,
294,1.40e-01,6.00e-01,
295,1.48e-01,4.00e-01,
296,1.44e-01,-2.25e-05,
297,1.44e-01,-2.25e-05,
298,1.44e-01,6.00e-01,
299,1.48e-01,4.00e-01,
300,1.40e-01,-2.25e-05,
301,1.44e-01,4.00e-01,
302,1.40e-01,4.00e-01,
303,1.48e-01,4.00e-01,
304,1.44e-01,-2.25e-05,
305,1.44e-01,4.00e-01,
306,1.44e-01,6.00e-01,
307,1.48e-01,4.00e-01,
308,1.44e-01,-2.25e-05,
309,1.44e-01,4.00e-01,
310,1.44e-01,4.00e-01,
311,1.48e-01,4.00e-01,
312,1.44e-01,-2.25e-05,
313,1.44e-01,4.00e-01,
314,1.44e-01,6.00e-01,
315,1.48e-01,4.00e-01,
316,1.48e-01,4.00e-01,
317,1.44e-01,4.00e-01,
318,1.44e-01,6.00e-01,
319,1.48e-01,4.00e-01,
320,1.44e-01,-2.25e-05,
321,1.48e-01,-2.25e-05,
322,1.44e-01,4.00e-01,
323,1.52e-01,4.00e-01,
324,1.44e-01,-2.25e-05,
325,1.44e-01,4.00e-01,
326,1.44e-01,4.00e-01,
327,1.52e-01,4.00e-01,
328,1.48e-01,-2.25e-05,
329,1.48e-01,4.00e-01,
330,1.44e-01,4.00e-01,
331,1.52e-01,4.00e-01,
332,1.48e-01,-2.25e-05,
333,1.48e-01,4.00e-01,
334,1.44e-01,4.00e-01,
335,1.48e-01,4.00e-01,
336,1.48e-01,-2.25e-05,
337,1.48e-01,4.00e-01,
338,1.44e-01,6.00e-01,
339,1.52e-01,4.00e-01,
340,1.48e-01,4.00e-01,
341,1.44e-01,4.00e-01,
342,1.44e-01,4.00e-01,
343,1.52e-01,4.00e-01,
344,1.48e-01,-2.25e-05,
345,1.48e-01,4.00e-01,
346,1.48e-01,4.00e-01,
347,1.52e-01,4.00e-01,
348,1.48e-01,-2.25e-05,
349,1.48e-01,4.00e-01,
350,1.48e-01,4.00e-01,
351,1.52e-01,4.00e-01,
352,1.48e-01,-2.25e-05,
353,1.52e-01,4.00e-01,
354,1.48e-01,4.00e-01,
355,1.52e-01,4.00e-01,
356,1.48e-01,-2.25e-05,
357,1.52e-01,4.00e-01,
358,1.52e-01,4.00e-01,
359,1.52e-01,6.00e-01,
360,1.48e-01,-2.25e-05,
361,1.48e-01,4.00e-01,
362,1.48e-01,6.00e-01,
363,1.56e-01,4.00e-01,
364,1.48e-01,-2.25e-05,
365,1.52e-01,4.00e-01,
366,1.48e-01,4.00e-01,
367,1.56e-01,4.00e-01,
368,1.52e-01,-2.25e-05,
369,1.52e-01,4.00e-01,
370,1.48e-01,6.00e-01,
371,1.56e-01,4.00e-01,
372,1.52e-01,-2.25e-05,
373,1.52e-01,4.00e-01,
374,1.48e-01,6.00e-01,
375,1.56e-01,6.00e-01,
376,1.52e-01,-2.25e-05,
377,1.56e-01,4.00e-01,
378,1.52e-01,4.00e-01,
379,1.56e-01,4.00e-01,
380,1.48e-01,-2.25e-05,
381,1.48e-01,4.00e-01,
382,1.52e-01,4.00e-01,
383,1.56e-01,4.00e-01,
384,1.52e-01,-2.25e-05,
385,1.52e-01,4.00e-01,
386,1.48e-01,4.00e-01,
387,1.60e-01,4.00e-01,
388,1.52e-01,-2.25e-05,
389,1.52e-01,4.00e-01,
390,1.48e-01,4.00e-01,
391,1.56e-01,4.00e-01,
392,1.56e-01,-2.00e-01,
393,1.56e-01,4.00e-01,
394,1.52e-01,4.00e-01,
395,1.56e-01,4.00e-01,
396,1.52e-01,-2.25e-05,
397,1.56e-01,4.00e-01,
398,1.52e-01,4.00e-01,
399,1.60e-01,6.00e-01,
400,1.52e-01,-2.25e-05,
401,1.52e-01,4.00e-01,
402,1.52e-01,6.00e-01,
403,1.60e-01,4.00e-01,
404,1.56e-01,-2.25e-05,
405,1.52e-01,4.00e-01,
406,1.52e-01,6.00e-01,
407,1.60e-01,4.00e-01,
408,1.56e-01,-2.25e-05,
409,1.56e-01,4.00e-01,
410,1.52e-01,6.00e-01,
411,1.56e-01,4.00e-01,
412,1.52e-01,-2.25e-05,
413,1.56e-01,4.00e-01,
414,1.52e-01,4.00e-01,
415,1.60e-01,4.00e-01,
416,1.52e-01,-2.25e-05,
417,1.56e-01,4.00e-01,
418,1.56e-01,4.00e-01,
419,1.64e-01,4.00e-01,
420,1.56e-01,-2.25e-05,
421,1.52e-01,4.00e-01,
422,1.52e-01,4.00e-01,
423,1.60e-01,4.00e-01,
424,1.56e-01,-2.25e-05,
425,1.56e-01,4.00e-01,
426,1.56e-01,4.00e-01,
427,1.60e-01,4.00e-01,
428,1.56e-01,-2.25e-05,
429,1.56e-01,4.00e-01,
430,1.56e-01,4.00e-01,
431,1.60e-01,4.00e-01,
432,1.56e-01,-2.25e-05,
433,1.56e-01,4.00e-01,
434,1.56e-01,4.00e-01,
435,1.60e-01,4.00e-01,
436,1.56e-01,-2.25e-05,
437,1.60e-01,4.00e-01,
438,1.56e-01,4.00e-01,
439,1.64e-01,4.00e-01,
440,1.56e-01,-2.25e-05,
441,1.56e-01,4.00e-01,
442,1.56e-01,6.00e-01,
443,1.64e-01,4.00e-01,
444,1.56e-01,-2.25e-05,
445,1.56e-01,4.00e-01,
446,1.56e-01,6.00e-01,
447,1.60e-01,4.00e-01,
448,1.56e-01,-2.25e-05,
449,1.60e-01,4.00e-01,
450,1.56e-01,4.00e-01,
451,1.64e-01,4.00e-01,
452,1.60e-01,-2.25e-05,
453,1.56e-01,4.00e-01,
454,1.56e-01,4.00e-01,
455,1.64e-01,4.00e-01,
456,1.56e-01,-2.25e-05,
457,1.56e-01,4.00e-01,
458,1.56e-01,6.00e-01,
459,1.64e-01,6.00e-01,
460,1.60e-01,-2.25e-05,
461,1.56e-01,4.00e-01,
462,1.60e-01,4.00e-01,
463,1.64e-01,4.00e-01,
464,1.60e-01,-2.25e-05,
465,1.60e-01,4.00e-01,
466,1.56e-01,6.00e-01,
467,1.64e-01,4.00e-01,
468,1.56e-01,4.00e-01,
469,1.60e-01,4.00e-01,
470,1.60e-01,4.00e-01,
471,1.64e-01,4.00e-01,
472,1.56e-01,-2.25e-05,
473,1.60e-01,4.00e-01,
474,1.60e-01,6.00e-01,
475,1.64e-01,4.00e-01,
476,1.60e-01,4.00e-01,
477,1.60e-01,4.00e-01,
478,1.56e-01,4.00e-01,
479,1.68e-01,4.00e-01,
480,1.60e-01,-2.25e-05,
481,1.60e-01,4.00e-01,
482,1.60e-01,4.00e-01,
483,1.64e-01,4.00e-01,
484,1.60e-01,4.00e-01,
485,1.64e-01,-2.25e-05,
486,1.56e-01,6.00e-01,
487,1.64e-01,6.00e-01,
488,1.64e-01,-2.00e-01,
489,1.60e-01,6.00e-01,
490,1.64e-01,4.00e-01,
491,1.64e-01,4.00e-01,
492,1.60e-01,4.00e-01,
493,1.60e-01,4.00e-01,
494,1.64e-01,6.00e-01,
495,1.68e-01,4.00e-01,
496,1.60e-01,-2.25e-05,
497,1.64e-01,4.00e-01,
498,1.60e-01,4.00e-01,
499,1.68e-01,4.00e-01,
500,1.64e-01,-2.25e-05,
501,1.64e-01,4.00e-01,
502,1.60e-01,4.00e-01,
503,1.68e-01,4.00e-01,
504,1.64e-01,-2.25e-05,
505,1.64e-01,4.00e-01,
506,1.60e-01,6.00e-01,
507,1.68e-01,4.00e-01,
508,1.64e-01,-2.25e-05,
509,1.64e-01,4.00e-01,
510,1.64e-01,4.00e-01,
511,1.68e-01,4.00e-01,
512,1.60e-01,4.00e-01,
513,1.64e-01,4.00e-01,
514,1.64e-01,6.00e-01,
515,1.72e-01,4.00e-01,
516,1.64e-01,4.00e-01,
517,1.64e-01,4.00e-01,
518,1.64e-01,4.00e-01,
519,1.68e-01,4.00e-01,
520,1.64e-01,-2.25e-05,
521,1.68e-01,4.00e-01,
522,1.60e-01,6.00e-01,
523,1.68e-01,4.00e-01,
524,1.64e-01,-2.25e-05,
525,1.68e-01,4.00e-01,
526,1.64e-01,4.00e-01,
527,1.68e-01,4.00e-01,
528,1.64e-01,-2.25e-05,
529,1.68e-01,4.00e-01,
530,1.64e-01,4.00e-01,
531,1.72e-01,4.00e-01,
532,1.64e-01,-2.25e-05,
533,1.64e-01,4.00e-01,
534,1.64e-01,4.00e-01,
535,1.72e-01,4.00e-01,
536,1.64e-01,4.00e-01,
537,1.68e-01,4.00e-01,
538,1.64e-01,4.00e-01,
539,1.72e-01,4.00e-01,
540,1.68e-01,-2.25e-05,
541,1.68e-01,4.00e-01,
542,1.64e-01,4.00e-01,
543,1.68e-01,4.00e-01,
544,1.64e-01,-2.25e-05,
545,1.68e-01,4.00e-01,
546,1.68e-01,4.00e-01,
547,1.72e-01,4.00e-01,
548,1.64e-01,-2.25e-05,
549,1.68e-01,4.00e-01,
550,1.68e-01,4.00e-01,
551,1.72e-01,6.00e-01,
552,1.64e-01,-2.25e-05,
553,1.68e-01,4.00e-01,
554,1.64e-01,4.00e-01,
555,1.72e-01,4.00e-01,
556,1.68e-01,4.00e-01,
557,1.68e-01,4.00e-01,
558,1.64e-01,4.00e-01,
559,1.72e-01,6.00e-01,
560,1.68e-01,-2.25e-05,
561,1.68e-01,4.00e-01,
562,1.68e-01,4.00e-01,
563,1.72e-01,4.00e-01,
564,1.64e-01,4.00e-01,
565,1.72e-01,4.00e-01,
566,1.68e-01,4.00e-01,
567,1.76e-01,4.00e-01,
568,1.68e-01,-2.25e-05,
569,1.68e-01,4.00e-01,
570,1.68e-01,6.00e-01,
571,1.76e-01,4.00e-01,
572,1.68e-01,-2.25e-05,
573,1.68e-01,4.00e-01,
574,1.68e-01,4.00e-01,
575,1.72e-01,4.00e-01,
576,1.68e-01,4.00e-01,
577,1.72e-01,4.00e-01,
578,1.68e-01,6.00e-01,
579,1.76e-01,4.00e-01,
580,1.68e-01,4.00e-01,
581,1.68e-01,4.00e-01,
582,1.68e-01,4.00e-01,
583,1.76e-01,4.00e-01,
584,1.68e-01,-2.25e-05,
585,1.72e-01,4.00e-01,
586,1.68e-01,6.00e-01,
587,1.76e-01,4.00e-01,
588,1.68e-01,-2.25e-05,
589,1.72e-01,4.00e-01,
590,1.72e-01,4.00e-01,
591,1.76e-01,6.00e-01,
592,1.72e-01,-2.25e-05,
593,1.72e-01,4.00e-01,
594,1.72e-01,6.00e-01,
595,1.76e-01,4.00e-01,
596,1.72e-01,4.00e-01,
597,1.72e-01,4.00e-01,
598,1.68e-01,4.00e-01,
599,1.76e-01,4.00e-01,
600,1.72e-01,-2.25e-05,
601,1.72e-01,4.00e-01,
602,1.72e-01,4.00e-01,
603,1.76e-01,4.00e-01,
604,1.72e-01,4.00e-01,
605,1.72e-01,4.00e-01,
606,1.72e-01,4.00e-01,
607,1.76e-01,4.00e-01,
608,1.68e-01,-2.25e-05,
609,1.76e-01,4.00e-01,
610,1.72e-01,6.00e-01,
611,1.84e-01,6.00e-01,
612,1.72e-01,-2.25e-05,
613,1.72e-01,4.00e-01,
614,1.72e-01,4.00e-01,
615,1.76e-01,4.00e-01,
616,1.76e-01,-2.25e-05,
617,1.76e-01,4.00e-01,
618,1.72e-01,4.00e-01,
619,1.84e-01,4.00e-01,
620,1.72e-01,-2.25e-05,
621,1.76e-01,4.00e-01,
622,1.72e-01,4.00e-01,
623,1.84e-01,6.00e-01,
624,1.72e-01,-2.25e-05,
625,1.76e-01,4.00e-01,
626,1.72e-01,6.00e-01,
627,1.84e-01,4.00e-01,
628,1.76e-01,4.00e-01,
629,1.72e-01,4.00e-01,
630,1.72e-01,4.00e-01,
631,1.84e-01,6.00e-01,
632,1.72e-01,-2.25e-05,
633,1.76e-01,4.00e-01,
634,1.72e-01,4.00e-01,
635,1.88e-01,6.00e-01,
636,1.76e-01,-2.25e-05,
637,1.76e-01,4.00e-01,
638,1.72e-01,4.00e-01,
639,1.84e-01,4.00e-01,
640,1.76e-01,-2.25e-05,
641,1.76e-01,4.00e-01,
642,1.76e-01,6.00e-01,
643,1.84e-01,4.00e-01,
644,1.76e-01,4.00e-01,
645,1.76e-01,4.00e-01,
646,1.76e-01,6.00e-01,
647,1.88e-01,6.00e-01,
648,1.76e-01,-2.25e-05,
649,1.76e-01,4.00e-01,
650,1.76e-01,6.00e-01,
651,1.88e-01,4.00e-01,
652,1.76e-01,4.00e-01,
653,1.76e-01,4.00e-01,
654,1.76e-01,4.00e-01,
655,1.84e-01,6.00e-01,
656,1.76e-01,4.00e-01,
657,1.84e-01,4.00e-01,
658,1.76e-01,6.00e-01,
659,1.84e-01,4.00e-01,
660,1.76e-01,-2.25e-05,
661,1.84e-01,4.00e-01,
662,1.76e-01,4.00e-01,
663,1.84e-01,4.00e-01,
664,1.76e-01,-2.25e-05,
665,1.84e-01,4.00e-01,
666,1.76e-01,6.00e-01,
667,1.92e-01,4.00e-01,
668,1.84e-01,-2.25e-05,
669,1.76e-01,4.00e-01,
670,1.76e-01,4.00e-01,
671,1.88e-01,4.00e-01,
672,1.84e-01,-2.25e-05,
673,1.84e-01,4.00e-01,
674,1.76e-01,6.00e-01,
675,1.88e-01,4.00e-01,
676,1.76e-01,4.00e-01,
677,1.84e-01,4.00e-01,
678,1.76e-01,4.00e-01,
679,1.88e-01,4.00e-01,
680,1.76e-01,-2.25e-05,
681,1.84e-01,4.00e-01,
682,1.84e-01,6.00e-01,
683,1.88e-01,6.00e-01,
684,1.84e-01,4.00e-01,
685,1.84e-01,-2.25e-05,
686,1.76e-01,6.00e-01,
687,1.88e-01,6.00e-01,
688,1.88e-01,-2.25e-05,
689,1.84e-01,4.00e-01,
690,1.84e-01,4.00e-01,
691,1.88e-01,4.00e-01,
692,1.76e-01,4.00e-01,
693,1.84e-01,4.00e-01,
694,1.76e-01,6.00e-01,
695,1.92e-01,4.00e-01,
696,1.76e-01,4.00e-01,
697,1.84e-01,4.00e-01,
698,1.84e-01,6.00e-01,
699,1.88e-01,4.00e-01,
700,1.88e-01,-2.25e-05,
701,1.84e-01,4.00e-01,
702,1.84e-01,4.00e-01,
703,1.88e-01,6.00e-01,
704,1.84e-01,-2.25e-05,
705,1.88e-01,4.00e-01,
706,1.84e-01,6.00e-01,
707,1.92e-01,4.00e-01,
708,1.84e-01,4.00e-01,
709,1.84e-01,4.00e-01,
710,1.84e-01,4.00e-01,
711,1.92e-01,4.00e-01,
712,1.84e-01,-2.25e-05,
713,1.88e-01,4.00e-01,
714,1.84e-01,4.00e-01,
715,1.92e-01,4.00e-01,
716,1.84e-01,4.00e-01,
717,1.88e-01,4.00e-01,
718,1.84e-01,4.00e-01,
719,1.92e-01,6.00e-01,
720,1.84e-01,-2.25e-05,
721,1.88e-01,4.00e-01,
722,1.84e-01,6.00e-01,
723,1.92e-01,4.00e-01,
724,1.88e-01,-2.25e-05,
725,1.84e-01,4.00e-01,
726,1.88e-01,4.00e-01,
727,1.92e-01,4.00e-01,
728,1.88e-01,-2.25e-05,
729,1.88e-01,4.00e-01,
730,1.84e-01,6.00e-01,
731,1.92e-01,4.00e-01,
732,1.88e-01,-2.25e-05,
733,1.92e-01,4.00e-01,
734,1.88e-01,4.00e-01,
735,1.92e-01,4.00e-01,
736,1.88e-01,4.00e-01,
737,1.88e-01,4.00e-01,
738,1.88e-01,6.00e-01,
739,1.96e-01,4.00e-01,
740,1.88e-01,-2.25e-05,
741,1.88e-01,4.00e-01,
742,1.88e-01,4.00e-01,
743,1.96e-01,6.00e-01,
744,1.88e-01,-2.25e-05,
745,1.88e-01,4.00e-01,
746,1.84e-01,6.00e-01,
747,1.96e-01,4.00e-01,
748,1.92e-01,-2.25e-05,
749,1.92e-01,4.00e-01,
750,1.88e-01,4.00e-01,
751,1.92e-01,6.00e-01,
752,1.88e-01,-2.25e-05,
753,1.92e-01,4.00e-01,
754,1.92e-01,6.00e-01,
755,1.92e-01,4.00e-01,
756,1.88e-01,-2.25e-05,
757,1.88e-01,4.00e-01,
758,1.88e-01,4.00e-01,
759,1.96e-01,6.00e-01,
760,1.88e-01,4.00e-01,
761,1.92e-01,4.00e-01,
762,1.88e-01,4.00e-01,
763,1.96e-01,4.00e-01,
764,1.92e-01,-2.25e-05,
765,1.92e-01,4.00e-01,
766,1.88e-01,4.00e-01,
767,1.96e-01,6.00e-01,
768,1.88e-01,-2.25e-05,
769,1.92e-01,4.00e-01,
770,1.88e-01,6.00e-01,
771,1.96e-01,4.00e-01,
772,1.92e-01,4.00e-01,
773,1.92e-01,6.00e-01,
774,1.92e-01,6.00e-01,
775,1.96e-01,4.00e-01,
776,1.88e-01,-2.25e-05,
777,1.92e-01,4.00e-01,
778,1.92e-01,6.00e-01,
779,1.96e-01,4.00e-01,
780,1.92e-01,-2.25e-05,
781,1.88e-01,4.00e-01,
782,1.76e-01,4.00e-01,
783,1.72e-01,4.00e-01,
784,1.52e-01,-2.25e-05,
785,1.28e-01,4.00e-01,
786,1.08e-01,4.00e-01,
787,1.04e-01,-2.25e-05,
788,1.00e-01,-2.00e-01,
789,1.12e-01,-2.25e-05,
790,1.28e-01,-2.25e-05,
791,1.48e-01,4.00e-01,
792,1.52e-01,-2.25e-05,
793,1.64e-01,4.00e-01,
794,1.64e-01,4.00e-01,
795,1.72e-01,4.00e-01,
796,1.68e-01,4.00e-01,
797,1.68e-01,4.00e-01,
798,1.68e-01,6.00e-01,
799,1.72e-01,4.00e-01,
800,1.64e-01,-2.25e-05,
801,1.64e-01,4.00e-01,
802,1.64e-01,6.00e-01,
803,1.76e-01,4.00e-01,
804,1.72e-01,-2.25e-05,
805,1.76e-01,4.00e-01,
806,1.76e-01,4.00e-01,
807,1.84e-01,4.00e-01,
808,1.76e-01,-2.25e-05,
809,1.76e-01,4.00e-01,
810,1.72e-01,6.00e-01,
811,1.84e-01,4.00e-01,
812,1.72e-01,-2.25e-05,
813,1.72e-01,4.00e-01,
814,1.76e-01,4.00e-01,
815,1.88e-01,4.00e-01,
816,1.76e-01,4.00e-01,
817,1.84e-01,4.00e-01,
818,1.76e-01,4.00e-01,
819,1.88e-01,4.00e-01,
820,1.84e-01,-2.25e-05,
821,1.76e-01,4.00e-01,
822,1.76e-01,6.00e-01,
823,1.84e-01,4.00e-01,
824,1.84e-01,-2.25e-05,
825,1.84e-01,4.00e-01,
826,1.84e-01,6.00e-01,
827,1.92e-01,4.00e-01,
828,1.84e-01,4.00e-01,
829,1.88e-01,4.00e-01,
830,1.84e-01,4.00e-01,
831,1.88e-01,4.00e-01,
832,1.84e-01,4.00e-01,
833,1.84e-01,4.00e-01,
834,1.84e-01,4.00e-01,
835,1.92e-01,4.00e-01,
836,1.88e-01,4.00e-01,
837,1.88e-01,4.00e-01,
838,1.88e-01,4.00e-01,
839,1.92e-01,4.00e-01,
840,1.88e-01,-2.25e-05,
841,1.92e-01,4.00e-01,
842,1.88e-01,4.00e-01,
843,1.92e-01,6.00e-01,
844,1.84e-01,-2.25e-05,
845,1.88e-01,4.00e-01,
846,1.88e-01,4.00e-01,
847,1.92e-01,4.00e-01,
848,1.88e-01,-2.25e-05,
849,1.92e-01,4.00e-01,
850,1.92e-01,6.00e-01,
851,1.96e-01,4.00e-01,
852,1.88e-01,4.00e-01,
853,1.88e-01,4.00e-01,
854,1.88e-01,4.00e-01,
855,1.96e-01,6.00e-01,
856,1.92e-01,-2.25e-05,
857,1.92e-01,4.00e-01,
858,1.88e-01,6.00e-01,
859,1.96e-01,6.00e-01,
860,1.92e-01,4.00e-01,
861,1.96e-01,6.00e-01,
862,1.88e-01,4.00e-01,
