Lab9/data2/off1_9.csv

X,CH1,CH2,Start,Increment,
Sequence,Volt,Volt,-4.190000e-05,2.000000e-09
0,1.48e-01,4.00e-01,
1,1.52e-01,4.00e-01,
2,1.48e-01,-2.25e-05,
3,1.52e-01,4.00e-01,
4,1.48e-01,4.00e-01,
5,1.52e-01,6.00e-01,
6,1.48e-01,-2.25e-05,
7,1.48e-01,4.00e-01,
8,1.48e-01,4.00e-01,
9,1.52e-01,4.00e-01,
10,1.44e-01,-2.25e-05,
11,1.52e-01,4.00e-01,
12,1.52e-01,4.00e-01,
13,1.56e-01,4.00e-01,
14,1.48e-01,-2.25e-05,
15,1.48e-01,4.00e-01,
16,1.48e-01,4.00e-01,
17,1.56e-01,4.00e-01,
18,1.52e-01,-2.25e-05,
19,1.52e-01,-2.25e-05,
20,1.44e-01,6.00e-01,
21,1.56e-01,4.00e-01,
22,1.52e-01,4.00e-01,
23,1.52e-01,4.00e-01,
24,1.48e-01,4.00e-01,
25,1.56e-01,4.00e-01,
26,1.48e-01,-2.25e-05,
27,1.52e-01,4.00e-01,
28,1.48e-01,4.00e-01,
29,1.56e-01,4.00e-01,
30,1.48e-01,4.00e-01,
31,1.52e-01,-2.25e-05,
32,1.48e-01,4.00e-01,
33,1.56e-01,4.00e-01,
34,1.48e-01,-2.25e-05,
35,1.52e-01,4.00e-01,
36,1.52e-01,4.00e-01,
37,1.56e-01,4.00e-01,
38,1.48e-01,-2.25e-05,
39,1.52e-01,-2.25e-05,
40,1.48e-01,6.00e-01,
41,1.56e-01,4.00e-01,
42,1.56e-01,-2.00e-01,
43,1.52e-01,6.00e-01,
44,1.52e-01,4.00e-01,
45,1.56e-01,6.00e-01,
46,1.52e-01,-2.25e-05,
47,1.52e-01,-2.25e-05,
48,1.52e-01,6.00e-01,
49,1.56e-01,4.00e-01,
50,1.48e-01,-2.25e-05,
51,1.52e-01,-2.25e-05,
52,1.52e-01,6.00e-01,
53,1.60e-01,4.00e-01,
54,1.52e-01,4.00e-01,
55,1.52e-01,4.00e-01,
56,1.52e-01,4.00e-01,
57,1.60e-01,4.00e-01,
58,1.52e-01,-2.25e-05,
59,1.56e-01,4.00e-01,
60,1.52e-01,6.00e-01,
61,1.60e-01,4.00e-01,
62,1.56e-01,4.00e-01,
63,1.56e-01,4.00e-01,
64,1.52e-01,4.00e-01,
65,1.56e-01,4.00e-01,
66,1.56e-01,-2.25e-05,
67,1.56e-01,4.00e-01,
68,1.52e-01,4.00e-01,
69,1.56e-01,6.00e-01,
70,1.52e-01,-2.25e-05,
71,1.56e-01,4.00e-01,
72,1.56e-01,4.00e-01,
73,1.60e-01,4.00e-01,
74,1.56e-01,-2.25e-05,
75,1.56e-01,4.00e-01,
76,1.52e-01,4.00e-01,
77,1.64e-01,4.00e-01,
78,1.60e-01,-2.25e-05,
79,1.56e-01,4.00e-01,
80,1.52e-01,4.00e-01,
81,1.60e-01,4.00e-01,
82,1.56e-01,-2.25e-05,
83,1.60e-01,4.00e-01,
84,1.56e-01,4.00e-01,
85,1.56e-01,4.00e-01,
86,1.52e-01,-2.25e-05,
87,1.56e-01,4.00e-01,
88,1.56e-01,4.00e-01,
89,1.64e-01,4.00e-01,
90,1.56e-01,-2.25e-05,
91,1.56e-01,4.00e-01,
92,1.56e-01,6.00e-01,
93,1.64e-01,4.00e-01,
94,1.56e-01,-2.25e-05,
95,1.56e-01,4.00e-01,
96,1.56e-01,4.00e-01,
97,1.64e-01,6.00e-01,
98,1.60e-01,-2.25e-05,
99,1.56e-01,4.00e-01,
100,1.52e-01,6.00e-01,
101,1.60e-01,4.00e-01,
102,1.56e-01,-2.25e-05,
103,1.60e-01,4.00e-01,
104,1.56e-01,4.00e-01,
105,1.60e-01,4.00e-01,
106,1.56e-01,-2.25e-05,
107,1.56e-01,4.00e-01,
108,1.56e-01,6.00e-01,
109,1.64e-01,6.00e-01,
110,1.60e-01,-2.25e-05,
111,1.60e-01,4.00e-01,
112,1.56e-01,4.00e-01,
113,1.64e-01,4.00e-01,
114,1.60e-01,-2.25e-05,
115,1.60e-01,4.00e-01,
116,1.60e-01,6.00e-01,
117,1.64e-01,4.00e-01,
118,1.56e-01,-2.25e-05,
119,1.60e-01,4.00e-01,
120,1.60e-01,4.00e-01,
121,1.64e-01,4.00e-01,
122,1.60e-01,-2.25e-05,
123,1.60e-01,4.00e-01,
124,1.56e-01,4.00e-01,
125,1.64e-01,4.00e-01,
126,1.60e-01,-2.25e-05,
127,1.60e-01,4.00e-01,
128,1.60e-01,4.00e-01,
129,1.64e-01,6.00e-01,
130,1.56e-01,-2.25e-05,
131,1.60e-01,4.00e-01,
132,1.60e-01,6.00e-01,
133,1.64e-01,6.00e-01,
134,1.60e-01,-2.25e-05,
135,1.60e-01,4.00e-01,
136,1.60e-01,4.00e-01,
137,1.64e-01,4.00e-01,
138,1.60e-01,-2.25e-05,
139,1.64e-01,4.00e-01,
140,1.60e-01,4.00e-01,
141,1.68e-01,4.00e-01,
142,1.60e-01,4.00e-01,
143,1.60e-01,4.00e-01,
144,1.60e-01,4.00e-01,
145,1.64e-01,4.00e-01,
146,1.64e-01,-2.25e-05,
147,1.64e-01,4.00e-01,
148,1.64e-01,4.00e-01,
149,1.68e-01,4.00e-01,
150,1.60e-01,-2.25e-05,
151,1.64e-01,4.00e-01,
152,1.60e-01,4.00e-01,
153,1.64e-01,4.00e-01,
154,1.64e-01,-2.25e-05,
155,1.64e-01,4.00e-01,
156,1.60e-01,6.00e-01,
157,1.68e-01,4.00e-01,
158,1.64e-01,-2.25e-05,
159,1.64e-01,4.00e-01,
160,1.64e-01,4.00e-01,
161,1.68e-01,4.00e-01,
162,1.60e-01,-2.25e-05,
163,1.64e-01,4.00e-01,
164,1.64e-01,4.00e-01,
165,1.68e-01,6.00e-01,
166,1.64e-01,4.00e-01,
167,1.64e-01,4.00e-01,
168,1.60e-01,4.00e-01,
169,1.68e-01,4.00e-01,
170,1.64e-01,-2.25e-05,
171,1.64e-01,4.00e-01,
172,1.64e-01,4.00e-01,
173,1.68e-01,4.00e-01,
174,1.64e-01,4.00e-01,
175,1.64e-01,4.00e-01,
176,1.64e-01,4.00e-01,
177,1.68e-01,4.00e-01,
178,1.64e-01,-2.25e-05,
179,1.68e-01,4.00e-01,
180,1.60e-01,6.00e-01,
181,1.68e-01,4.00e-01,
182,1.64e-01,-2.25e-05,
183,1.68e-01,4.00e-01,
184,1.64e-01,6.00e-01,
185,1.72e-01,4.00e-01,
186,1.64e-01,-2.25e-05,
187,1.64e-01,4.00e-01,
188,1.64e-01,6.00e-01,
189,1.72e-01,4.00e-01,
190,1.68e-01,-2.25e-05,
191,1.64e-01,4.00e-01,
192,1.64e-01,4.00e-01,
193,1.68e-01,4.00e-01,
194,1.64e-01,-2.25e-05,
195,1.68e-01,4.00e-01,
196,1.64e-01,4.00e-01,
197,1.68e-01,4.00e-01,
198,1.68e-01,-2.25e-05,
199,1.68e-01,4.00e-01,
200,1.68e-01,4.00e-01,
201,1.72e-01,4.00e-01,
202,1.64e-01,-2.25e-05,
203,1.64e-01,4.00e-01,
204,1.68e-01,6.00e-01,
205,1.76e-01,4.00e-01,
206,1.64e-01,-2.25e-05,
207,1.68e-01,4.00e-01,
208,1.64e-01,4.00e-01,
209,1.72e-01,4.00e-01,
210,1.68e-01,-2.25e-05,
211,1.68e-01,4.00e-01,
212,1.64e-01,6.00e-01,
213,1.72e-01,4.00e-01,
214,1.68e-01,-2.25e-05,
215,1.68e-01,4.00e-01,
216,1.68e-01,4.00e-01,
217,1.72e-01,6.00e-01,
218,1.64e-01,-2.25e-05,
219,1.68e-01,4.00e-01,
220,1.68e-01,6.00e-01,
221,1.76e-01,4.00e-01,
222,1.68e-01,-2.25e-05,
223,1.68e-01,4.00e-01,
224,1.68e-01,4.00e-01,
225,1.72e-01,6.00e-01,
226,1.72e-01,4.00e-01,
227,1.68e-01,4.00e-01,
228,1.68e-01,6.00e-01,
229,1.76e-01,4.00e-01,
230,1.68e-01,4.00e-01,
231,1.72e-01,4.00e-01,
232,1.68e-01,4.00e-01,
233,1.76e-01,6.00e-01,
234,1.68e-01,-2.25e-05,
235,1.68e-01,4.00e-01,
236,1.68e-01,6.00e-01,
237,1.76e-01,4.00e-01,
238,1.68e-01,4.00e-01,
239,1.72e-01,4.00e-01,
240,1.68e-01,4.00e-01,
241,1.76e-01,4.00e-01,
242,1.72e-01,-2.25e-05,
243,1.72e-01,6.00e-01,
244,1.72e-01,4.00e-01,
245,1.76e-01,4.00e-01,
246,1.68e-01,4.00e-01,
247,1.72e-01,4.00e-01,
248,1.68e-01,4.00e-01,
249,1.84e-01,4.00e-01,
250,1.68e-01,-2.25e-05,
251,1.72e-01,4.00e-01,
252,1.68e-01,6.00e-01,
253,1.84e-01,6.00e-01,
254,1.72e-01,-2.25e-05,
255,1.72e-01,4.00e-01,
256,1.68e-01,4.00e-01,
257,1.76e-01,4.00e-01,
258,1.72e-01,-2.25e-05,
259,1.76e-01,4.00e-01,
260,1.72e-01,6.00e-01,
261,1.76e-01,4.00e-01,
262,1.72e-01,4.00e-01,
263,1.72e-01,4.00e-01,
264,1.72e-01,4.00e-01,
265,1.76e-01,6.00e-01,
266,1.72e-01,-2.25e-05,
267,1.72e-01,4.00e-01,
268,1.72e-01,6.00e-01,
269,1.84e-01,6.00e-01,
270,1.72e-01,4.00e-01,
271,1.72e-01,4.00e-01,
272,1.72e-01,6.00e-01,
273,1.76e-01,4.00e-01,
274,1.72e-01,-2.25e-05,
275,1.72e-01,4.00e-01,
276,1.72e-01,4.00e-01,
277,1.84e-01,6.00e-01,
278,1.72e-01,-2.25e-05,
279,1.76e-01,4.00e-01,
280,1.72e-01,4.00e-01,
281,1.84e-01,4.00e-01,
282,1.72e-01,-2.25e-05,
283,1.76e-01,4.00e-01,
284,1.72e-01,6.00e-01,
285,1.84e-01,4.00e-01,
286,1.76e-01,4.00e-01,
287,1.76e-01,4.00e-01,
288,1.72e-01,4.00e-01,
289,1.76e-01,6.00e-01,
290,1.72e-01,4.00e-01,
291,1.76e-01,4.00e-01,
292,1.76e-01,6.00e-01,
293,1.84e-01,6.00e-01,
294,1.72e-01,4.00e-01,
295,1.76e-01,4.00e-01,
296,1.76e-01,4.00e-01,
297,1.84e-01,4.00e-01,
298,1.76e-01,4.00e-01,
299,1.76e-01,4.00e-01,
300,1.72e-01,6.00e-01,
301,1.84e-01,4.00e-01,
302,1.76e-01,-2.25e-05,
303,1.76e-01,4.00e-01,
304,1.76e-01,4.00e-01,
305,1.84e-01,4.00e-01,
306,1.76e-01,-2.25e-05,
307,1.76e-01,4.00e-01,
308,1.76e-01,6.00e-01,
309,1.88e-01,6.00e-01,
310,1.76e-01,4.00e-01,
311,1.84e-01,4.00e-01,
312,1.76e-01,4.00e-01,
313,1.84e-01,4.00e-01,
314,1.72e-01,-2.25e-05,
315,1.84e-01,4.00e-01,
316,1.76e-01,6.00e-01,
317,1.88e-01,4.00e-01,
318,1.76e-01,-2.25e-05,
319,1.76e-01,4.00e-01,
320,1.76e-01,6.00e-01,
321,1.88e-01,4.00e-01,
322,1.84e-01,-2.25e-05,
323,1.84e-01,4.00e-01,
324,1.76e-01,4.00e-01,
325,1.84e-01,4.00e-01,
326,1.76e-01,-2.25e-05,
327,1.84e-01,4.00e-01,
328,1.84e-01,4.00e-01,
329,1.88e-01,6.00e-01,
330,1.76e-01,-2.25e-05,
331,1.84e-01,4.00e-01,
332,1.84e-01,4.00e-01,
333,1.88e-01,4.00e-01,
334,1.76e-01,-2.25e-05,
335,1.84e-01,4.00e-01,
336,1.76e-01,4.00e-01,
337,1.88e-01,6.00e-01,
338,1.84e-01,-2.25e-05,
339,1.76e-01,4.00e-01,
340,1.76e-01,6.00e-01,
341,1.92e-01,6.00e-01,
342,1.84e-01,4.00e-01,
343,1.84e-01,4.00e-01,
344,1.76e-01,4.00e-01,
345,1.84e-01,4.00e-01,
346,1.84e-01,-2.25e-05,
347,1.84e-01,4.00e-01,
348,1.84e-01,6.00e-01,
349,1.88e-01,4.00e-01,
350,1.76e-01,4.00e-01,
351,1.84e-01,4.00e-01,
352,1.84e-01,4.00e-01,
353,1.92e-01,6.00e-01,
354,1.84e-01,-2.25e-05,
355,1.84e-01,4.00e-01,
356,1.84e-01,4.00e-01,
357,1.92e-01,6.00e-01,
358,1.84e-01,4.00e-01,
359,1.88e-01,4.00e-01,
360,1.84e-01,6.00e-01,
361,1.92e-01,4.00e-01,
362,1.84e-01,-2.25e-05,
363,1.88e-01,4.00e-01,
364,1.84e-01,4.00e-01,
365,1.92e-01,4.00e-01,
366,1.84e-01,4.00e-01,
367,1.88e-01,4.00e-01,
368,1.84e-01,4.00e-01,
369,1.92e-01,4.00e-01,
370,1.84e-01,4.00e-01,
371,1.88e-01,4.00e-01,
372,1.84e-01,4.00e-01,
373,1.92e-01,6.00e-01,
374,1.88e-01,-2.25e-05,
375,1.88e-01,4.00e-01,
376,1.84e-01,4.00e-01,
377,1.92e-01,4.00e-01,
378,1.84e-01,-2.25e-05,
379,1.88e-01,4.00e-01,
380,1.88e-01,6.00e-01,
381,1.92e-01,4.00e-01,
382,1.84e-01,-2.25e-05,
383,1.88e-01,4.00e-01,
384,1.84e-01,4.00e-01,
385,1.96e-01,4.00e-01,
386,1.88e-01,-2.25e-05,
387,1.88e-01,4.00e-01,
388,1.88e-01,6.00e-01,
389,1.92e-01,4.00e-01,
390,1.88e-01,4.00e-01,
391,1.92e-01,4.00e-01,
392,1.84e-01,6.00e-01,
393,1.92e-01,4.00e-01,
394,1.88e-01,-2.25e-05,
395,1.88e-01,4.00e-01,
396,1.88e-01,6.00e-01,
397,1.96e-01,6.00e-01,
398,1.88e-01,4.00e-01,
399,1.88e-01,4.00e-01,
400,1.88e-01,4.00e-01,
401,1.92e-01,6.00e-01,
402,1.92e-01,-2.25e-05,
403,1.92e-01,4.00e-01,
404,1.88e-01,4.00e-01,
405,1.92e-01,6.00e-01,
406,1.88e-01,-2.25e-05,
407,1.88e-01,6.00e-01,
408,1.88e-01,4.00e-01,
409,1.96e-01,6.00e-01,
410,1.88e-01,-2.25e-05,
411,1.92e-01,4.00e-01,
412,1.88e-01,6.00e-01,
413,1.96e-01,4.00e-01,
414,1.88e-01,-2.25e-05,
415,1.92e-01,4.00e-01,
416,1.88e-01,4.00e-01,
417,1.96e-01,6.00e-01,
418,1.88e-01,4.00e-01,
419,1.92e-01,4.00e-01,
420,1.88e-01,6.00e-01,
421,1.96e-01,4.00e-01,
422,1.88e-01,4.00e-01,
423,1.92e-01,4.00e-01,
424,1.88e-01,6.00e-01,
425,1.96e-01,4.00e-01,
426,1.92e-01,-2.25e-05,
427,1.92e-01,4.00e-01,
428,1.92e-01,4.00e-01,
429,2.00e-01,4.00e-01,
430,1.92e-01,-2.25e-05,
431,1.92e-01,4.00e-01,
432,1.88e-01,6.00e-01,
433,2.00e-01,6.00e-01,
434,1.92e-01,-2.25e-05,
435,1.92e-01,4.00e-01,
436,1.88e-01,6.00e-01,
437,1.96e-01,6.00e-01,
438,1.92e-01,4.00e-01,
439,1.96e-01,4.00e-01,
440,1.88e-01,6.00e-01,
441,1.96e-01,6.00e-01,
442,1.92e-01,-2.00e-01,
443,1.92e-01,6.00e-01,
444,1.96e-01,6.00e-01,
445,1.96e-01,4.00e-01,
446,1.92e-01,4.00e-01,
447,1.96e-01,4.00e-01,
448,1.92e-01,4.00e-01,
449,2.00e-01,4.00e-01,
450,1.92e-01,4.00e-01,
451,1.92e-01,4.00e-01,
452,1.92e-01,6.00e-01,
453,2.00e-01,4.00e-01,
454,1.92e-01,4.00e-01,
455,1.92e-01,4.00e-01,
456,1.88e-01,4.00e-01,
457,2.00e-01,4.00e-01,
458,1.96e-01,4.00e-01,
459,1.96e-01,4.00e-01,
460,1.92e-01,6.00e-01,
461,2.00e-01,4.00e-01,
462,1.96e-01,4.00e-01,
463,1.96e-01,4.00e-01,
464,1.96e-01,4.00e-01,
465,2.00e-01,6.00e-01,
466,1.92e-01,-2.25e-05,
467,1.96e-01,4.00e-01,
468,1.96e-01,6.00e-01,
469,2.04e-01,6.00e-01,
470,1.92e-01,4.00e-01,
471,1.96e-01,4.00e-01,
472,1.92e-01,6.00e-01,
473,2.04e-01,6.00e-01,
474,1.96e-01,-2.25e-05,
475,1.96e-01,4.00e-01,
476,1.92e-01,6.00e-01,
477,2.04e-01,6.00e-01,
478,1.96e-01,4.00e-01,
479,2.00e-01,4.00e-01,
480,1.96e-01,6.00e-01,
481,2.00e-01,4.00e-01,
482,1.96e-01,4.00e-01,
483,1.96e-01,4.00e-01,
484,1.96e-01,6.00e-01,
485,2.00e-01,6.00e-01,
486,1.96e-01,4.00e-01,
487,1.96e-01,4.00e-01,
488,1.96e-01,6.00e-01,
489,2.04e-01,6.00e-01,
490,1.96e-01,4.00e-01,
491,2.00e-01,4.00e-01,
492,1.96e-01,6.00e-01,
493,2.04e-01,4.00e-01,
494,1.96e-01,4.00e-01,
495,2.00e-01,4.00e-01,
496,1.96e-01,6.00e-01,
497,2.04e-01,6.00e-01,
498,1.96e-01,-2.25e-05,
499,1.96e-01,4.00e-01,
500,2.00e-01,4.00e-01,
501,2.04e-01,6.00e-01,
502,2.00e-01,4.00e-01,
503,1.96e-01,4.00e-01,
504,1.96e-01,4.00e-01,
505,2.04e-01,6.00e-01,
506,2.00e-01,-2.25e-05,
507,2.00e-01,4.00e-01,
508,1.96e-01,6.00e-01,
509,2.04e-01,4.00e-01,
510,1.96e-01,4.00e-01,
511,2.00e-01,4.00e-01,
512,2.00e-01,4.00e-01,
513,2.04e-01,4.00e-01,
514,2.00e-01,-2.25e-05,
515,2.00e-01,4.00e-01,
516,1.96e-01,6.00e-01,
517,2.04e-01,6.00e-01,
518,2.00e-01,-2.25e-05,
519,2.00e-01,4.00e-01,
520,1.96e-01,4.00e-01,
521,2.04e-01,6.00e-01,
522,2.00e-01,4.00e-01,
523,2.04e-01,4.00e-01,
524,2.00e-01,4.00e-01,
525,2.08e-01,6.00e-01,
526,1.96e-01,4.00e-01,
527,2.00e-01,6.00e-01,
528,2.00e-01,4.00e-01,
529,2.08e-01,6.00e-01,
530,2.00e-01,4.00e-01,
531,2.04e-01,4.00e-01,
532,2.00e-01,6.00e-01,
533,2.08e-01,4.00e-01,
534,2.00e-01,-2.25e-05,
535,2.04e-01,4.00e-01,
536,2.00e-01,4.00e-01,
537,2.08e-01,6.00e-01,
538,2.00e-01,4.00e-01,
539,2.04e-01,4.00e-01,
540,2.04e-01,6.00e-01,
541,2.08e-01,6.00e-01,
542,2.00e-01,4.00e-01,
543,2.00e-01,4.00e-01,
544,2.04e-01,4.00e-01,
545,2.08e-01,4.00e-01,
546,2.00e-01,4.00e-01,
547,2.04e-01,4.00e-01,
548,2.00e-01,6.00e-01,
549,2.08e-01,4.00e-01,
550,2.04e-01,4.00e-01,
551,2.04e-01,6.00e-01,
552,1.96e-01,6.00e-01,
553,2.08e-01,6.00e-01,
554,2.00e-01,-2.25e-05,
555,2.08e-01,4.00e-01,
556,2.00e-01,6.00e-01,
557,2.08e-01,4.00e-01,
558,2.04e-01,4.00e-01,
559,2.04e-01,4.00e-01,
560,2.04e-01,4.00e-01,
561,2.08e-01,4.00e-01,
562,2.00e-01,-2.25e-05,
563,2.04e-01,4.00e-01,
564,2.04e-01,4.00e-01,
565,2.12e-01,4.00e-01,
566,2.04e-01,4.00e-01,
567,2.04e-01,4.00e-01,
568,2.00e-01,4.00e-01,
569,2.12e-01,4.00e-01,
570,2.08e-01,4.00e-01,
571,2.08e-01,4.00e-01,
572,2.00e-01,6.00e-01,
573,2.08e-01,4.00e-01,
574,2.04e-01,4.00e-01,
575,2.08e-01,4.00e-01,
576,2.04e-01,6.00e-01,
577,2.12e-01,4.00e-01,
578,2.04e-01,4.00e-01,
579,2.08e-01,4.00e-01,
580,2.04e-01,4.00e-01,
581,2.12e-01,4.00e-01,
582,2.04e-01,4.00e-01,
583,2.04e-01,4.00e-01,
584,2.04e-01,4.00e-01,
585,2.12e-01,4.00e-01,
586,2.04e-01,-2.25e-05,
587,2.08e-01,4.00e-01,
588,2.04e-01,6.00e-01,
589,2.12e-01,6.00e-01,
590,2.08e-01,4.00e-01,
591,2.08e-01,4.00e-01,
592,2.04e-01,6.00e-01,
593,2.12e-01,6.00e-01,
594,2.08e-01,-2.25e-05,
595,2.08e-01,4.00e-01,
596,2.04e-01,4.00e-01,
597,2.12e-01,6.00e-01,
598,2.04e-01,4.00e-01,
599,2.08e-01,4.00e-01,
600,2.08e-01,6.00e-01,
601,2.12e-01,6.00e-01,
602,2.04e-01,4.00e-01,
603,2.04e-01,4.00e-01,
604,2.04e-01,6.00e-01,
605,2.16e-01,6.00e-01,
606,2.12e-01,4.00e-01,
607,2.08e-01,6.00e-01,
608,2.04e-01,4.00e-01,
609,2.12e-01,6.00e-01,
610,2.08e-01,4.00e-01,
611,2.12e-01,4.00e-01,
612,2.08e-01,6.00e-01,
613,2.16e-01,4.00e-01,
614,2.04e-01,4.00e-01,
615,2.08e-01,4.00e-01,
616,2.08e-01,4.00e-01,
617,2.16e-01,4.00e-01,
618,2.08e-01,4.00e-01,
619,2.12e-01,4.00e-01,
620,2.08e-01,6.00e-01,
621,2.16e-01,4.00e-01,
622,2.12e-01,4.00e-01,
623,2.12e-01,4.00e-01,
624,2.08e-01,4.00e-01,
625,2.16e-01,6.00e-01,
626,2.08e-01,-2.25e-05,
627,2.12e-01,4.00e-01,
628,2.08e-01,6.00e-01,
629,2.16e-01,6.00e-01,
630,2.08e-01,4.00e-01,
631,2.12e-01,4.00e-01,
632,2.08e-01,6.00e-01,
633,2.20e-01,6.00e-01,
634,2.08e-01,-2.25e-05,
635,2.08e-01,6.00e-01,
636,2.08e-01,6.00e-01,
637,2.16e-01,6.00e-01,
638,2.12e-01,4.00e-01,
639,2.16e-01,4.00e-01,
640,2.08e-01,6.00e-01,
641,2.16e-01,6.00e-01,
642,2.12e-01,-2.00e-01,
643,2.12e-01,6.00e-01,
644,2.12e-01,4.00e-01,
645,2.16e-01,6.00e-01,
646,2.08e-01,4.00e-01,
647,2.12e-01,4.00e-01,
648,2.08e-01,6.00e-01,
649,2.20e-01,6.00e-01,
650,2.12e-01,4.00e-01,
651,2.12e-01,4.00e-01,
652,2.12e-01,6.00e-01,
653,2.16e-01,6.00e-01,
654,2.12e-01,4.00e-01,
655,2.12e-01,4.00e-01,
656,2.12e-01,6.00e-01,
657,2.20e-01,4.00e-01,
658,2.12e-01,-2.25e-05,
659,2.12e-01,4.00e-01,
660,2.12e-01,6.00e-01,
661,2.20e-01,4.00e-01,
662,2.12e-01,4.00e-01,
663,2.12e-01,4.00e-01,
664,2.08e-01,4.00e-01,
665,2.20e-01,6.00e-01,
666,2.12e-01,-2.25e-05,
667,2.16e-01,4.00e-01,
668,2.12e-01,6.00e-01,
669,2.16e-01,6.00e-01,
670,2.12e-01,4.00e-01,
671,2.16e-01,4.00e-01,
672,2.12e-01,6.00e-01,
673,2.20e-01,6.00e-01,
674,2.12e-01,-2.25e-05,
675,2.12e-01,4.00e-01,
676,2.12e-01,6.00e-01,
677,2.20e-01,6.00e-01,
678,2.12e-01,4.00e-01,
679,2.12e-01,4.00e-01,
680,2.12e-01,6.00e-01,
681,2.20e-01,6.00e-01,
682,2.16e-01,-2.25e-05,
683,2.16e-01,4.00e-01,
684,2.12e-01,6.00e-01,
685,2.20e-01,6.00e-01,
686,2.16e-01,-2.25e-05,
687,2.16e-01,4.00e-01,
688,2.16e-01,4.00e-01,
689,2.20e-01,4.00e-01,
690,2.16e-01,4.00e-01,
691,2.16e-01,4.00e-01,
692,2.16e-01,6.00e-01,
693,2.20e-01,6.00e-01,
694,2.16e-01,4.00e-01,
695,2.16e-01,6.00e-01,
696,2.16e-01,6.00e-01,
697,2.24e-01,6.00e-01,
698,2.16e-01,4.00e-01,
699,2.20e-01,4.00e-01,
700,2.12e-01,4.00e-01,
701,2.20e-01,6.00e-01,
702,2.16e-01,4.00e-01,
703,2.20e-01,6.00e-01,
704,2.16e-01,6.00e-01,
705,2.20e-01,6.00e-01,
706,2.16e-01,-2.25e-05,
707,2.20e-01,4.00e-01,
708,2.16e-01,6.00e-01,
709,2.24e-01,6.00e-01,
710,2.16e-01,4.00e-01,
711,2.20e-01,4.00e-01,
712,2.16e-01,6.00e-01,
713,2.24e-01,4.00e-01,
714,2.16e-01,4.00e-01,
715,2.16e-01,4.00e-01,
716,2.16e-01,6.00e-01,
717,2.24e-01,6.00e-01,
718,2.16e-01,4.00e-01,
719,2.16e-01,6.00e-01,
720,2.16e-01,6.00e-01,
721,2.24e-01,6.00e-01,
722,2.20e-01,-2.25e-05,
723,2.20e-01,4.00e-01,
724,2.16e-01,6.00e-01,
725,2.20e-01,4.00e-01,
726,2.16e-01,4.00e-01,
727,2.20e-01,6.00e-01,
728,2.16e-01,6.00e-01,
729,2.24e-01,6.00e-01,
730,2.16e-01,4.00e-01,
731,2.20e-01,4.00e-01,
732,2.16e-01,4.00e-01,
733,2.24e-01,6.00e-01,
734,2.20e-01,6.00e-01,
735,2.16e-01,4.00e-01,
736,2.16e-01,4.00e-01,
737,2.24e-01,6.00e-01,
738,2.20e-01,-2.25e-05,
739,2.20e-01,4.00e-01,
740,2.16e-01,6.00e-01,
741,2.28e-01,4.00e-01,
742,2.20e-01,4.00e-01,
743,2.20e-01,4.00e-01,
744,2.20e-01,6.00e-01,
745,2.24e-01,6.00e-01,
746,2.20e-01,4.00e-01,
747,2.20e-01,4.00e-01,
748,2.20e-01,6.00e-01,
749,2.28e-01,6.00e-01,
750,2.20e-01,4.00e-01,
751,2.20e-01,4.00e-01,
752,2.16e-01,6.00e-01,
753,2.28e-01,6.00e-01,
754,2.24e-01,-2.25e-05,
755,2.24e-01,6.00e-01,
756,2.20e-01,6.00e-01,
757,2.28e-01,6.00e-01,
758,2.24e-01,-2.25e-05,
759,2.24e-01,4.00e-01,
760,2.20e-01,6.00e-01,
761,2.28e-01,4.00e-01,
762,2.20e-01,-2.25e-05,
763,2.24e-01,4.00e-01,
764,2.20e-01,6.00e-01,
765,2.32e-01,4.00e-01,
766,2.24e-01,4.00e-01,
767,2.20e-01,4.00e-01,
768,2.16e-01,6.00e-01,
769,2.28e-01,6.00e-01,
770,2.24e-01,4.00e-01,
771,2.24e-01,4.00e-01,
772,2.20e-01,6.00e-01,
773,2.28e-01,4.00e-01,
774,2.16e-01,4.00e-01,
775,2.08e-01,4.00e-01,
776,1.96e-01,6.00e-01,
777,1.76e-01,6.00e-01,
778,1.48e-01,-2.25e-05,
779,1.32e-01,-2.25e-05,
780,1.28e-01,4.00e-01,
781,1.40e-01,-2.25e-05,
782,1.48e-01,-2.25e-05,
783,1.64e-01,4.00e-01,
784,1.84e-01,4.00e-01,
785,2.00e-01,4.00e-01,
786,1.96e-01,4.00e-01,
787,2.04e-01,4.00e-01,
788,2.04e-01,6.00e-01,
789,2.12e-01,4.00e-01,
790,2.04e-01,4.00e-01,
791,2.04e-01,4.00e-01,
792,2.00e-01,6.00e-01,
793,2.04e-01,6.00e-01,
794,2.00e-01,-2.25e-05,
795,2.04e-01,4.00e-01,
796,2.08e-01,6.00e-01,
797,2.12e-01,6.00e-01,
798,2.08e-01,-2.25e-05,
799,2.12e-01,4.00e-01,
800,2.08e-01,6.00e-01,
801,2.16e-01,6.00e-01,
802,2.08e-01,4.00e-01,
803,2.08e-01,4.00e-01,
804,2.08e-01,4.00e-01,
805,2.12e-01,6.00e-01,
806,2.08e-01,-2.25e-05,
807,2.08e-01,4.00e-01,
808,2.12e-01,6.00e-01,
809,2.24e-01,6.00e-01,
810,2.16e-01,4.00e-01,
811,2.16e-01,4.00e-01,
812,2.08e-01,6.00e-01,
813,2.16e-01,4.00e-01,
814,2.16e-01,4.00e-01,
815,2.16e-01,6.00e-01,
816,2.12e-01,6.00e-01,
817,2.16e-01,6.00e-01,
818,2.12e-01,-2.25e-05,
819,2.20e-01,4.00e-01,
820,2.16e-01,6.00e-01,
821,2.24e-01,6.00e-01,
822,2.12e-01,4.00e-01,
823,2.16e-01,4.00e-01,
824,2.12e-01,6.00e-01,
825,2.24e-01,6.00e-01,
826,2.16e-01,4.00e-01,
827,2.16e-01,4.00e-01,
828,2.16e-01,6.00e-01,
829,2.28e-01,6.00e-01,
830,2.20e-01,4.00e-01,
831,2.20e-01,4.00e-01,
832,2.16e-01,6.00e-01,
833,2.28e-01,6.00e-01,
834,2.20e-01,-2.25e-05,
835,2.20e-01,4.00e-01,
836,2.16e-01,6.00e-01,
837,2.20e-01,6.00e-01,
838,2.16e-01,4.00e-01,
839,2.24e-01,4.00e-01,
840,2.16e-01,6.00e-01,
841,2.28e-01,6.00e-01,
842,2.20e-01,-2.00e-01,
843,2.20e-01,6.00e-01,
844,2.20e-01,6.00e-01,
845,2.24e-01,6.00e-01,
846,2.20e-01,4.00e-01,
847,2.20e-01,4.00e-01,
848,2.20e-01,6.00e-01,
849,2.28e-01,6.00e-01,
850,2.20e-01,4.00e-01,
851,2.20e-01,4.00e-01,
852,2.20e-01,6.00e-01,
853,2.28e-01,6.00e-01,
854,2.24e-01,4.00e-01,
855,2.24e-01,6.00e-01,
856,2.20e-01,6.00e-01,
857,2.28e-01,6.00e-01,
858,2.24e-01,4.00e-01,
859,2.24e-01,4.00e-01,
860,2.20e-01,6.00e-01,
861,2.28e-01,6.00e-01,
862,2.24e-01,4.00e-01,
863,2.24e-01,4.00e-01,
864,2.24e-01,6.00e-01,
