Lab9/data2/off2_3.csv

X,CH1,CH2,Start,Increment,
Sequence,Volt,Volt,-4.190000e-05,2.000000e-09
0,2.72e-01,1.20e+00,
1,2.88e-01,8.00e-01,
2,2.80e-01,8.00e-01,
3,2.80e-01,8.00e-01,
4,2.80e-01,1.20e+00,
5,2.88e-01,8.00e-01,
6,2.80e-01,-4.51e-05,
7,2.80e-01,8.00e-01,
8,2.80e-01,1.20e+00,
9,2.88e-01,8.00e-01,
10,2.80e-01,8.00e-01,
11,2.80e-01,8.00e-01,
12,2.72e-01,1.20e+00,
13,2.88e-01,1.20e+00,
14,2.88e-01,-4.51e-05,
15,2.80e-01,1.20e+00,
16,2.80e-01,8.00e-01,
17,2.80e-01,1.20e+00,
18,2.80e-01,8.00e-01,
19,2.80e-01,8.00e-01,
20,2.80e-01,1.20e+00,
21,2.88e-01,8.00e-01,
22,2.80e-01,8.00e-01,
23,2.80e-01,8.00e-01,
24,2.80e-01,1.20e+00,
25,2.88e-01,8.00e-01,
26,2.80e-01,8.00e-01,
27,2.80e-01,8.00e-01,
28,2.80e-01,1.20e+00,
29,2.88e-01,8.00e-01,
30,2.80e-01,8.00e-01,
31,2.80e-01,8.00e-01,
32,2.80e-01,1.20e+00,
33,2.88e-01,8.00e-01,
34,2.80e-01,8.00e-01,
35,2.80e-01,8.00e-01,
36,2.80e-01,8.00e-01,
37,2.88e-01,1.20e+00,
38,2.80e-01,8.00e-01,
39,2.80e-01,8.00e-01,
40,2.80e-01,1.20e+00,
41,2.88e-01,8.00e-01,
42,2.80e-01,8.00e-01,
43,2.80e-01,8.00e-01,
44,2.80e-01,1.20e+00,
45,2.88e-01,8.00e-01,
46,2.80e-01,8.00e-01,
47,2.88e-01,8.00e-01,
48,2.80e-01,1.20e+00,
49,2.88e-01,1.20e+00,
50,2.80e-01,8.00e-01,
51,2.80e-01,8.00e-01,
52,2.80e-01,1.20e+00,
53,2.88e-01,8.00e-01,
54,2.80e-01,8.00e-01,
55,2.80e-01,8.00e-01,
56,2.80e-01,1.20e+00,
57,2.88e-01,1.20e+00,
58,2.80e-01,8.00e-01,
59,2.88e-01,8.00e-01,
60,2.80e-01,1.20e+00,
61,2.88e-01,8.00e-01,
62,2.80e-01,8.00e-01,
63,2.80e-01,8.00e-01,
64,2.80e-01,1.20e+00,
65,2.88e-01,1.20e+00,
66,2.80e-01,8.00e-01,
67,2.88e-01,8.00e-01,
68,2.80e-01,8.00e-01,
69,2.88e-01,8.00e-01,
70,2.88e-01,8.00e-01,
71,2.88e-01,8.00e-01,
72,2.80e-01,1.20e+00,
73,2.88e-01,8.00e-01,
74,2.88e-01,8.00e-01,
75,2.88e-01,8.00e-01,
76,2.80e-01,1.20e+00,
77,2.96e-01,1.20e+00,
78,2.88e-01,8.00e-01,
79,2.88e-01,8.00e-01,
80,2.88e-01,1.20e+00,
81,2.96e-01,1.20e+00,
82,2.88e-01,8.00e-01,
83,2.88e-01,8.00e-01,
84,2.88e-01,1.20e+00,
85,2.96e-01,8.00e-01,
86,2.88e-01,8.00e-01,
87,2.88e-01,8.00e-01,
88,2.80e-01,8.00e-01,
89,2.96e-01,1.20e+00,
90,2.88e-01,8.00e-01,
91,2.88e-01,8.00e-01,
92,2.80e-01,1.20e+00,
93,2.96e-01,8.00e-01,
94,2.88e-01,-4.51e-05,
95,2.88e-01,8.00e-01,
96,2.88e-01,1.20e+00,
97,2.96e-01,1.20e+00,
98,2.88e-01,8.00e-01,
99,2.88e-01,8.00e-01,
100,2.88e-01,1.20e+00,
101,2.96e-01,8.00e-01,
102,2.88e-01,8.00e-01,
103,2.88e-01,8.00e-01,
104,2.88e-01,1.20e+00,
105,2.96e-01,8.00e-01,
106,2.88e-01,8.00e-01,
107,2.88e-01,1.20e+00,
108,2.88e-01,8.00e-01,
109,2.96e-01,1.20e+00,
110,2.88e-01,-4.51e-05,
111,2.88e-01,8.00e-01,
112,2.88e-01,1.20e+00,
113,2.96e-01,8.00e-01,
114,2.88e-01,8.00e-01,
115,2.88e-01,8.00e-01,
116,2.88e-01,1.20e+00,
117,2.96e-01,1.20e+00,
118,2.88e-01,8.00e-01,
119,2.88e-01,8.00e-01,
120,2.88e-01,1.20e+00,
121,2.96e-01,8.00e-01,
122,2.88e-01,8.00e-01,
123,2.88e-01,8.00e-01,
124,2.88e-01,1.20e+00,
125,2.96e-01,8.00e-01,
126,2.88e-01,8.00e-01,
127,2.88e-01,8.00e-01,
128,2.88e-01,1.20e+00,
129,2.96e-01,1.20e+00,
130,2.88e-01,8.00e-01,
131,2.96e-01,8.00e-01,
132,2.88e-01,1.20e+00,
133,2.96e-01,8.00e-01,
134,2.88e-01,8.00e-01,
135,2.96e-01,8.00e-01,
136,2.88e-01,8.00e-01,
137,2.96e-01,8.00e-01,
138,2.88e-01,8.00e-01,
139,2.88e-01,8.00e-01,
140,2.88e-01,8.00e-01,
141,3.04e-01,1.20e+00,
142,2.96e-01,8.00e-01,
143,2.88e-01,8.00e-01,
144,2.88e-01,1.20e+00,
145,2.96e-01,1.20e+00,
146,2.88e-01,8.00e-01,
147,2.88e-01,1.20e+00,
148,2.88e-01,1.20e+00,
149,2.96e-01,8.00e-01,
150,2.88e-01,8.00e-01,
151,2.96e-01,8.00e-01,
152,2.88e-01,1.20e+00,
153,2.96e-01,8.00e-01,
154,2.88e-01,8.00e-01,
155,2.88e-01,8.00e-01,
156,2.88e-01,1.20e+00,
157,2.96e-01,1.20e+00,
158,2.96e-01,8.00e-01,
159,2.96e-01,8.00e-01,
160,2.88e-01,1.20e+00,
161,3.04e-01,1.20e+00,
162,2.96e-01,8.00e-01,
163,2.96e-01,8.00e-01,
164,2.88e-01,1.20e+00,
165,2.96e-01,1.20e+00,
166,2.96e-01,-4.51e-05,
167,2.96e-01,8.00e-01,
168,2.96e-01,1.20e+00,
169,3.04e-01,8.00e-01,
170,2.96e-01,8.00e-01,
171,2.96e-01,8.00e-01,
172,2.88e-01,1.20e+00,
173,3.04e-01,8.00e-01,
174,2.96e-01,8.00e-01,
175,2.96e-01,8.00e-01,
176,2.88e-01,1.20e+00,
177,3.04e-01,8.00e-01,
178,2.96e-01,8.00e-01,
179,2.96e-01,8.00e-01,
180,2.96e-01,1.20e+00,
181,3.04e-01,1.20e+00,
182,2.96e-01,8.00e-01,
183,2.96e-01,8.00e-01,
184,2.96e-01,1.20e+00,
185,3.04e-01,8.00e-01,
186,2.96e-01,-4.51e-05,
187,2.96e-01,8.00e-01,
188,2.88e-01,1.20e+00,
189,3.04e-01,8.00e-01,
190,2.96e-01,8.00e-01,
191,3.04e-01,8.00e-01,
192,2.96e-01,1.20e+00,
193,3.04e-01,8.00e-01,
194,2.96e-01,8.00e-01,
195,2.96e-01,1.20e+00,
196,2.96e-01,1.20e+00,
197,3.04e-01,8.00e-01,
198,2.96e-01,8.00e-01,
199,2.96e-01,8.00e-01,
200,2.96e-01,1.20e+00,
201,3.04e-01,8.00e-01,
202,2.96e-01,8.00e-01,
203,2.96e-01,8.00e-01,
204,2.88e-01,1.20e+00,
205,3.04e-01,8.00e-01,
206,3.04e-01,-4.51e-05,
207,3.04e-01,8.00e-01,
208,2.96e-01,1.20e+00,
209,3.04e-01,8.00e-01,
210,2.96e-01,8.00e-01,
211,3.04e-01,8.00e-01,
212,2.96e-01,1.20e+00,
213,3.04e-01,1.20e+00,
214,3.04e-01,-4.51e-05,
215,2.96e-01,1.20e+00,
216,3.04e-01,8.00e-01,
217,3.04e-01,1.20e+00,
218,2.96e-01,8.00e-01,
219,2.96e-01,8.00e-01,
220,2.96e-01,1.20e+00,
221,3.04e-01,8.00e-01,
222,2.96e-01,8.00e-01,
223,3.04e-01,8.00e-01,
224,2.96e-01,1.20e+00,
225,3.04e-01,1.20e+00,
226,2.96e-01,8.00e-01,
227,2.96e-01,1.20e+00,
228,2.96e-01,8.00e-01,
229,3.04e-01,1.20e+00,
230,3.04e-01,8.00e-01,
231,3.04e-01,8.00e-01,
232,2.96e-01,1.20e+00,
233,3.12e-01,8.00e-01,
234,2.96e-01,8.00e-01,
235,3.04e-01,8.00e-01,
236,2.96e-01,1.20e+00,
237,3.04e-01,1.20e+00,
238,2.96e-01,8.00e-01,
239,3.04e-01,1.20e+00,
240,2.96e-01,8.00e-01,
241,3.12e-01,1.20e+00,
242,2.96e-01,8.00e-01,
243,3.04e-01,8.00e-01,
244,2.96e-01,1.20e+00,
245,3.04e-01,1.20e+00,
246,3.04e-01,8.00e-01,
247,3.04e-01,8.00e-01,
248,2.96e-01,1.20e+00,
249,3.12e-01,8.00e-01,
250,3.04e-01,8.00e-01,
251,3.04e-01,8.00e-01,
252,2.96e-01,1.20e+00,
253,3.12e-01,8.00e-01,
254,3.04e-01,8.00e-01,
255,3.04e-01,8.00e-01,
256,2.96e-01,1.20e+00,
257,3.12e-01,8.00e-01,
258,3.04e-01,8.00e-01,
259,3.04e-01,8.00e-01,
260,2.96e-01,8.00e-01,
261,3.12e-01,1.20e+00,
262,3.04e-01,8.00e-01,
263,3.04e-01,8.00e-01,
264,2.96e-01,1.20e+00,
265,3.12e-01,1.20e+00,
266,3.04e-01,8.00e-01,
267,3.04e-01,1.20e+00,
268,3.04e-01,1.20e+00,
269,3.12e-01,1.20e+00,
270,3.04e-01,-4.51e-05,
271,3.04e-01,8.00e-01,
272,2.96e-01,1.20e+00,
273,3.12e-01,8.00e-01,
274,3.04e-01,8.00e-01,
275,3.04e-01,8.00e-01,
276,2.96e-01,1.20e+00,
277,3.12e-01,1.20e+00,
278,3.04e-01,8.00e-01,
279,3.04e-01,8.00e-01,
280,3.04e-01,1.20e+00,
281,3.12e-01,8.00e-01,
282,2.96e-01,8.00e-01,
283,3.04e-01,8.00e-01,
284,3.04e-01,1.20e+00,
285,3.12e-01,1.20e+00,
286,3.04e-01,8.00e-01,
287,3.04e-01,1.20e+00,
288,3.04e-01,1.20e+00,
289,3.12e-01,1.20e+00,
290,3.04e-01,8.00e-01,
291,3.04e-01,8.00e-01,
292,3.04e-01,1.20e+00,
293,3.12e-01,1.20e+00,
294,3.04e-01,8.00e-01,
295,3.04e-01,8.00e-01,
296,3.04e-01,1.20e+00,
297,3.12e-01,1.20e+00,
298,3.04e-01,8.00e-01,
299,3.04e-01,8.00e-01,
300,3.04e-01,1.20e+00,
301,3.12e-01,1.20e+00,
302,3.04e-01,8.00e-01,
303,3.12e-01,8.00e-01,
304,3.04e-01,1.20e+00,
305,3.12e-01,1.20e+00,
306,3.04e-01,8.00e-01,
307,3.04e-01,1.20e+00,
308,3.04e-01,1.20e+00,
309,3.12e-01,8.00e-01,
310,3.04e-01,8.00e-01,
311,3.12e-01,8.00e-01,
312,3.04e-01,1.20e+00,
313,3.12e-01,1.20e+00,
314,3.04e-01,8.00e-01,
315,3.04e-01,8.00e-01,
316,3.04e-01,8.00e-01,
317,3.20e-01,1.20e+00,
318,3.04e-01,8.00e-01,
319,3.04e-01,8.00e-01,
320,3.04e-01,1.20e+00,
321,3.12e-01,1.20e+00,
322,3.04e-01,8.00e-01,
323,3.12e-01,8.00e-01,
324,3.04e-01,1.20e+00,
325,3.12e-01,8.00e-01,
326,3.04e-01,-4.51e-05,
327,3.12e-01,8.00e-01,
328,3.04e-01,1.20e+00,
329,3.12e-01,1.20e+00,
330,3.04e-01,8.00e-01,
331,3.04e-01,1.20e+00,
332,3.04e-01,8.00e-01,
333,3.20e-01,8.00e-01,
334,3.04e-01,8.00e-01,
335,3.12e-01,8.00e-01,
336,3.04e-01,1.20e+00,
337,3.20e-01,1.20e+00,
338,3.12e-01,8.00e-01,
339,3.12e-01,8.00e-01,
340,3.04e-01,1.20e+00,
341,3.20e-01,1.20e+00,
342,3.12e-01,8.00e-01,
343,3.12e-01,8.00e-01,
344,3.12e-01,1.20e+00,
345,3.20e-01,8.00e-01,
346,3.12e-01,8.00e-01,
347,3.12e-01,8.00e-01,
348,3.04e-01,1.20e+00,
349,3.20e-01,1.20e+00,
350,3.12e-01,8.00e-01,
351,3.12e-01,8.00e-01,
352,3.04e-01,1.20e+00,
353,3.20e-01,1.20e+00,
354,3.12e-01,8.00e-01,
355,3.12e-01,1.20e+00,
356,3.12e-01,1.20e+00,
357,3.20e-01,1.20e+00,
358,3.12e-01,8.00e-01,
359,3.12e-01,8.00e-01,
360,3.12e-01,1.20e+00,
361,3.20e-01,1.20e+00,
362,3.12e-01,8.00e-01,
363,3.12e-01,8.00e-01,
364,3.04e-01,1.20e+00,
365,3.20e-01,1.20e+00,
366,3.12e-01,8.00e-01,
367,3.12e-01,1.20e+00,
368,3.12e-01,1.20e+00,
369,3.20e-01,1.20e+00,
370,3.12e-01,8.00e-01,
371,3.12e-01,8.00e-01,
372,3.12e-01,1.20e+00,
373,3.20e-01,8.00e-01,
374,3.12e-01,8.00e-01,
375,3.12e-01,8.00e-01,
376,3.12e-01,1.20e+00,
377,3.20e-01,1.20e+00,
378,3.12e-01,8.00e-01,
379,3.12e-01,8.00e-01,
380,3.12e-01,1.20e+00,
381,3.20e-01,1.20e+00,
382,3.12e-01,8.00e-01,
383,3.12e-01,8.00e-01,
384,3.12e-01,1.20e+00,
385,3.20e-01,1.20e+00,
386,3.12e-01,8.00e-01,
387,3.12e-01,8.00e-01,
388,3.12e-01,1.20e+00,
389,3.20e-01,1.20e+00,
390,3.12e-01,8.00e-01,
391,3.12e-01,8.00e-01,
392,3.04e-01,1.20e+00,
393,3.20e-01,8.00e-01,
394,3.12e-01,8.00e-01,
395,3.20e-01,8.00e-01,
396,3.12e-01,8.00e-01,
397,3.20e-01,1.20e+00,
398,3.12e-01,8.00e-01,
399,3.20e-01,1.20e+00,
400,3.12e-01,1.20e+00,
401,3.20e-01,8.00e-01,
402,3.12e-01,8.00e-01,
403,3.12e-01,8.00e-01,
404,3.12e-01,1.20e+00,
405,3.20e-01,1.20e+00,
406,3.12e-01,8.00e-01,
407,3.20e-01,1.20e+00,
408,3.12e-01,1.20e+00,
409,3.20e-01,1.20e+00,
410,3.12e-01,8.00e-01,
411,3.20e-01,8.00e-01,
412,3.12e-01,1.20e+00,
413,3.20e-01,1.20e+00,
414,3.20e-01,-4.51e-05,
415,3.12e-01,1.20e+00,
416,3.20e-01,8.00e-01,
417,3.20e-01,1.20e+00,
418,3.12e-01,8.00e-01,
419,3.20e-01,8.00e-01,
420,3.12e-01,1.20e+00,
421,3.28e-01,1.20e+00,
422,3.12e-01,8.00e-01,
423,3.20e-01,8.00e-01,
424,3.12e-01,1.20e+00,
425,3.20e-01,1.20e+00,
426,3.12e-01,8.00e-01,
427,3.20e-01,8.00e-01,
428,3.20e-01,1.20e+00,
429,3.20e-01,1.20e+00,
430,3.12e-01,8.00e-01,
431,3.20e-01,8.00e-01,
432,3.12e-01,1.20e+00,
433,3.28e-01,8.00e-01,
434,3.20e-01,8.00e-01,
435,3.20e-01,8.00e-01,
436,3.12e-01,1.20e+00,
437,3.20e-01,1.20e+00,
438,3.20e-01,8.00e-01,
439,3.20e-01,1.20e+00,
440,3.12e-01,1.20e+00,
441,3.20e-01,1.20e+00,
442,3.12e-01,8.00e-01,
443,3.20e-01,8.00e-01,
444,3.20e-01,1.20e+00,
445,3.28e-01,1.20e+00,
446,3.20e-01,8.00e-01,
447,3.20e-01,8.00e-01,
448,3.20e-01,1.20e+00,
449,3.28e-01,1.20e+00,
450,3.20e-01,8.00e-01,
451,3.20e-01,1.20e+00,
452,3.12e-01,1.20e+00,
453,3.28e-01,1.20e+00,
454,3.20e-01,8.00e-01,
455,3.28e-01,1.20e+00,
456,3.20e-01,1.20e+00,
457,3.28e-01,1.20e+00,
458,3.20e-01,8.00e-01,
459,3.20e-01,1.20e+00,
460,3.20e-01,1.20e+00,
461,3.28e-01,8.00e-01,
462,3.20e-01,8.00e-01,
463,3.20e-01,8.00e-01,
464,3.20e-01,1.20e+00,
465,3.28e-01,1.20e+00,
466,3.20e-01,8.00e-01,
467,3.20e-01,1.20e+00,
468,3.20e-01,1.20e+00,
469,3.28e-01,8.00e-01,
470,3.20e-01,8.00e-01,
471,3.20e-01,8.00e-01,
472,3.20e-01,1.20e+00,
473,3.28e-01,8.00e-01,
474,3.20e-01,8.00e-01,
475,3.20e-01,8.00e-01,
476,3.20e-01,1.20e+00,
477,3.28e-01,1.20e+00,
478,3.20e-01,8.00e-01,
479,3.20e-01,8.00e-01,
480,3.20e-01,1.20e+00,
481,3.28e-01,1.20e+00,
482,3.20e-01,8.00e-01,
483,3.20e-01,8.00e-01,
484,3.20e-01,1.20e+00,
485,3.28e-01,1.20e+00,
486,3.20e-01,8.00e-01,
487,3.28e-01,8.00e-01,
488,3.20e-01,1.20e+00,
489,3.28e-01,1.20e+00,
490,3.20e-01,8.00e-01,
491,3.20e-01,1.20e+00,
492,3.20e-01,1.20e+00,
493,3.28e-01,8.00e-01,
494,3.20e-01,8.00e-01,
495,3.20e-01,8.00e-01,
496,3.20e-01,1.20e+00,
497,3.36e-01,1.20e+00,
498,3.20e-01,8.00e-01,
499,3.20e-01,1.20e+00,
500,3.20e-01,1.20e+00,
501,3.28e-01,1.20e+00,
502,3.20e-01,8.00e-01,
503,3.28e-01,1.20e+00,
504,3.20e-01,1.20e+00,
505,3.28e-01,1.20e+00,
506,3.20e-01,8.00e-01,
507,3.28e-01,1.20e+00,
508,3.20e-01,1.20e+00,
509,3.28e-01,8.00e-01,
510,3.20e-01,8.00e-01,
511,3.28e-01,1.20e+00,
512,3.28e-01,1.20e+00,
513,3.36e-01,1.20e+00,
514,3.28e-01,8.00e-01,
515,3.28e-01,1.20e+00,
516,3.20e-01,1.20e+00,
517,3.36e-01,1.20e+00,
518,3.28e-01,8.00e-01,
519,3.28e-01,8.00e-01,
520,3.20e-01,1.20e+00,
521,3.36e-01,1.20e+00,
522,3.28e-01,8.00e-01,
523,3.28e-01,8.00e-01,
524,3.20e-01,1.20e+00,
525,3.28e-01,1.20e+00,
526,3.28e-01,8.00e-01,
527,3.28e-01,8.00e-01,
528,3.20e-01,1.20e+00,
529,3.36e-01,1.20e+00,
530,3.20e-01,8.00e-01,
531,3.28e-01,8.00e-01,
532,3.28e-01,1.20e+00,
533,3.36e-01,1.20e+00,
534,3.28e-01,8.00e-01,
535,3.28e-01,8.00e-01,
536,3.28e-01,1.20e+00,
537,3.36e-01,1.20e+00,
538,3.28e-01,8.00e-01,
539,3.28e-01,1.20e+00,
540,3.20e-01,1.20e+00,
541,3.36e-01,8.00e-01,
542,3.28e-01,8.00e-01,
543,3.28e-01,8.00e-01,
544,3.28e-01,1.20e+00,
545,3.36e-01,1.20e+00,
546,3.28e-01,8.00e-01,
547,3.28e-01,1.20e+00,
548,3.28e-01,1.20e+00,
549,3.36e-01,8.00e-01,
550,3.28e-01,8.00e-01,
551,3.28e-01,8.00e-01,
552,3.28e-01,1.20e+00,
553,3.36e-01,1.20e+00,
554,3.28e-01,8.00e-01,
555,3.28e-01,1.20e+00,
556,3.28e-01,1.20e+00,
557,3.36e-01,1.20e+00,
558,3.28e-01,8.00e-01,
559,3.28e-01,8.00e-01,
560,3.28e-01,1.20e+00,
561,3.36e-01,1.20e+00,
562,3.28e-01,8.00e-01,
563,3.28e-01,1.20e+00,
564,3.28e-01,1.20e+00,
565,3.36e-01,1.20e+00,
566,3.28e-01,8.00e-01,
567,3.28e-01,8.00e-01,
568,3.28e-01,1.20e+00,
569,3.36e-01,1.20e+00,
570,3.28e-01,8.00e-01,
571,3.28e-01,8.00e-01,
572,3.28e-01,1.20e+00,
573,3.36e-01,8.00e-01,
574,3.28e-01,8.00e-01,
575,3.36e-01,1.20e+00,
576,3.28e-01,1.20e+00,
577,3.36e-01,1.20e+00,
578,3.28e-01,8.00e-01,
579,3.28e-01,1.20e+00,
580,3.28e-01,1.20e+00,
581,3.36e-01,1.20e+00,
582,3.36e-01,8.00e-01,
583,3.36e-01,1.20e+00,
584,3.28e-01,1.20e+00,
585,3.36e-01,1.20e+00,
586,3.28e-01,8.00e-01,
587,3.36e-01,8.00e-01,
588,3.28e-01,1.20e+00,
589,3.36e-01,1.20e+00,
590,3.28e-01,8.00e-01,
591,3.36e-01,8.00e-01,
592,3.28e-01,1.20e+00,
593,3.44e-01,8.00e-01,
594,3.28e-01,8.00e-01,
595,3.28e-01,1.20e+00,
596,3.28e-01,8.00e-01,
597,3.44e-01,1.20e+00,
598,3.36e-01,8.00e-01,
599,3.36e-01,8.00e-01,
600,3.28e-01,1.20e+00,
601,3.44e-01,1.20e+00,
602,3.36e-01,8.00e-01,
603,3.36e-01,8.00e-01,
604,3.28e-01,1.20e+00,
605,3.36e-01,1.20e+00,
606,3.36e-01,8.00e-01,
607,3.36e-01,8.00e-01,
608,3.28e-01,1.20e+00,
609,3.44e-01,1.20e+00,
610,3.28e-01,8.00e-01,
611,3.36e-01,8.00e-01,
612,3.28e-01,1.20e+00,
613,3.44e-01,1.20e+00,
614,3.36e-01,-4.51e-05,
615,3.28e-01,1.20e+00,
616,3.36e-01,8.00e-01,
617,3.44e-01,1.20e+00,
618,3.36e-01,8.00e-01,
619,3.36e-01,8.00e-01,
620,3.28e-01,1.20e+00,
621,3.44e-01,8.00e-01,
622,3.28e-01,8.00e-01,
623,3.36e-01,8.00e-01,
624,3.36e-01,1.20e+00,
625,3.44e-01,1.20e+00,
626,3.28e-01,8.00e-01,
627,3.36e-01,8.00e-01,
628,3.36e-01,1.20e+00,
629,3.44e-01,1.20e+00,
630,3.36e-01,8.00e-01,
631,3.36e-01,8.00e-01,
632,3.28e-01,1.20e+00,
633,3.44e-01,1.20e+00,
634,3.36e-01,8.00e-01,
635,3.36e-01,1.20e+00,
636,3.36e-01,1.20e+00,
637,3.44e-01,1.20e+00,
638,3.36e-01,8.00e-01,
639,3.36e-01,1.20e+00,
640,3.36e-01,1.20e+00,
641,3.44e-01,1.20e+00,
642,3.36e-01,8.00e-01,
643,3.36e-01,8.00e-01,
644,3.36e-01,1.20e+00,
645,3.44e-01,1.20e+00,
646,3.36e-01,8.00e-01,
647,3.36e-01,8.00e-01,
648,3.36e-01,1.20e+00,
649,3.44e-01,1.20e+00,
650,3.36e-01,8.00e-01,
651,3.36e-01,1.20e+00,
652,3.36e-01,1.20e+00,
653,3.44e-01,1.20e+00,
654,3.36e-01,8.00e-01,
655,3.36e-01,8.00e-01,
656,3.36e-01,1.20e+00,
657,3.44e-01,1.20e+00,
658,3.36e-01,8.00e-01,
659,3.36e-01,1.20e+00,
660,3.36e-01,1.20e+00,
661,3.44e-01,1.20e+00,
662,3.36e-01,8.00e-01,
663,3.44e-01,8.00e-01,
664,3.36e-01,1.20e+00,
665,3.44e-01,1.20e+00,
666,3.36e-01,8.00e-01,
667,3.36e-01,1.20e+00,
668,3.36e-01,1.20e+00,
669,3.44e-01,1.20e+00,
670,3.44e-01,8.00e-01,
671,3.36e-01,8.00e-01,
672,3.36e-01,1.20e+00,
673,3.44e-01,1.20e+00,
674,3.36e-01,8.00e-01,
675,3.44e-01,1.20e+00,
676,3.36e-01,1.20e+00,
677,3.44e-01,1.20e+00,
678,3.36e-01,8.00e-01,
679,3.44e-01,8.00e-01,
680,3.36e-01,1.20e+00,
681,3.52e-01,1.20e+00,
682,3.36e-01,8.00e-01,
683,3.44e-01,8.00e-01,
684,3.36e-01,1.20e+00,
685,3.52e-01,1.20e+00,
686,3.44e-01,8.00e-01,
687,3.44e-01,1.20e+00,
688,3.36e-01,1.20e+00,
689,3.52e-01,1.20e+00,
690,3.36e-01,8.00e-01,
691,3.44e-01,1.20e+00,
692,3.36e-01,1.20e+00,
693,3.52e-01,1.20e+00,
694,3.36e-01,8.00e-01,
695,3.44e-01,1.20e+00,
696,3.36e-01,1.20e+00,
697,3.52e-01,1.20e+00,
698,3.44e-01,8.00e-01,
699,3.44e-01,1.20e+00,
700,3.36e-01,1.20e+00,
701,3.52e-01,1.20e+00,
702,3.44e-01,8.00e-01,
703,3.44e-01,8.00e-01,
704,3.36e-01,1.20e+00,
705,3.52e-01,1.20e+00,
706,3.36e-01,8.00e-01,
707,3.44e-01,1.20e+00,
708,3.44e-01,1.20e+00,
709,3.52e-01,1.20e+00,
710,3.36e-01,8.00e-01,
711,3.44e-01,8.00e-01,
712,3.36e-01,1.20e+00,
713,3.52e-01,1.20e+00,
714,3.44e-01,8.00e-01,
715,3.44e-01,8.00e-01,
716,3.36e-01,1.20e+00,
717,3.52e-01,1.20e+00,
718,3.44e-01,8.00e-01,
719,3.44e-01,1.20e+00,
720,3.44e-01,1.20e+00,
721,3.52e-01,1.20e+00,
722,3.44e-01,8.00e-01,
723,3.44e-01,1.20e+00,
724,3.44e-01,1.20e+00,
725,3.52e-01,1.20e+00,
726,3.44e-01,8.00e-01,
727,3.44e-01,1.20e+00,
728,3.44e-01,1.20e+00,
729,3.52e-01,1.20e+00,
730,3.44e-01,8.00e-01,
731,3.44e-01,1.20e+00,
732,3.36e-01,1.20e+00,
733,3.52e-01,1.20e+00,
734,3.44e-01,8.00e-01,
735,3.52e-01,8.00e-01,
736,3.44e-01,1.20e+00,
737,3.52e-01,1.20e+00,
738,3.44e-01,8.00e-01,
739,3.44e-01,1.20e+00,
740,3.44e-01,1.20e+00,
741,3.52e-01,1.20e+00,
742,3.44e-01,8.00e-01,
743,3.44e-01,8.00e-01,
744,3.44e-01,1.20e+00,
745,3.52e-01,1.20e+00,
746,3.44e-01,8.00e-01,
747,3.44e-01,1.20e+00,
748,3.44e-01,1.20e+00,
749,3.52e-01,1.20e+00,
750,3.44e-01,8.00e-01,
751,3.52e-01,8.00e-01,
752,3.44e-01,1.20e+00,
753,3.52e-01,1.20e+00,
754,3.44e-01,8.00e-01,
755,3.52e-01,1.20e+00,
756,3.44e-01,1.20e+00,
757,3.52e-01,1.20e+00,
758,3.44e-01,8.00e-01,
759,3.44e-01,1.20e+00,
760,3.44e-01,1.20e+00,
761,3.52e-01,1.20e+00,
762,3.44e-01,8.00e-01,
763,3.52e-01,1.20e+00,
764,3.44e-01,1.20e+00,
765,3.52e-01,1.20e+00,
766,3.44e-01,8.00e-01,
767,3.52e-01,1.20e+00,
768,3.44e-01,1.20e+00,
769,3.52e-01,1.20e+00,
770,3.44e-01,8.00e-01,
771,3.44e-01,8.00e-01,
772,3.44e-01,1.20e+00,
773,3.68e-01,1.20e+00,
774,3.44e-01,8.00e-01,
775,3.52e-01,8.00e-01,
776,3.44e-01,1.20e+00,
777,3.68e-01,1.20e+00,
778,3.44e-01,8.00e-01,
779,3.52e-01,1.20e+00,
780,3.44e-01,1.20e+00,
781,3.68e-01,1.20e+00,
782,3.44e-01,8.00e-01,
783,3.52e-01,8.00e-01,
784,3.44e-01,1.20e+00,
785,3.68e-01,1.20e+00,
786,3.52e-01,8.00e-01,
787,3.52e-01,1.20e+00,
788,3.44e-01,1.20e+00,
789,3.68e-01,1.20e+00,
790,3.52e-01,8.00e-01,
791,3.52e-01,8.00e-01,
792,3.44e-01,1.20e+00,
793,3.68e-01,8.00e-01,
794,3.52e-01,8.00e-01,
795,3.52e-01,1.20e+00,
796,3.36e-01,1.20e+00,
797,3.44e-01,1.20e+00,
798,3.12e-01,8.00e-01,
799,2.88e-01,1.20e+00,
800,2.72e-01,1.20e+00,
801,2.72e-01,8.00e-01,
802,2.56e-01,8.00e-01,
803,2.72e-01,8.00e-01,
804,2.80e-01,1.20e+00,
805,3.12e-01,8.00e-01,
806,3.12e-01,-4.51e-05,
807,3.20e-01,8.00e-01,
808,3.28e-01,1.20e+00,
809,3.36e-01,8.00e-01,
810,3.28e-01,8.00e-01,
811,3.36e-01,8.00e-01,
812,3.28e-01,1.20e+00,
813,3.36e-01,1.20e+00,
814,3.28e-01,-4.51e-05,
815,3.28e-01,1.20e+00,
816,3.28e-01,8.00e-01,
817,3.36e-01,1.20e+00,
818,3.36e-01,8.00e-01,
819,3.36e-01,8.00e-01,
820,3.36e-01,1.20e+00,
821,3.44e-01,1.20e+00,
822,3.36e-01,8.00e-01,
823,3.36e-01,8.00e-01,
824,3.36e-01,1.20e+00,
825,3.44e-01,1.20e+00,
826,3.36e-01,8.00e-01,
827,3.36e-01,1.20e+00,
828,3.36e-01,1.20e+00,
829,3.44e-01,1.20e+00,
830,3.36e-01,8.00e-01,
831,3.44e-01,8.00e-01,
832,3.36e-01,1.20e+00,
833,3.52e-01,8.00e-01,
834,3.36e-01,8.00e-01,
835,3.44e-01,1.20e+00,
836,3.36e-01,1.20e+00,
837,3.44e-01,1.20e+00,
838,3.36e-01,8.00e-01,
839,3.44e-01,8.00e-01,
840,3.44e-01,1.20e+00,
841,3.52e-01,1.20e+00,
842,3.44e-01,8.00e-01,
843,3.44e-01,1.20e+00,
844,3.36e-01,1.20e+00,
845,3.52e-01,1.20e+00,
846,3.44e-01,8.00e-01,
847,3.44e-01,1.20e+00,
848,3.36e-01,1.20e+00,
849,3.52e-01,1.20e+00,
850,3.44e-01,8.00e-01,
851,3.44e-01,1.20e+00,
852,3.44e-01,1.20e+00,
853,3.52e-01,1.20e+00,
854,3.44e-01,8.00e-01,
855,3.44e-01,1.20e+00,
856,3.44e-01,1.20e+00,
857,3.52e-01,1.20e+00,
858,3.44e-01,8.00e-01,
859,3.44e-01,1.20e+00,
860,3.44e-01,1.20e+00,
861,3.52e-01,1.20e+00,
862,3.44e-01,8.00e-01,
863,3.52e-01,1.20e+00,
864,3.44e-01,1.20e+00,
865,3.68e-01,1.20e+00,
866,3.44e-01,8.00e-01,
867,3.44e-01,1.20e+00,
868,3.44e-01,1.20e+00,
869,3.52e-01,1.20e+00,
