Lab9/data2/off2_2.csv

X,CH1,CH2,Start,Increment,
Sequence,Volt,Volt,-4.190000e-05,2.000000e-09
0,2.48e-01,8.00e-01,
1,2.48e-01,8.00e-01,
2,2.48e-01,1.20e+00,
3,2.56e-01,8.00e-01,
4,2.48e-01,-4.51e-05,
5,2.48e-01,8.00e-01,
6,2.48e-01,8.00e-01,
7,2.56e-01,8.00e-01,
8,2.48e-01,8.00e-01,
9,2.48e-01,1.20e+00,
10,2.48e-01,8.00e-01,
11,2.56e-01,8.00e-01,
12,2.48e-01,8.00e-01,
13,2.48e-01,8.00e-01,
14,2.48e-01,1.20e+00,
15,2.56e-01,8.00e-01,
16,2.48e-01,8.00e-01,
17,2.48e-01,8.00e-01,
18,2.48e-01,8.00e-01,
19,2.56e-01,8.00e-01,
20,2.48e-01,8.00e-01,
21,2.48e-01,8.00e-01,
22,2.48e-01,8.00e-01,
23,2.56e-01,8.00e-01,
24,2.48e-01,8.00e-01,
25,2.48e-01,8.00e-01,
26,2.48e-01,8.00e-01,
27,2.56e-01,8.00e-01,
28,2.48e-01,8.00e-01,
29,2.48e-01,8.00e-01,
30,2.48e-01,8.00e-01,
31,2.56e-01,8.00e-01,
32,2.48e-01,8.00e-01,
33,2.48e-01,8.00e-01,
34,2.48e-01,1.20e+00,
35,2.56e-01,8.00e-01,
36,2.48e-01,8.00e-01,
37,2.48e-01,8.00e-01,
38,2.48e-01,8.00e-01,
39,2.56e-01,8.00e-01,
40,2.48e-01,8.00e-01,
41,2.48e-01,8.00e-01,
42,2.48e-01,8.00e-01,
43,2.56e-01,8.00e-01,
44,2.48e-01,8.00e-01,
45,2.56e-01,8.00e-01,
46,2.48e-01,8.00e-01,
47,2.56e-01,8.00e-01,
48,2.48e-01,-4.51e-05,
49,2.48e-01,8.00e-01,
50,2.48e-01,8.00e-01,
51,2.56e-01,8.00e-01,
52,2.48e-01,8.00e-01,
53,2.48e-01,8.00e-01,
54,2.48e-01,1.20e+00,
55,2.56e-01,8.00e-01,
56,2.56e-01,8.00e-01,
57,2.56e-01,8.00e-01,
58,2.48e-01,1.20e+00,
59,2.56e-01,8.00e-01,
60,2.48e-01,8.00e-01,
61,2.56e-01,8.00e-01,
62,2.56e-01,1.20e+00,
63,2.56e-01,8.00e-01,
64,2.48e-01,8.00e-01,
65,2.48e-01,8.00e-01,
66,2.56e-01,8.00e-01,
67,2.64e-01,8.00e-01,
68,2.48e-01,-4.51e-05,
69,2.48e-01,8.00e-01,
70,2.48e-01,1.20e+00,
71,2.64e-01,8.00e-01,
72,2.56e-01,8.00e-01,
73,2.56e-01,8.00e-01,
74,2.48e-01,1.20e+00,
75,2.56e-01,8.00e-01,
76,2.56e-01,-4.51e-05,
77,2.56e-01,8.00e-01,
78,2.48e-01,8.00e-01,
79,2.56e-01,8.00e-01,
80,2.48e-01,8.00e-01,
81,2.56e-01,8.00e-01,
82,2.56e-01,8.00e-01,
83,2.56e-01,8.00e-01,
84,2.48e-01,8.00e-01,
85,2.56e-01,8.00e-01,
86,2.56e-01,8.00e-01,
87,2.64e-01,8.00e-01,
88,2.56e-01,8.00e-01,
89,2.56e-01,1.20e+00,
90,2.56e-01,8.00e-01,
91,2.64e-01,8.00e-01,
92,2.56e-01,8.00e-01,
93,2.56e-01,8.00e-01,
94,2.56e-01,8.00e-01,
95,2.64e-01,8.00e-01,
96,2.56e-01,8.00e-01,
97,2.56e-01,8.00e-01,
98,2.56e-01,8.00e-01,
99,2.64e-01,8.00e-01,
100,2.56e-01,-4.51e-05,
101,2.56e-01,8.00e-01,
102,2.56e-01,1.20e+00,
103,2.64e-01,8.00e-01,
104,2.56e-01,8.00e-01,
105,2.56e-01,8.00e-01,
106,2.56e-01,1.20e+00,
107,2.64e-01,8.00e-01,
108,2.56e-01,-4.51e-05,
109,2.56e-01,8.00e-01,
110,2.56e-01,8.00e-01,
111,2.64e-01,1.20e+00,
112,2.56e-01,8.00e-01,
113,2.56e-01,8.00e-01,
114,2.56e-01,1.20e+00,
115,2.64e-01,8.00e-01,
116,2.56e-01,8.00e-01,
117,2.56e-01,8.00e-01,
118,2.56e-01,8.00e-01,
119,2.64e-01,8.00e-01,
120,2.56e-01,8.00e-01,
121,2.56e-01,8.00e-01,
122,2.56e-01,8.00e-01,
123,2.64e-01,8.00e-01,
124,2.56e-01,8.00e-01,
125,2.64e-01,8.00e-01,
126,2.56e-01,8.00e-01,
127,2.64e-01,8.00e-01,
128,2.56e-01,8.00e-01,
129,2.56e-01,8.00e-01,
130,2.56e-01,8.00e-01,
131,2.64e-01,8.00e-01,
132,2.56e-01,8.00e-01,
133,2.56e-01,8.00e-01,
134,2.56e-01,1.20e+00,
135,2.64e-01,1.20e+00,
136,2.56e-01,8.00e-01,
137,2.56e-01,8.00e-01,
138,2.56e-01,8.00e-01,
139,2.64e-01,8.00e-01,
140,2.56e-01,8.00e-01,
141,2.64e-01,8.00e-01,
142,2.56e-01,8.00e-01,
143,2.64e-01,8.00e-01,
144,2.56e-01,8.00e-01,
145,2.64e-01,8.00e-01,
146,2.56e-01,1.20e+00,
147,2.64e-01,8.00e-01,
148,2.56e-01,-4.51e-05,
149,2.64e-01,8.00e-01,
150,2.64e-01,1.20e+00,
151,2.64e-01,8.00e-01,
152,2.56e-01,8.00e-01,
153,2.64e-01,8.00e-01,
154,2.56e-01,1.20e+00,
155,2.72e-01,8.00e-01,
156,2.56e-01,8.00e-01,
157,2.64e-01,8.00e-01,
158,2.56e-01,8.00e-01,
159,2.64e-01,8.00e-01,
160,2.56e-01,8.00e-01,
161,2.64e-01,8.00e-01,
162,2.56e-01,8.00e-01,
163,2.64e-01,8.00e-01,
164,2.64e-01,8.00e-01,
165,2.64e-01,8.00e-01,
166,2.64e-01,1.20e+00,
167,2.72e-01,1.20e+00,
168,2.64e-01,8.00e-01,
169,2.64e-01,8.00e-01,
170,2.64e-01,8.00e-01,
171,2.72e-01,8.00e-01,
172,2.64e-01,8.00e-01,
173,2.64e-01,8.00e-01,
174,2.56e-01,1.20e+00,
175,2.72e-01,8.00e-01,
176,2.64e-01,8.00e-01,
177,2.64e-01,8.00e-01,
178,2.64e-01,8.00e-01,
179,2.64e-01,8.00e-01,
180,2.64e-01,-4.51e-05,
181,2.64e-01,8.00e-01,
182,2.64e-01,8.00e-01,
183,2.72e-01,8.00e-01,
184,2.64e-01,8.00e-01,
185,2.64e-01,8.00e-01,
186,2.64e-01,1.20e+00,
187,2.72e-01,8.00e-01,
188,2.64e-01,-4.51e-05,
189,2.64e-01,8.00e-01,
190,2.64e-01,1.20e+00,
191,2.64e-01,1.20e+00,
192,2.64e-01,8.00e-01,
193,2.72e-01,8.00e-01,
194,2.64e-01,1.20e+00,
195,2.64e-01,8.00e-01,
196,2.64e-01,-4.51e-05,
197,2.64e-01,1.20e+00,
198,2.72e-01,8.00e-01,
199,2.72e-01,8.00e-01,
200,2.64e-01,8.00e-01,
201,2.64e-01,8.00e-01,
202,2.64e-01,1.20e+00,
203,2.72e-01,8.00e-01,
204,2.64e-01,8.00e-01,
205,2.64e-01,8.00e-01,
206,2.64e-01,1.20e+00,
207,2.72e-01,8.00e-01,
208,2.64e-01,8.00e-01,
209,2.72e-01,8.00e-01,
210,2.64e-01,1.20e+00,
211,2.72e-01,8.00e-01,
212,2.64e-01,-4.51e-05,
213,2.64e-01,8.00e-01,
214,2.64e-01,1.20e+00,
215,2.72e-01,8.00e-01,
216,2.64e-01,8.00e-01,
217,2.64e-01,8.00e-01,
218,2.64e-01,8.00e-01,
219,2.72e-01,8.00e-01,
220,2.64e-01,8.00e-01,
221,2.64e-01,8.00e-01,
222,2.64e-01,1.20e+00,
223,2.72e-01,8.00e-01,
224,2.64e-01,8.00e-01,
225,2.64e-01,8.00e-01,
226,2.64e-01,1.20e+00,
227,2.72e-01,8.00e-01,
228,2.64e-01,8.00e-01,
229,2.72e-01,8.00e-01,
230,2.64e-01,8.00e-01,
231,2.72e-01,1.20e+00,
232,2.64e-01,8.00e-01,
233,2.64e-01,8.00e-01,
234,2.64e-01,1.20e+00,
235,2.72e-01,8.00e-01,
236,2.64e-01,8.00e-01,
237,2.72e-01,8.00e-01,
238,2.64e-01,1.20e+00,
239,2.72e-01,8.00e-01,
240,2.64e-01,8.00e-01,
241,2.72e-01,8.00e-01,
242,2.72e-01,8.00e-01,
243,2.72e-01,8.00e-01,
244,2.64e-01,8.00e-01,
245,2.64e-01,8.00e-01,
246,2.64e-01,1.20e+00,
247,2.80e-01,1.20e+00,
248,2.72e-01,-4.51e-05,
249,2.72e-01,8.00e-01,
250,2.64e-01,8.00e-01,
251,2.72e-01,8.00e-01,
252,2.64e-01,8.00e-01,
253,2.72e-01,8.00e-01,
254,2.72e-01,8.00e-01,
255,2.80e-01,8.00e-01,
256,2.64e-01,8.00e-01,
257,2.72e-01,8.00e-01,
258,2.72e-01,8.00e-01,
259,2.80e-01,8.00e-01,
260,2.72e-01,-4.51e-05,
261,2.72e-01,1.20e+00,
262,2.64e-01,8.00e-01,
263,2.80e-01,1.20e+00,
264,2.72e-01,8.00e-01,
265,2.72e-01,8.00e-01,
266,2.64e-01,1.20e+00,
267,2.72e-01,8.00e-01,
268,2.72e-01,8.00e-01,
269,2.72e-01,8.00e-01,
270,2.72e-01,1.20e+00,
271,2.72e-01,1.20e+00,
272,2.72e-01,8.00e-01,
273,2.72e-01,8.00e-01,
274,2.72e-01,1.20e+00,
275,2.80e-01,8.00e-01,
276,2.72e-01,8.00e-01,
277,2.72e-01,8.00e-01,
278,2.72e-01,8.00e-01,
279,2.80e-01,8.00e-01,
280,2.72e-01,8.00e-01,
281,2.72e-01,8.00e-01,
282,2.72e-01,8.00e-01,
283,2.80e-01,8.00e-01,
284,2.72e-01,8.00e-01,
285,2.72e-01,8.00e-01,
286,2.72e-01,1.20e+00,
287,2.80e-01,8.00e-01,
288,2.72e-01,8.00e-01,
289,2.72e-01,8.00e-01,
290,2.72e-01,1.20e+00,
291,2.80e-01,8.00e-01,
292,2.72e-01,8.00e-01,
293,2.80e-01,8.00e-01,
294,2.72e-01,1.20e+00,
295,2.80e-01,8.00e-01,
296,2.72e-01,8.00e-01,
297,2.72e-01,8.00e-01,
298,2.72e-01,1.20e+00,
299,2.80e-01,1.20e+00,
300,2.72e-01,8.00e-01,
301,2.72e-01,8.00e-01,
302,2.72e-01,1.20e+00,
303,2.80e-01,8.00e-01,
304,2.72e-01,8.00e-01,
305,2.72e-01,8.00e-01,
306,2.72e-01,1.20e+00,
307,2.80e-01,8.00e-01,
308,2.72e-01,8.00e-01,
309,2.80e-01,8.00e-01,
310,2.72e-01,8.00e-01,
311,2.80e-01,1.20e+00,
312,2.72e-01,8.00e-01,
313,2.72e-01,8.00e-01,
314,2.72e-01,1.20e+00,
315,2.80e-01,1.20e+00,
316,2.72e-01,8.00e-01,
317,2.72e-01,8.00e-01,
318,2.72e-01,8.00e-01,
319,2.88e-01,8.00e-01,
320,2.72e-01,8.00e-01,
321,2.72e-01,8.00e-01,
322,2.72e-01,8.00e-01,
323,2.80e-01,8.00e-01,
324,2.72e-01,8.00e-01,
325,2.80e-01,8.00e-01,
326,2.80e-01,1.20e+00,
327,2.80e-01,8.00e-01,
328,2.72e-01,8.00e-01,
329,2.72e-01,8.00e-01,
330,2.80e-01,8.00e-01,
331,2.88e-01,8.00e-01,
332,2.80e-01,8.00e-01,
333,2.72e-01,8.00e-01,
334,2.72e-01,1.20e+00,
335,2.88e-01,8.00e-01,
336,2.80e-01,8.00e-01,
337,2.80e-01,8.00e-01,
338,2.72e-01,1.20e+00,
339,2.80e-01,8.00e-01,
340,2.80e-01,8.00e-01,
341,2.80e-01,8.00e-01,
342,2.80e-01,8.00e-01,
343,2.80e-01,1.20e+00,
344,2.80e-01,8.00e-01,
345,2.80e-01,8.00e-01,
346,2.72e-01,1.20e+00,
347,2.88e-01,8.00e-01,
348,2.80e-01,8.00e-01,
349,2.80e-01,8.00e-01,
350,2.80e-01,1.20e+00,
351,2.88e-01,8.00e-01,
352,2.80e-01,8.00e-01,
353,2.80e-01,8.00e-01,
354,2.72e-01,1.20e+00,
355,2.80e-01,8.00e-01,
356,2.80e-01,8.00e-01,
357,2.80e-01,8.00e-01,
358,2.80e-01,1.20e+00,
359,2.88e-01,8.00e-01,
360,2.80e-01,8.00e-01,
361,2.80e-01,8.00e-01,
362,2.80e-01,8.00e-01,
363,2.88e-01,1.20e+00,
364,2.80e-01,8.00e-01,
365,2.80e-01,8.00e-01,
366,2.72e-01,1.20e+00,
367,2.80e-01,8.00e-01,
368,2.80e-01,8.00e-01,
369,2.80e-01,8.00e-01,
370,2.80e-01,1.20e+00,
371,2.88e-01,8.00e-01,
372,2.80e-01,-4.51e-05,
373,2.80e-01,8.00e-01,
374,2.80e-01,1.20e+00,
375,2.88e-01,8.00e-01,
376,2.80e-01,8.00e-01,
377,2.80e-01,8.00e-01,
378,2.80e-01,8.00e-01,
379,2.88e-01,8.00e-01,
380,2.80e-01,-4.51e-05,
381,2.80e-01,8.00e-01,
382,2.80e-01,8.00e-01,
383,2.88e-01,8.00e-01,
384,2.80e-01,8.00e-01,
385,2.88e-01,8.00e-01,
386,2.80e-01,1.20e+00,
387,2.88e-01,8.00e-01,
388,2.80e-01,-4.51e-05,
389,2.80e-01,8.00e-01,
390,2.80e-01,1.20e+00,
391,2.88e-01,1.20e+00,
392,2.80e-01,8.00e-01,
393,2.80e-01,8.00e-01,
394,2.80e-01,1.20e+00,
395,2.88e-01,1.20e+00,
396,2.88e-01,-4.00e-01,
397,2.80e-01,1.20e+00,
398,2.80e-01,8.00e-01,
399,2.88e-01,1.20e+00,
400,2.80e-01,8.00e-01,
401,2.88e-01,8.00e-01,
402,2.80e-01,1.20e+00,
403,2.88e-01,8.00e-01,
404,2.80e-01,8.00e-01,
405,2.80e-01,8.00e-01,
406,2.80e-01,1.20e+00,
407,2.88e-01,1.20e+00,
408,2.88e-01,8.00e-01,
409,2.88e-01,8.00e-01,
410,2.80e-01,1.20e+00,
411,2.88e-01,1.20e+00,
412,2.80e-01,8.00e-01,
413,2.88e-01,8.00e-01,
414,2.88e-01,1.20e+00,
415,2.96e-01,8.00e-01,
416,2.80e-01,8.00e-01,
417,2.80e-01,8.00e-01,
418,2.80e-01,1.20e+00,
419,2.88e-01,8.00e-01,
420,2.88e-01,8.00e-01,
421,2.80e-01,8.00e-01,
422,2.80e-01,8.00e-01,
423,2.96e-01,8.00e-01,
424,2.88e-01,8.00e-01,
425,2.88e-01,8.00e-01,
426,2.80e-01,1.20e+00,
427,2.88e-01,8.00e-01,
428,2.80e-01,8.00e-01,
429,2.88e-01,8.00e-01,
430,2.88e-01,1.20e+00,
431,2.88e-01,1.20e+00,
432,2.88e-01,8.00e-01,
433,2.88e-01,1.20e+00,
434,2.80e-01,8.00e-01,
435,2.88e-01,8.00e-01,
436,2.88e-01,8.00e-01,
437,2.88e-01,8.00e-01,
438,2.88e-01,1.20e+00,
439,2.96e-01,8.00e-01,
440,2.88e-01,8.00e-01,
441,2.88e-01,8.00e-01,
442,2.80e-01,8.00e-01,
443,2.96e-01,8.00e-01,
444,2.88e-01,8.00e-01,
445,2.88e-01,8.00e-01,
446,2.88e-01,1.20e+00,
447,2.96e-01,1.20e+00,
448,2.88e-01,8.00e-01,
449,2.88e-01,8.00e-01,
450,2.80e-01,1.20e+00,
451,2.96e-01,8.00e-01,
452,2.88e-01,8.00e-01,
453,2.88e-01,8.00e-01,
454,2.80e-01,1.20e+00,
455,2.96e-01,8.00e-01,
456,2.88e-01,8.00e-01,
457,2.88e-01,8.00e-01,
458,2.88e-01,1.20e+00,
459,2.96e-01,1.20e+00,
460,2.80e-01,8.00e-01,
461,2.88e-01,8.00e-01,
462,2.88e-01,1.20e+00,
463,2.96e-01,8.00e-01,
464,2.88e-01,8.00e-01,
465,2.88e-01,8.00e-01,
466,2.88e-01,8.00e-01,
467,2.96e-01,8.00e-01,
468,2.88e-01,8.00e-01,
469,2.88e-01,8.00e-01,
470,2.88e-01,1.20e+00,
471,2.96e-01,8.00e-01,
472,2.88e-01,8.00e-01,
473,2.88e-01,8.00e-01,
474,2.88e-01,1.20e+00,
475,2.96e-01,8.00e-01,
476,2.88e-01,8.00e-01,
477,2.88e-01,8.00e-01,
478,2.88e-01,1.20e+00,
479,2.96e-01,1.20e+00,
480,2.88e-01,8.00e-01,
481,2.88e-01,8.00e-01,
482,2.88e-01,1.20e+00,
483,2.96e-01,8.00e-01,
484,2.88e-01,8.00e-01,
485,2.96e-01,8.00e-01,
486,2.88e-01,1.20e+00,
487,2.96e-01,8.00e-01,
488,2.88e-01,8.00e-01,
489,2.88e-01,8.00e-01,
490,2.88e-01,8.00e-01,
491,2.96e-01,1.20e+00,
492,2.88e-01,-4.51e-05,
493,2.88e-01,8.00e-01,
494,2.88e-01,1.20e+00,
495,2.96e-01,8.00e-01,
496,2.88e-01,8.00e-01,
497,2.88e-01,8.00e-01,
498,2.88e-01,1.20e+00,
499,2.96e-01,8.00e-01,
500,2.96e-01,8.00e-01,
501,2.96e-01,8.00e-01,
502,2.88e-01,8.00e-01,
503,2.96e-01,8.00e-01,
504,2.88e-01,8.00e-01,
505,2.96e-01,8.00e-01,
506,2.88e-01,1.20e+00,
507,3.04e-01,1.20e+00,
508,2.88e-01,-4.51e-05,
509,2.88e-01,8.00e-01,
510,2.88e-01,1.20e+00,
511,3.04e-01,1.20e+00,
512,2.96e-01,8.00e-01,
513,2.96e-01,8.00e-01,
514,2.88e-01,1.20e+00,
515,2.96e-01,8.00e-01,
516,2.96e-01,8.00e-01,
517,2.96e-01,1.20e+00,
518,2.96e-01,1.20e+00,
519,2.96e-01,1.20e+00,
520,2.88e-01,8.00e-01,
521,2.96e-01,1.20e+00,
522,2.96e-01,1.20e+00,
523,3.04e-01,8.00e-01,
524,2.96e-01,8.00e-01,
525,2.96e-01,8.00e-01,
526,2.96e-01,1.20e+00,
527,3.04e-01,8.00e-01,
528,2.96e-01,8.00e-01,
529,2.96e-01,8.00e-01,
530,2.96e-01,1.20e+00,
531,3.04e-01,8.00e-01,
532,2.96e-01,8.00e-01,
533,2.96e-01,8.00e-01,
534,2.96e-01,1.20e+00,
535,3.04e-01,8.00e-01,
536,2.88e-01,8.00e-01,
537,2.96e-01,1.20e+00,
538,2.96e-01,1.20e+00,
539,3.04e-01,1.20e+00,
540,2.96e-01,8.00e-01,
541,2.96e-01,8.00e-01,
542,2.88e-01,1.20e+00,
543,3.04e-01,8.00e-01,
544,2.96e-01,8.00e-01,
545,2.96e-01,8.00e-01,
546,2.88e-01,1.20e+00,
547,3.04e-01,1.20e+00,
548,2.96e-01,8.00e-01,
549,3.04e-01,1.20e+00,
550,2.96e-01,1.20e+00,
551,3.04e-01,8.00e-01,
552,2.96e-01,8.00e-01,
553,2.96e-01,8.00e-01,
554,2.96e-01,1.20e+00,
555,3.04e-01,8.00e-01,
556,2.96e-01,8.00e-01,
557,2.96e-01,8.00e-01,
558,2.96e-01,1.20e+00,
559,3.04e-01,1.20e+00,
560,2.96e-01,8.00e-01,
561,2.96e-01,1.20e+00,
562,2.96e-01,8.00e-01,
563,3.04e-01,8.00e-01,
564,2.96e-01,8.00e-01,
565,3.04e-01,8.00e-01,
566,2.96e-01,1.20e+00,
567,3.04e-01,1.20e+00,
568,2.96e-01,8.00e-01,
569,3.04e-01,1.20e+00,
570,2.96e-01,1.20e+00,
571,3.04e-01,8.00e-01,
572,2.96e-01,8.00e-01,
573,3.04e-01,8.00e-01,
574,2.96e-01,1.20e+00,
575,3.04e-01,8.00e-01,
576,2.96e-01,8.00e-01,
577,2.96e-01,1.20e+00,
578,2.96e-01,1.20e+00,
579,3.12e-01,8.00e-01,
580,2.96e-01,8.00e-01,
581,2.96e-01,1.20e+00,
582,2.96e-01,8.00e-01,
583,3.12e-01,8.00e-01,
584,2.96e-01,8.00e-01,
585,3.04e-01,8.00e-01,
586,2.96e-01,1.20e+00,
587,3.04e-01,1.20e+00,
588,3.04e-01,8.00e-01,
589,3.04e-01,1.20e+00,
590,2.96e-01,1.20e+00,
591,3.04e-01,1.20e+00,
592,2.96e-01,8.00e-01,
593,3.04e-01,8.00e-01,
594,2.96e-01,1.20e+00,
595,3.04e-01,1.20e+00,
596,3.04e-01,-4.51e-05,
597,2.96e-01,1.20e+00,
598,3.04e-01,8.00e-01,
599,3.12e-01,1.20e+00,
600,3.04e-01,8.00e-01,
601,3.04e-01,8.00e-01,
602,2.96e-01,1.20e+00,
603,3.12e-01,8.00e-01,
604,3.04e-01,8.00e-01,
605,3.04e-01,8.00e-01,
606,2.96e-01,1.20e+00,
607,3.12e-01,1.20e+00,
608,2.96e-01,8.00e-01,
609,3.04e-01,8.00e-01,
610,2.96e-01,1.20e+00,
611,3.12e-01,1.20e+00,
612,3.04e-01,8.00e-01,
613,3.04e-01,8.00e-01,
614,2.96e-01,1.20e+00,
615,3.12e-01,8.00e-01,
616,3.04e-01,8.00e-01,
617,3.04e-01,1.20e+00,
618,3.04e-01,1.20e+00,
619,3.12e-01,8.00e-01,
620,3.04e-01,8.00e-01,
621,3.04e-01,8.00e-01,
622,3.04e-01,1.20e+00,
623,3.12e-01,8.00e-01,
624,3.04e-01,8.00e-01,
625,3.04e-01,8.00e-01,
626,2.96e-01,1.20e+00,
627,3.12e-01,8.00e-01,
628,3.04e-01,8.00e-01,
629,3.04e-01,8.00e-01,
630,2.96e-01,1.20e+00,
631,3.04e-01,1.20e+00,
632,3.04e-01,8.00e-01,
633,3.04e-01,1.20e+00,
634,3.04e-01,1.20e+00,
635,3.12e-01,8.00e-01,
636,3.04e-01,8.00e-01,
637,3.04e-01,8.00e-01,
638,3.04e-01,1.20e+00,
639,3.12e-01,8.00e-01,
640,3.04e-01,8.00e-01,
641,3.04e-01,8.00e-01,
642,3.04e-01,1.20e+00,
643,3.12e-01,1.20e+00,
644,3.04e-01,8.00e-01,
645,3.04e-01,8.00e-01,
646,3.04e-01,1.20e+00,
647,3.12e-01,1.20e+00,
648,3.04e-01,8.00e-01,
649,3.04e-01,8.00e-01,
650,3.04e-01,1.20e+00,
651,3.12e-01,1.20e+00,
652,3.04e-01,8.00e-01,
653,3.04e-01,8.00e-01,
654,3.04e-01,1.20e+00,
655,3.12e-01,8.00e-01,
656,3.04e-01,8.00e-01,
657,3.04e-01,8.00e-01,
658,3.04e-01,1.20e+00,
659,3.12e-01,8.00e-01,
660,3.04e-01,8.00e-01,
661,3.12e-01,8.00e-01,
662,3.04e-01,1.20e+00,
663,3.12e-01,1.20e+00,
664,3.04e-01,8.00e-01,
665,3.04e-01,8.00e-01,
666,3.04e-01,1.20e+00,
667,3.12e-01,8.00e-01,
668,3.04e-01,8.00e-01,
669,3.04e-01,8.00e-01,
670,3.04e-01,1.20e+00,
671,3.20e-01,8.00e-01,
672,3.04e-01,8.00e-01,
673,3.04e-01,8.00e-01,
674,3.04e-01,1.20e+00,
675,3.12e-01,8.00e-01,
676,3.12e-01,8.00e-01,
677,3.12e-01,1.20e+00,
678,3.04e-01,1.20e+00,
679,3.12e-01,1.20e+00,
680,3.04e-01,8.00e-01,
681,3.12e-01,1.20e+00,
682,3.04e-01,1.20e+00,
683,3.12e-01,8.00e-01,
684,3.04e-01,8.00e-01,
685,3.12e-01,8.00e-01,
686,3.04e-01,1.20e+00,
687,3.20e-01,1.20e+00,
688,3.04e-01,8.00e-01,
689,3.04e-01,8.00e-01,
690,3.04e-01,1.20e+00,
691,3.20e-01,8.00e-01,
692,3.04e-01,8.00e-01,
693,3.12e-01,8.00e-01,
694,3.04e-01,1.20e+00,
695,3.20e-01,1.20e+00,
696,3.12e-01,8.00e-01,
697,3.12e-01,1.20e+00,
698,3.04e-01,1.20e+00,
699,3.12e-01,1.20e+00,
700,3.12e-01,8.00e-01,
701,3.12e-01,8.00e-01,
702,3.04e-01,1.20e+00,
703,3.12e-01,8.00e-01,
704,3.12e-01,8.00e-01,
705,3.12e-01,8.00e-01,
706,3.12e-01,1.20e+00,
707,3.20e-01,1.20e+00,
708,3.04e-01,8.00e-01,
709,3.12e-01,1.20e+00,
710,3.12e-01,1.20e+00,
711,3.20e-01,1.20e+00,
712,3.12e-01,8.00e-01,
713,3.12e-01,1.20e+00,
714,3.12e-01,1.20e+00,
715,3.20e-01,1.20e+00,
716,3.12e-01,8.00e-01,
717,3.12e-01,8.00e-01,
718,3.04e-01,1.20e+00,
719,3.20e-01,1.20e+00,
720,3.12e-01,8.00e-01,
721,3.12e-01,1.20e+00,
722,3.12e-01,1.20e+00,
723,3.20e-01,1.20e+00,
724,3.12e-01,8.00e-01,
725,3.12e-01,8.00e-01,
726,3.12e-01,1.20e+00,
727,3.20e-01,1.20e+00,
728,3.12e-01,8.00e-01,
729,3.12e-01,8.00e-01,
730,3.12e-01,1.20e+00,
731,3.20e-01,1.20e+00,
732,3.12e-01,8.00e-01,
733,3.12e-01,8.00e-01,
734,3.12e-01,1.20e+00,
735,3.20e-01,8.00e-01,
736,3.12e-01,8.00e-01,
737,3.12e-01,8.00e-01,
738,3.12e-01,1.20e+00,
739,3.20e-01,1.20e+00,
740,3.12e-01,8.00e-01,
741,3.12e-01,8.00e-01,
742,3.12e-01,1.20e+00,
743,3.20e-01,1.20e+00,
744,3.12e-01,8.00e-01,
745,3.20e-01,8.00e-01,
746,3.12e-01,1.20e+00,
747,3.20e-01,1.20e+00,
748,3.12e-01,8.00e-01,
749,3.20e-01,8.00e-01,
750,3.12e-01,1.20e+00,
751,3.20e-01,8.00e-01,
752,3.12e-01,8.00e-01,
753,3.12e-01,1.20e+00,
754,3.12e-01,1.20e+00,
755,3.20e-01,1.20e+00,
756,3.12e-01,8.00e-01,
757,3.12e-01,1.20e+00,
758,3.12e-01,1.20e+00,
759,3.20e-01,1.20e+00,
760,3.20e-01,8.00e-01,
761,3.12e-01,1.20e+00,
762,3.12e-01,1.20e+00,
763,3.20e-01,8.00e-01,
764,3.12e-01,8.00e-01,
765,3.20e-01,8.00e-01,
766,3.12e-01,1.20e+00,
767,3.20e-01,8.00e-01,
768,3.12e-01,8.00e-01,
769,3.20e-01,1.20e+00,
770,3.20e-01,1.20e+00,
771,3.28e-01,1.20e+00,
772,3.12e-01,8.00e-01,
773,3.20e-01,8.00e-01,
774,3.12e-01,1.20e+00,
775,3.28e-01,8.00e-01,
776,3.20e-01,8.00e-01,
777,3.20e-01,1.20e+00,
778,3.12e-01,1.20e+00,
779,3.20e-01,1.20e+00,
780,3.20e-01,8.00e-01,
781,3.20e-01,8.00e-01,
782,3.20e-01,1.20e+00,
783,3.20e-01,1.20e+00,
784,3.12e-01,8.00e-01,
785,3.20e-01,8.00e-01,
786,3.12e-01,1.20e+00,
787,3.28e-01,1.20e+00,
788,3.20e-01,8.00e-01,
789,3.20e-01,8.00e-01,
790,3.12e-01,1.20e+00,
791,3.20e-01,1.20e+00,
792,3.20e-01,8.00e-01,
793,3.20e-01,8.00e-01,
794,3.12e-01,1.20e+00,
795,3.20e-01,1.20e+00,
796,3.12e-01,-4.51e-05,
797,2.88e-01,1.20e+00,
798,2.80e-01,8.00e-01,
799,2.56e-01,8.00e-01,
800,2.32e-01,8.00e-01,
801,2.32e-01,8.00e-01,
802,2.32e-01,8.00e-01,
803,2.48e-01,8.00e-01,
804,2.56e-01,-4.51e-05,
805,2.72e-01,8.00e-01,
806,2.88e-01,8.00e-01,
807,3.04e-01,1.20e+00,
808,2.96e-01,8.00e-01,
809,2.96e-01,1.20e+00,
810,2.96e-01,1.20e+00,
811,3.04e-01,8.00e-01,
812,2.96e-01,8.00e-01,
813,2.96e-01,8.00e-01,
814,2.96e-01,1.20e+00,
815,3.04e-01,8.00e-01,
816,2.96e-01,8.00e-01,
817,3.04e-01,8.00e-01,
818,3.04e-01,1.20e+00,
819,3.12e-01,1.20e+00,
820,3.04e-01,8.00e-01,
821,3.12e-01,8.00e-01,
822,3.04e-01,1.20e+00,
823,3.12e-01,1.20e+00,
824,3.04e-01,8.00e-01,
825,3.04e-01,8.00e-01,
826,3.04e-01,1.20e+00,
827,3.12e-01,1.20e+00,
828,3.04e-01,8.00e-01,
829,3.04e-01,1.20e+00,
830,3.04e-01,1.20e+00,
831,3.20e-01,1.20e+00,
832,3.12e-01,8.00e-01,
833,3.12e-01,8.00e-01,
834,3.04e-01,1.20e+00,
835,3.12e-01,1.20e+00,
836,3.04e-01,8.00e-01,
837,3.12e-01,1.20e+00,
838,3.12e-01,1.20e+00,
839,3.20e-01,1.20e+00,
840,3.12e-01,8.00e-01,
841,3.12e-01,1.20e+00,
842,3.12e-01,1.20e+00,
843,3.20e-01,8.00e-01,
844,3.12e-01,8.00e-01,
845,3.12e-01,8.00e-01,
846,3.12e-01,1.20e+00,
847,3.20e-01,1.20e+00,
848,3.12e-01,8.00e-01,
849,3.12e-01,8.00e-01,
850,3.12e-01,1.20e+00,
851,3.20e-01,1.20e+00,
852,3.12e-01,8.00e-01,
853,3.12e-01,8.00e-01,
854,3.12e-01,1.20e+00,
855,3.20e-01,8.00e-01,
856,3.12e-01,8.00e-01,
857,3.12e-01,8.00e-01,
858,3.12e-01,1.20e+00,
859,3.20e-01,1.20e+00,
860,3.12e-01,8.00e-01,
861,3.20e-01,1.20e+00,
862,3.12e-01,1.20e+00,
863,3.28e-01,1.20e+00,
864,3.12e-01,8.00e-01,
865,3.20e-01,1.20e+00,
866,3.12e-01,1.20e+00,
867,3.20e-01,1.20e+00,
868,3.12e-01,8.00e-01,
869,3.20e-01,1.20e+00,
