Lab5/Data/tsk2_4.csv

X,CH1,CH2,Start,Increment,
Sequence,Volt,Volt,-3.040000e-05,2.000000e-09
0,3.97e+00,-3.60e-02,
1,3.97e+00,-3.60e-02,
2,3.97e+00,-3.60e-02,
3,3.97e+00,-3.60e-02,
4,3.97e+00,-3.60e-02,
5,3.97e+00,-3.60e-02,
6,3.97e+00,-3.60e-02,
7,3.97e+00,-3.60e-02,
8,3.97e+00,-3.60e-02,
9,3.97e+00,-3.60e-02,
10,3.97e+00,-3.60e-02,
11,3.97e+00,-3.60e-02,
12,3.97e+00,-3.60e-02,
13,3.97e+00,-3.60e-02,
14,3.97e+00,-3.60e-02,
15,3.97e+00,-3.60e-02,
16,3.97e+00,-3.60e-02,
17,3.97e+00,-3.60e-02,
18,3.97e+00,-3.60e-02,
19,3.97e+00,-3.60e-02,
20,3.97e+00,-3.60e-02,
21,3.97e+00,-3.60e-02,
22,3.97e+00,-3.60e-02,
23,3.97e+00,-3.60e-02,
24,3.97e+00,-3.60e-02,
25,3.97e+00,-3.60e-02,
26,3.97e+00,-3.60e-02,
27,3.97e+00,-3.60e-02,
28,3.97e+00,-3.60e-02,
29,3.97e+00,-3.60e-02,
30,3.97e+00,-3.60e-02,
31,3.97e+00,-3.60e-02,
32,3.97e+00,-3.60e-02,
33,3.97e+00,-3.60e-02,
34,3.97e+00,-3.60e-02,
35,3.97e+00,-3.60e-02,
36,3.97e+00,-3.60e-02,
37,3.97e+00,-3.60e-02,
38,3.97e+00,-3.60e-02,
39,3.97e+00,-3.60e-02,
40,3.97e+00,-3.60e-02,
41,3.97e+00,-3.60e-02,
42,3.97e+00,-3.60e-02,
43,3.97e+00,-3.60e-02,
44,3.97e+00,-3.60e-02,
45,3.97e+00,-4.00e-02,
46,3.97e+00,-4.00e-02,
47,3.97e+00,-3.60e-02,
48,3.97e+00,-3.60e-02,
49,3.97e+00,-3.60e-02,
50,3.97e+00,-3.60e-02,
51,3.97e+00,-3.60e-02,
52,3.97e+00,-3.60e-02,
53,3.97e+00,-3.60e-02,
54,3.97e+00,-3.60e-02,
55,3.97e+00,-3.60e-02,
56,3.97e+00,-3.60e-02,
57,3.97e+00,-3.60e-02,
58,3.97e+00,-3.60e-02,
59,3.97e+00,-3.60e-02,
60,3.97e+00,-3.60e-02,
61,3.97e+00,-4.00e-02,
62,3.97e+00,-4.00e-02,
63,3.97e+00,-4.00e-02,
64,3.97e+00,-3.60e-02,
65,3.97e+00,-3.60e-02,
66,3.97e+00,-3.60e-02,
67,3.97e+00,-4.00e-02,
68,3.97e+00,-3.60e-02,
69,3.97e+00,-3.60e-02,
70,3.97e+00,-4.00e-02,
71,3.97e+00,-3.60e-02,
72,3.97e+00,-3.60e-02,
73,3.97e+00,-4.00e-02,
74,3.97e+00,-3.60e-02,
75,3.97e+00,-3.60e-02,
76,3.97e+00,-3.60e-02,
77,3.97e+00,-3.60e-02,
78,3.97e+00,-3.60e-02,
79,3.97e+00,-3.60e-02,
80,3.97e+00,-3.60e-02,
81,3.97e+00,-4.00e-02,
82,3.97e+00,-4.00e-02,
83,3.97e+00,-3.60e-02,
84,3.97e+00,-3.60e-02,
85,3.97e+00,-3.60e-02,
86,3.97e+00,-4.00e-02,
87,3.97e+00,-3.60e-02,
88,3.97e+00,-3.60e-02,
89,3.97e+00,-3.60e-02,
90,3.97e+00,-4.00e-02,
91,3.97e+00,-4.00e-02,
92,3.97e+00,-3.60e-02,
93,3.97e+00,-4.00e-02,
94,3.97e+00,-4.00e-02,
95,3.97e+00,-4.00e-02,
96,3.97e+00,-4.00e-02,
97,3.97e+00,-4.00e-02,
98,3.97e+00,-4.00e-02,
99,3.97e+00,-4.00e-02,
100,3.97e+00,-3.60e-02,
101,3.97e+00,-4.00e-02,
102,3.97e+00,-4.00e-02,
103,3.97e+00,-4.00e-02,
104,3.97e+00,-3.60e-02,
105,3.96e+00,-4.00e-02,
106,3.97e+00,-4.00e-02,
107,3.97e+00,-4.00e-02,
108,3.97e+00,-3.60e-02,
109,3.97e+00,-4.00e-02,
110,3.97e+00,-4.00e-02,
111,3.97e+00,-4.00e-02,
112,3.97e+00,-3.60e-02,
113,3.96e+00,-4.00e-02,
114,3.97e+00,-4.00e-02,
115,3.97e+00,-4.00e-02,
116,3.97e+00,-4.00e-02,
117,3.97e+00,-4.00e-02,
118,3.97e+00,-4.00e-02,
119,3.97e+00,-4.00e-02,
120,3.97e+00,-3.60e-02,
121,3.97e+00,-4.00e-02,
122,3.97e+00,-3.60e-02,
123,3.97e+00,-4.00e-02,
124,3.97e+00,-3.60e-02,
125,3.97e+00,-4.00e-02,
126,3.97e+00,-4.00e-02,
127,3.97e+00,-4.00e-02,
128,3.97e+00,-3.60e-02,
129,3.96e+00,-4.00e-02,
130,3.97e+00,-4.00e-02,
131,3.97e+00,-4.80e-02,
132,3.97e+00,-4.00e-02,
133,3.96e+00,-4.00e-02,
134,3.97e+00,-4.00e-02,
135,3.97e+00,-4.00e-02,
136,3.97e+00,-4.00e-02,
137,3.97e+00,-4.00e-02,
138,3.97e+00,-4.00e-02,
139,3.97e+00,-4.00e-02,
140,3.97e+00,-4.00e-02,
141,3.97e+00,-4.00e-02,
142,3.96e+00,-4.00e-02,
143,3.97e+00,-4.00e-02,
144,3.97e+00,-4.00e-02,
145,3.96e+00,-4.00e-02,
146,3.97e+00,-4.00e-02,
147,3.97e+00,-4.00e-02,
148,3.97e+00,-4.00e-02,
149,3.97e+00,-4.00e-02,
150,3.96e+00,-4.00e-02,
151,3.97e+00,-4.00e-02,
152,3.97e+00,-4.00e-02,
153,3.97e+00,-4.00e-02,
154,3.97e+00,-4.00e-02,
155,3.96e+00,-4.00e-02,
156,3.97e+00,-4.00e-02,
157,3.97e+00,-4.00e-02,
158,3.97e+00,-4.00e-02,
159,3.97e+00,-4.00e-02,
160,3.96e+00,-4.00e-02,
161,3.96e+00,-4.00e-02,
162,3.97e+00,-4.00e-02,
163,3.97e+00,-4.80e-02,
164,3.97e+00,-4.00e-02,
165,3.96e+00,-4.00e-02,
166,3.96e+00,-4.80e-02,
167,3.96e+00,-4.00e-02,
168,3.97e+00,-4.00e-02,
169,3.96e+00,-4.80e-02,
170,3.97e+00,-4.00e-02,
171,3.96e+00,-4.80e-02,
172,3.96e+00,-4.00e-02,
173,3.96e+00,-4.00e-02,
174,3.96e+00,-4.80e-02,
175,3.96e+00,-4.00e-02,
176,3.96e+00,-4.00e-02,
177,3.96e+00,-4.00e-02,
178,3.96e+00,-4.00e-02,
179,3.96e+00,-4.00e-02,
180,3.96e+00,-4.80e-02,
181,3.97e+00,-4.80e-02,
182,3.96e+00,-4.80e-02,
183,3.96e+00,-4.00e-02,
184,3.96e+00,-4.00e-02,
185,3.96e+00,-4.00e-02,
186,3.97e+00,-4.00e-02,
187,3.96e+00,-4.00e-02,
188,3.96e+00,-4.00e-02,
189,3.96e+00,-4.00e-02,
190,3.96e+00,-4.80e-02,
191,3.96e+00,-4.00e-02,
192,3.96e+00,-4.00e-02,
193,3.96e+00,-4.00e-02,
194,3.96e+00,-4.00e-02,
195,3.96e+00,-4.80e-02,
196,3.96e+00,-4.00e-02,
197,3.96e+00,-4.00e-02,
198,3.96e+00,-4.80e-02,
199,3.96e+00,-4.00e-02,
200,3.96e+00,-4.00e-02,
201,3.96e+00,-4.80e-02,
202,3.96e+00,-4.00e-02,
203,3.96e+00,-4.80e-02,
204,3.96e+00,-4.80e-02,
205,3.96e+00,-4.00e-02,
206,3.96e+00,-4.80e-02,
207,3.96e+00,-4.80e-02,
208,3.96e+00,-4.00e-02,
209,3.96e+00,-4.80e-02,
210,3.96e+00,-4.00e-02,
211,3.96e+00,-4.80e-02,
212,3.96e+00,-4.80e-02,
213,3.96e+00,-4.00e-02,
214,3.96e+00,-4.80e-02,
215,3.96e+00,-4.80e-02,
216,3.96e+00,-4.00e-02,
217,3.96e+00,-4.80e-02,
218,3.96e+00,-4.80e-02,
219,3.96e+00,-4.80e-02,
220,3.96e+00,-4.00e-02,
221,3.96e+00,-4.80e-02,
222,3.96e+00,-4.80e-02,
223,3.96e+00,-4.80e-02,
224,3.96e+00,-4.80e-02,
225,3.96e+00,-4.80e-02,
226,3.96e+00,-4.80e-02,
227,3.96e+00,-4.80e-02,
228,3.96e+00,-4.80e-02,
229,3.96e+00,-4.80e-02,
230,3.96e+00,-4.80e-02,
231,3.96e+00,-4.80e-02,
232,3.96e+00,-4.80e-02,
233,3.96e+00,-4.80e-02,
234,3.96e+00,-4.80e-02,
235,3.96e+00,-4.80e-02,
236,3.96e+00,-4.80e-02,
237,3.96e+00,-4.80e-02,
238,3.96e+00,-4.80e-02,
239,3.96e+00,-4.80e-02,
240,3.96e+00,-4.80e-02,
241,3.96e+00,-4.80e-02,
242,3.96e+00,-4.80e-02,
243,3.96e+00,-4.80e-02,
244,3.96e+00,-4.80e-02,
245,3.96e+00,-4.80e-02,
246,3.96e+00,-5.20e-02,
247,3.96e+00,-4.80e-02,
248,3.96e+00,-4.00e-02,
249,3.96e+00,-4.80e-02,
250,3.96e+00,-5.20e-02,
251,3.96e+00,-4.80e-02,
252,3.96e+00,-4.80e-02,
253,3.96e+00,-4.00e-02,
254,3.96e+00,-4.80e-02,
255,3.96e+00,-4.80e-02,
256,3.96e+00,-4.80e-02,
257,3.96e+00,-4.80e-02,
258,3.96e+00,-4.80e-02,
259,3.96e+00,-4.80e-02,
260,3.96e+00,-4.80e-02,
261,3.96e+00,-5.20e-02,
262,3.96e+00,-5.20e-02,
263,3.96e+00,-4.80e-02,
264,3.96e+00,-4.80e-02,
265,3.96e+00,-4.80e-02,
266,3.96e+00,-5.20e-02,
267,3.96e+00,-4.80e-02,
268,3.96e+00,-4.80e-02,
269,3.96e+00,-4.80e-02,
270,3.96e+00,-4.80e-02,
271,3.96e+00,-4.80e-02,
272,3.96e+00,-4.80e-02,
273,3.96e+00,-4.80e-02,
274,3.96e+00,-4.80e-02,
275,3.96e+00,-5.20e-02,
276,3.96e+00,-4.80e-02,
277,3.96e+00,-4.80e-02,
278,3.96e+00,-5.20e-02,
279,3.96e+00,-4.80e-02,
280,3.96e+00,-4.80e-02,
281,3.96e+00,-4.80e-02,
282,3.96e+00,-5.20e-02,
283,3.96e+00,-5.20e-02,
284,3.96e+00,-4.80e-02,
285,3.96e+00,-4.80e-02,
286,3.96e+00,-4.80e-02,
287,3.96e+00,-4.80e-02,
288,3.96e+00,-4.80e-02,
289,3.96e+00,-5.20e-02,
290,3.96e+00,-4.80e-02,
291,3.96e+00,-5.20e-02,
292,3.96e+00,-4.80e-02,
293,3.96e+00,-4.80e-02,
294,3.96e+00,-5.20e-02,
295,3.96e+00,-5.20e-02,
296,3.96e+00,-4.80e-02,
297,3.96e+00,-5.20e-02,
298,3.96e+00,-4.80e-02,
299,3.96e+00,-5.20e-02,
300,3.96e+00,-4.80e-02,
301,3.96e+00,-5.20e-02,
302,3.96e+00,-5.20e-02,
303,3.96e+00,-5.20e-02,
304,3.96e+00,-4.80e-02,
305,3.96e+00,-5.20e-02,
306,3.96e+00,-5.20e-02,
307,3.96e+00,-5.20e-02,
308,3.96e+00,-4.80e-02,
309,3.96e+00,-5.20e-02,
310,3.96e+00,-5.20e-02,
311,3.96e+00,-5.20e-02,
312,3.96e+00,-5.20e-02,
313,3.95e+00,-5.20e-02,
314,3.96e+00,-5.20e-02,
315,3.96e+00,-5.20e-02,
316,3.96e+00,-4.80e-02,
317,3.96e+00,-5.20e-02,
318,3.96e+00,-5.20e-02,
319,3.96e+00,-5.20e-02,
320,3.96e+00,-5.20e-02,
321,3.96e+00,-5.20e-02,
322,3.96e+00,-5.20e-02,
323,3.96e+00,-5.20e-02,
324,3.96e+00,-4.80e-02,
325,3.95e+00,-4.80e-02,
326,3.96e+00,-5.20e-02,
327,3.96e+00,-5.20e-02,
328,3.96e+00,-5.20e-02,
329,3.96e+00,-5.20e-02,
330,3.95e+00,-5.20e-02,
331,3.96e+00,-5.60e-02,
332,3.96e+00,-5.20e-02,
333,3.96e+00,-5.20e-02,
334,3.96e+00,-5.20e-02,
335,3.95e+00,-5.20e-02,
336,3.96e+00,-4.80e-02,
337,3.95e+00,-5.20e-02,
338,3.96e+00,-5.20e-02,
339,3.96e+00,-5.20e-02,
340,3.96e+00,-5.20e-02,
341,3.95e+00,-5.20e-02,
342,3.96e+00,-5.20e-02,
343,3.96e+00,-5.20e-02,
344,3.96e+00,-5.20e-02,
345,3.95e+00,-5.20e-02,
346,3.95e+00,-5.20e-02,
347,3.96e+00,-5.20e-02,
348,3.96e+00,-5.20e-02,
349,3.95e+00,-5.20e-02,
350,3.96e+00,-5.20e-02,
351,3.95e+00,-5.20e-02,
352,3.95e+00,-5.20e-02,
353,3.95e+00,-5.20e-02,
354,3.96e+00,-5.20e-02,
355,3.95e+00,-5.20e-02,
356,3.95e+00,-5.20e-02,
357,3.95e+00,-5.20e-02,
358,3.96e+00,-5.20e-02,
359,3.95e+00,-5.20e-02,
360,3.95e+00,-5.20e-02,
361,3.95e+00,-5.20e-02,
362,3.96e+00,-5.20e-02,
363,3.96e+00,-5.60e-02,
364,3.95e+00,-5.20e-02,
365,3.95e+00,-5.20e-02,
366,3.95e+00,-5.60e-02,
367,3.96e+00,-5.20e-02,
368,3.96e+00,-5.20e-02,
369,3.95e+00,-5.20e-02,
370,3.95e+00,-5.20e-02,
371,3.96e+00,-5.60e-02,
372,3.95e+00,-5.20e-02,
373,3.95e+00,-5.20e-02,
374,3.96e+00,-5.60e-02,
375,3.95e+00,-5.20e-02,
376,3.95e+00,-5.20e-02,
377,3.95e+00,-5.20e-02,
378,3.95e+00,-5.20e-02,
379,3.95e+00,-5.20e-02,
380,3.96e+00,-5.20e-02,
381,3.95e+00,-5.20e-02,
382,3.96e+00,-5.60e-02,
383,3.95e+00,-5.20e-02,
384,3.95e+00,-5.20e-02,
385,3.95e+00,-5.60e-02,
386,3.95e+00,-5.60e-02,
387,3.95e+00,-5.60e-02,
388,3.95e+00,-5.20e-02,
389,3.95e+00,-5.60e-02,
390,3.95e+00,-5.60e-02,
391,3.95e+00,-5.60e-02,
392,3.95e+00,-5.20e-02,
393,3.95e+00,-5.60e-02,
394,3.95e+00,-5.60e-02,
395,3.95e+00,-5.60e-02,
396,3.95e+00,-5.20e-02,
397,3.95e+00,-5.60e-02,
398,3.95e+00,-5.60e-02,
399,3.95e+00,-5.60e-02,
400,3.95e+00,-5.60e-02,
401,3.95e+00,-5.60e-02,
402,3.95e+00,-5.60e-02,
403,3.95e+00,-5.60e-02,
404,3.95e+00,-5.60e-02,
405,3.95e+00,-5.60e-02,
406,3.95e+00,-5.60e-02,
407,3.95e+00,-5.60e-02,
408,3.95e+00,-5.60e-02,
409,3.95e+00,-5.60e-02,
410,3.95e+00,-5.60e-02,
411,3.95e+00,-5.60e-02,
412,3.95e+00,-5.20e-02,
413,3.95e+00,-5.60e-02,
414,3.95e+00,-5.60e-02,
415,3.95e+00,-5.60e-02,
416,3.95e+00,-5.60e-02,
417,3.95e+00,-5.60e-02,
418,3.95e+00,-5.60e-02,
419,3.95e+00,-5.60e-02,
420,3.95e+00,-5.20e-02,
421,3.95e+00,-5.60e-02,
422,3.95e+00,-5.60e-02,
423,3.95e+00,-5.60e-02,
424,3.95e+00,-5.60e-02,
425,3.95e+00,-5.60e-02,
426,3.95e+00,-5.60e-02,
427,3.95e+00,-5.60e-02,
428,3.95e+00,-5.60e-02,
429,3.95e+00,-5.60e-02,
430,3.95e+00,-5.60e-02,
431,3.95e+00,-5.60e-02,
432,3.95e+00,-5.60e-02,
433,3.95e+00,-5.60e-02,
434,3.95e+00,-5.60e-02,
435,3.95e+00,-5.60e-02,
436,3.95e+00,-5.60e-02,
437,3.95e+00,-5.60e-02,
438,3.95e+00,-5.60e-02,
439,3.95e+00,-5.60e-02,
440,3.95e+00,-5.20e-02,
441,3.95e+00,-5.60e-02,
442,3.95e+00,-5.60e-02,
443,3.95e+00,-5.60e-02,
444,3.95e+00,-5.60e-02,
445,3.95e+00,-5.60e-02,
446,3.95e+00,-5.60e-02,
447,3.95e+00,-5.60e-02,
448,3.95e+00,-5.60e-02,
449,3.95e+00,-6.00e-02,
450,3.95e+00,-5.60e-02,
451,3.95e+00,-5.60e-02,
452,3.95e+00,-5.60e-02,
453,3.95e+00,-5.60e-02,
454,3.95e+00,-5.60e-02,
455,3.95e+00,-5.60e-02,
456,3.95e+00,-5.60e-02,
457,3.95e+00,-5.60e-02,
458,3.95e+00,-5.60e-02,
459,3.95e+00,-6.00e-02,
460,3.95e+00,-5.60e-02,
461,3.95e+00,-5.60e-02,
462,3.95e+00,-5.60e-02,
463,3.95e+00,-5.60e-02,
464,3.95e+00,-5.60e-02,
465,3.95e+00,-5.60e-02,
466,3.95e+00,-5.60e-02,
467,3.95e+00,-5.60e-02,
468,3.95e+00,-5.60e-02,
469,3.95e+00,-5.60e-02,
470,3.95e+00,-6.00e-02,
471,3.95e+00,-6.00e-02,
472,3.95e+00,-5.60e-02,
473,3.95e+00,-5.60e-02,
474,3.95e+00,-6.00e-02,
475,3.95e+00,-6.00e-02,
476,3.95e+00,-5.60e-02,
477,3.95e+00,-5.60e-02,
478,3.95e+00,-5.60e-02,
479,3.95e+00,-5.60e-02,
480,3.95e+00,-5.60e-02,
481,3.95e+00,-6.00e-02,
482,3.95e+00,-5.60e-02,
483,3.95e+00,-6.00e-02,
484,3.95e+00,-5.60e-02,
485,3.95e+00,-6.00e-02,
486,3.95e+00,-6.00e-02,
487,3.95e+00,-6.00e-02,
488,3.95e+00,-5.60e-02,
489,3.95e+00,-5.60e-02,
490,3.95e+00,-5.60e-02,
491,3.95e+00,-6.00e-02,
492,3.95e+00,-5.60e-02,
493,3.95e+00,-5.60e-02,
494,3.95e+00,-6.00e-02,
495,3.95e+00,-6.00e-02,
496,3.95e+00,-5.60e-02,
497,3.95e+00,-6.00e-02,
498,3.95e+00,-5.60e-02,
499,3.95e+00,-6.00e-02,
500,3.95e+00,-5.60e-02,
501,3.95e+00,-6.00e-02,
502,3.95e+00,-5.60e-02,
503,3.95e+00,-5.60e-02,
504,3.95e+00,-5.60e-02,
505,3.95e+00,-6.00e-02,
506,3.95e+00,-5.60e-02,
507,3.95e+00,-6.00e-02,
508,3.95e+00,-5.60e-02,
509,3.95e+00,-6.00e-02,
510,3.95e+00,-6.00e-02,
511,3.95e+00,-5.60e-02,
512,3.95e+00,-6.00e-02,
513,3.95e+00,-5.60e-02,
514,3.95e+00,-6.00e-02,
515,3.95e+00,-6.00e-02,
516,3.95e+00,-5.60e-02,
517,3.95e+00,-6.00e-02,
518,3.95e+00,-6.00e-02,
519,3.95e+00,-6.00e-02,
520,3.95e+00,-5.60e-02,
521,3.95e+00,-6.00e-02,
522,3.95e+00,-6.00e-02,
523,3.95e+00,-6.00e-02,
524,3.95e+00,-6.00e-02,
525,3.95e+00,-6.00e-02,
526,3.95e+00,-6.00e-02,
527,3.95e+00,-6.00e-02,
528,3.95e+00,-5.60e-02,
529,3.95e+00,-6.00e-02,
530,3.95e+00,-6.00e-02,
531,3.95e+00,-6.00e-02,
532,3.95e+00,-5.60e-02,
533,3.95e+00,-6.00e-02,
534,3.95e+00,-6.00e-02,
535,3.95e+00,-6.00e-02,
536,3.95e+00,-6.00e-02,
537,3.95e+00,-6.00e-02,
538,3.95e+00,-6.00e-02,
539,3.95e+00,-6.00e-02,
540,3.95e+00,-6.00e-02,
541,3.95e+00,-6.00e-02,
542,3.95e+00,-6.00e-02,
543,3.95e+00,-6.00e-02,
544,3.95e+00,-6.00e-02,
545,3.95e+00,-6.00e-02,
546,3.95e+00,-6.00e-02,
547,3.95e+00,-6.00e-02,
548,3.95e+00,-6.00e-02,
549,3.95e+00,-6.00e-02,
550,3.95e+00,-6.00e-02,
551,3.95e+00,-6.00e-02,
552,3.95e+00,-6.00e-02,
553,3.95e+00,-6.00e-02,
554,3.95e+00,-6.00e-02,
555,3.95e+00,-6.00e-02,
556,3.95e+00,-6.00e-02,
557,3.95e+00,-6.00e-02,
558,3.95e+00,-6.00e-02,
559,3.95e+00,-6.00e-02,
560,3.95e+00,-6.00e-02,
561,3.95e+00,-6.00e-02,
562,3.95e+00,-6.00e-02,
563,3.95e+00,-6.00e-02,
564,3.95e+00,-6.00e-02,
565,3.95e+00,-6.00e-02,
566,3.95e+00,-6.00e-02,
567,3.95e+00,-6.00e-02,
568,3.95e+00,-6.00e-02,
569,3.95e+00,-6.00e-02,
570,3.95e+00,-6.00e-02,
571,3.95e+00,-6.00e-02,
572,3.95e+00,-6.00e-02,
573,3.95e+00,-6.00e-02,
574,3.95e+00,-6.00e-02,
575,3.95e+00,-6.00e-02,
576,3.95e+00,-6.00e-02,
577,3.95e+00,-6.00e-02,
578,3.95e+00,-6.00e-02,
579,3.95e+00,-6.00e-02,
580,3.95e+00,-6.00e-02,
581,3.95e+00,-6.00e-02,
582,3.95e+00,-6.00e-02,
583,3.95e+00,-6.00e-02,
584,3.95e+00,-6.00e-02,
585,3.95e+00,-6.40e-02,
586,3.95e+00,-6.00e-02,
587,3.95e+00,-6.00e-02,
588,3.95e+00,-6.00e-02,
589,3.95e+00,-6.00e-02,
590,3.95e+00,-6.40e-02,
591,3.95e+00,-6.00e-02,
592,3.95e+00,-6.00e-02,
593,3.95e+00,-6.00e-02,
594,3.95e+00,-6.00e-02,
595,3.95e+00,-6.40e-02,
596,3.95e+00,-6.00e-02,
597,3.95e+00,-6.40e-02,
598,3.95e+00,-6.00e-02,
599,3.95e+00,-6.00e-02,
600,3.95e+00,-6.00e-02,
601,3.95e+00,-6.00e-02,
602,3.95e+00,-6.00e-02,
603,3.95e+00,-6.40e-02,
604,3.95e+00,-6.00e-02,
605,3.95e+00,-6.00e-02,
606,3.95e+00,-6.40e-02,
607,3.95e+00,-6.00e-02,
608,3.95e+00,-6.00e-02,
609,3.95e+00,-6.40e-02,
610,3.95e+00,-6.40e-02,
611,3.95e+00,-6.40e-02,
612,3.95e+00,-6.00e-02,
613,3.95e+00,-6.00e-02,
614,3.95e+00,-6.40e-02,
615,3.95e+00,-6.00e-02,
616,3.95e+00,-6.00e-02,
617,3.94e+00,-6.40e-02,
618,3.95e+00,-6.40e-02,
619,3.95e+00,-6.40e-02,
620,3.95e+00,-6.40e-02,
621,3.95e+00,-6.00e-02,
622,3.95e+00,-6.40e-02,
623,3.95e+00,-6.00e-02,
624,3.95e+00,-6.00e-02,
625,3.95e+00,-6.00e-02,
626,3.95e+00,-6.00e-02,
627,3.95e+00,-6.40e-02,
628,3.95e+00,-6.00e-02,
629,3.94e+00,-6.40e-02,
630,3.95e+00,-6.40e-02,
631,3.95e+00,-6.00e-02,
632,3.95e+00,-6.00e-02,
633,3.94e+00,-6.00e-02,
634,3.95e+00,-6.40e-02,
635,3.95e+00,-6.40e-02,
636,3.95e+00,-6.00e-02,
637,3.95e+00,-6.40e-02,
638,3.95e+00,-6.40e-02,
639,3.95e+00,-6.40e-02,
640,3.95e+00,-6.00e-02,
641,3.95e+00,-6.40e-02,
642,3.95e+00,-6.40e-02,
643,3.95e+00,-6.40e-02,
644,3.95e+00,-6.00e-02,
645,3.95e+00,-6.00e-02,
646,3.95e+00,-6.40e-02,
647,3.95e+00,-6.00e-02,
648,3.95e+00,-6.00e-02,
649,3.95e+00,-6.40e-02,
650,3.95e+00,-6.40e-02,
651,3.95e+00,-6.40e-02,
652,3.95e+00,-6.00e-02,
653,3.94e+00,-6.40e-02,
654,3.95e+00,-6.40e-02,
655,3.94e+00,-6.40e-02,
656,3.95e+00,-6.40e-02,
657,3.95e+00,-6.40e-02,
658,3.95e+00,-6.40e-02,
659,3.95e+00,-6.40e-02,
660,3.95e+00,-6.40e-02,
661,3.95e+00,-6.40e-02,
662,3.95e+00,-6.40e-02,
663,3.95e+00,-6.40e-02,
664,3.95e+00,-6.40e-02,
665,3.94e+00,-6.40e-02,
666,3.95e+00,-6.40e-02,
667,3.95e+00,-6.40e-02,
668,3.94e+00,-6.00e-02,
669,3.94e+00,-6.40e-02,
670,3.95e+00,-6.40e-02,
671,3.95e+00,-6.40e-02,
672,3.95e+00,-6.40e-02,
673,3.94e+00,-6.40e-02,
674,3.95e+00,-6.40e-02,
675,3.95e+00,-6.40e-02,
676,3.95e+00,-6.40e-02,
677,3.94e+00,-6.40e-02,
678,3.94e+00,-6.40e-02,
679,3.94e+00,-6.40e-02,
680,3.94e+00,-6.40e-02,
681,3.94e+00,-6.40e-02,
682,3.94e+00,-6.40e-02,
683,3.94e+00,-6.40e-02,
684,3.95e+00,-6.40e-02,
685,3.95e+00,-6.40e-02,
686,3.95e+00,-6.40e-02,
687,3.94e+00,-6.40e-02,
688,3.95e+00,-6.40e-02,
689,3.94e+00,-6.40e-02,
690,3.95e+00,-6.40e-02,
691,3.95e+00,-6.40e-02,
692,3.95e+00,-6.40e-02,
693,3.94e+00,-6.40e-02,
694,3.95e+00,-6.40e-02,
695,3.94e+00,-6.40e-02,
696,3.95e+00,-6.40e-02,
697,3.94e+00,-6.40e-02,
698,3.95e+00,-6.40e-02,
699,3.94e+00,-6.40e-02,
700,3.95e+00,-6.40e-02,
701,3.94e+00,-6.40e-02,
702,3.95e+00,-6.80e-02,
703,3.94e+00,-6.40e-02,
704,3.95e+00,-6.40e-02,
705,3.94e+00,-6.40e-02,
706,3.95e+00,-6.40e-02,
707,3.94e+00,-6.40e-02,
708,3.94e+00,-6.40e-02,
709,3.94e+00,-6.40e-02,
710,3.95e+00,-6.40e-02,
711,3.94e+00,-6.40e-02,
712,3.95e+00,-6.40e-02,
713,3.94e+00,-6.40e-02,
714,3.94e+00,-6.40e-02,
715,3.94e+00,-6.80e-02,
716,3.94e+00,-6.40e-02,
717,3.94e+00,-6.80e-02,
718,3.95e+00,-6.80e-02,
719,3.94e+00,-6.40e-02,
720,3.95e+00,-6.40e-02,
721,3.94e+00,-6.40e-02,
722,3.94e+00,-6.40e-02,
723,3.94e+00,-6.40e-02,
724,3.94e+00,-6.40e-02,
725,3.94e+00,-6.40e-02,
726,3.94e+00,-6.80e-02,
727,3.94e+00,-6.40e-02,
728,3.94e+00,-6.40e-02,
729,3.94e+00,-6.40e-02,
730,3.94e+00,-6.40e-02,
731,3.94e+00,-6.80e-02,
732,3.94e+00,-6.40e-02,
733,3.94e+00,-6.40e-02,
734,3.94e+00,-6.80e-02,
735,3.94e+00,-6.40e-02,
736,3.94e+00,-6.40e-02,
737,3.95e+00,-6.80e-02,
738,3.94e+00,-6.40e-02,
739,3.94e+00,-6.40e-02,
740,3.94e+00,-6.40e-02,
741,3.94e+00,-6.80e-02,
742,3.94e+00,-6.80e-02,
743,3.94e+00,-6.40e-02,
744,3.94e+00,-6.40e-02,
745,3.94e+00,-6.80e-02,
746,3.94e+00,-6.80e-02,
747,3.94e+00,-6.40e-02,
748,3.94e+00,-6.40e-02,
749,3.94e+00,-6.80e-02,
750,3.94e+00,-6.40e-02,
751,3.94e+00,-6.40e-02,
752,3.94e+00,-6.40e-02,
753,3.94e+00,-6.40e-02,
754,3.94e+00,-6.80e-02,
755,3.94e+00,-6.80e-02,
756,3.94e+00,-6.40e-02,
757,3.94e+00,-6.40e-02,
758,3.94e+00,-6.80e-02,
759,3.94e+00,-6.40e-02,
760,3.94e+00,-6.40e-02,
761,3.94e+00,-6.40e-02,
762,3.94e+00,-6.80e-02,
763,3.94e+00,-6.80e-02,
764,3.94e+00,-6.40e-02,
765,3.94e+00,-6.40e-02,
766,3.94e+00,-6.80e-02,
767,3.94e+00,-6.80e-02,
768,3.94e+00,-6.40e-02,
769,3.94e+00,-6.40e-02,
770,3.94e+00,-6.40e-02,
771,3.94e+00,-6.80e-02,
772,3.94e+00,-6.40e-02,
773,3.94e+00,-6.80e-02,
774,3.94e+00,-6.80e-02,
775,3.94e+00,-6.80e-02,
776,3.94e+00,-6.40e-02,
777,3.94e+00,-6.40e-02,
778,3.94e+00,-6.80e-02,
779,3.94e+00,-6.80e-02,
780,3.94e+00,-6.40e-02,
781,3.94e+00,-6.80e-02,
782,3.94e+00,-6.80e-02,
783,3.94e+00,-6.80e-02,
784,3.94e+00,-6.40e-02,
785,3.94e+00,-6.80e-02,
786,3.94e+00,-6.80e-02,
787,3.94e+00,-6.80e-02,
788,3.94e+00,-6.40e-02,
789,3.94e+00,-6.80e-02,
790,3.94e+00,-6.80e-02,
791,3.94e+00,-6.80e-02,
792,3.94e+00,-6.40e-02,
793,3.94e+00,-6.80e-02,
794,3.94e+00,-6.80e-02,
795,3.94e+00,-6.80e-02,
796,3.94e+00,-6.80e-02,
797,3.94e+00,-6.80e-02,
798,3.94e+00,-6.80e-02,
799,3.94e+00,-6.40e-02,
800,3.94e+00,-6.80e-02,
801,3.94e+00,-6.80e-02,
802,3.94e+00,-6.80e-02,
803,3.94e+00,-6.80e-02,
804,3.94e+00,-6.80e-02,
805,3.94e+00,-6.80e-02,
806,3.94e+00,-6.80e-02,
807,3.94e+00,-6.80e-02,
808,3.94e+00,-6.80e-02,
809,3.94e+00,-6.80e-02,
810,3.94e+00,-6.80e-02,
811,3.94e+00,-6.80e-02,
812,3.94e+00,-6.80e-02,
813,3.94e+00,-6.80e-02,
814,3.94e+00,-6.80e-02,
815,3.94e+00,-6.80e-02,
816,3.94e+00,-6.40e-02,
817,3.94e+00,-6.80e-02,
818,3.94e+00,-6.80e-02,
819,3.94e+00,-6.80e-02,
820,3.94e+00,-6.80e-02,
821,3.94e+00,-6.80e-02,
822,3.94e+00,-6.80e-02,
823,3.94e+00,-6.80e-02,
824,3.94e+00,-6.80e-02,
825,3.94e+00,-6.80e-02,
826,3.94e+00,-6.80e-02,
827,3.94e+00,-6.80e-02,
828,3.94e+00,-6.80e-02,
829,3.94e+00,-6.80e-02,
830,3.94e+00,-6.80e-02,
831,3.94e+00,-6.80e-02,
832,3.94e+00,-6.80e-02,
833,3.94e+00,-6.80e-02,
