Lab4/Data/q1.csv

X,CH1,CH2,Start,Increment,
Sequence,Volt,Volt,-3.000000e-05,2.000000e-09
0,-6.00e-03,1.82e+01,
1,-4.00e-03,1.82e+01,
2,-4.00e-03,1.82e+01,
3,-2.00e-03,1.80e+01,
4,-4.00e-03,1.82e+01,
5,-6.00e-03,1.80e+01,
6,-4.00e-03,1.82e+01,
7,-4.00e-03,1.82e+01,
8,-4.00e-03,1.82e+01,
9,-4.00e-03,1.82e+01,
10,-4.00e-03,1.82e+01,
11,-4.00e-03,1.80e+01,
12,-2.00e-03,1.82e+01,
13,-2.00e-03,1.80e+01,
14,-4.00e-03,1.82e+01,
15,-4.00e-03,1.82e+01,
16,-4.00e-03,1.82e+01,
17,-2.00e-03,1.82e+01,
18,-6.00e-03,1.82e+01,
19,-4.00e-03,1.82e+01,
20,-4.00e-03,1.80e+01,
21,-4.00e-03,1.80e+01,
22,-4.00e-03,1.82e+01,
23,-4.00e-03,1.80e+01,
24,-6.00e-03,1.82e+01,
25,-2.00e-03,1.82e+01,
26,-4.00e-03,1.82e+01,
27,-4.00e-03,1.80e+01,
28,-4.00e-03,1.82e+01,
29,-4.00e-03,1.80e+01,
30,-4.00e-03,1.80e+01,
31,-4.00e-03,1.80e+01,
32,-4.00e-03,1.82e+01,
33,-2.00e-03,1.80e+01,
34,-4.00e-03,1.82e+01,
35,-4.00e-03,1.80e+01,
36,-4.00e-03,1.82e+01,
37,-4.00e-03,1.80e+01,
38,-6.00e-03,1.82e+01,
39,-4.00e-03,1.80e+01,
40,-4.00e-03,1.82e+01,
41,-4.00e-03,1.80e+01,
42,-6.00e-03,1.80e+01,
43,-4.00e-03,1.80e+01,
44,-4.00e-03,1.82e+01,
45,-4.00e-03,1.80e+01,
46,-6.00e-03,1.82e+01,
47,-4.00e-03,1.80e+01,
48,-4.00e-03,1.80e+01,
49,-4.00e-03,1.80e+01,
50,-4.00e-03,1.82e+01,
51,-2.00e-03,1.80e+01,
52,-4.00e-03,1.80e+01,
53,-6.00e-03,1.80e+01,
54,-6.00e-03,1.80e+01,
55,-4.00e-03,1.80e+01,
56,-6.00e-03,1.80e+01,
57,-4.00e-03,1.80e+01,
58,-6.00e-03,1.80e+01,
59,-6.00e-03,1.80e+01,
60,-4.00e-03,1.80e+01,
61,-4.00e-03,1.80e+01,
62,-4.00e-03,1.80e+01,
63,-4.00e-03,1.76e+01,
64,-6.00e-03,1.80e+01,
65,-2.00e-03,1.76e+01,
66,-4.00e-03,1.80e+01,
67,-4.00e-03,1.76e+01,
68,-4.00e-03,1.80e+01,
69,-4.00e-03,1.80e+01,
70,-6.00e-03,1.80e+01,
71,-4.00e-03,1.80e+01,
72,-4.00e-03,1.80e+01,
73,-4.00e-03,1.76e+01,
74,-4.00e-03,1.80e+01,
75,-4.00e-03,1.76e+01,
76,-4.00e-03,1.76e+01,
77,-4.00e-03,1.76e+01,
78,-4.00e-03,1.76e+01,
79,-4.00e-03,1.76e+01,
80,-4.00e-03,1.76e+01,
81,-4.00e-03,1.76e+01,
82,-6.00e-03,1.76e+01,
83,-6.00e-03,1.74e+01,
84,-4.00e-03,1.76e+01,
85,-4.00e-03,1.76e+01,
86,-4.00e-03,1.76e+01,
87,-4.00e-03,1.74e+01,
88,-6.00e-03,1.76e+01,
89,-2.00e-03,1.76e+01,
90,-6.00e-03,1.74e+01,
91,-4.00e-03,1.74e+01,
92,-4.00e-03,1.74e+01,
93,-4.00e-03,1.74e+01,
94,-4.00e-03,1.74e+01,
95,-4.00e-03,1.74e+01,
96,-4.00e-03,1.74e+01,
97,-4.00e-03,1.74e+01,
98,-6.00e-03,1.74e+01,
99,-4.00e-03,1.72e+01,
100,-6.00e-03,1.74e+01,
101,-6.00e-03,1.72e+01,
102,-6.00e-03,1.74e+01,
103,-4.00e-03,1.72e+01,
104,-4.00e-03,1.72e+01,
105,-4.00e-03,1.72e+01,
106,-6.00e-03,1.70e+01,
107,-4.00e-03,1.70e+01,
108,-6.00e-03,1.72e+01,
109,-6.00e-03,1.70e+01,
110,-6.00e-03,1.70e+01,
111,-6.00e-03,1.68e+01,
112,-6.00e-03,1.70e+01,
113,-4.00e-03,1.70e+01,
114,-6.00e-03,1.68e+01,
115,-6.00e-03,1.68e+01,
116,-4.00e-03,1.68e+01,
117,-4.00e-03,1.68e+01,
118,-6.00e-03,1.68e+01,
119,-4.00e-03,1.66e+01,
120,-4.00e-03,1.68e+01,
121,-4.00e-03,1.66e+01,
122,-6.00e-03,1.68e+01,
123,-6.00e-03,1.66e+01,
124,-6.00e-03,1.66e+01,
125,-6.00e-03,1.66e+01,
126,-6.00e-03,1.66e+01,
127,-4.00e-03,1.64e+01,
128,-6.00e-03,1.64e+01,
129,-4.00e-03,1.64e+01,
130,-4.00e-03,1.66e+01,
131,-4.00e-03,1.62e+01,
132,-4.00e-03,1.64e+01,
133,-4.00e-03,1.62e+01,
134,-6.00e-03,1.62e+01,
135,-6.00e-03,1.62e+01,
136,-4.00e-03,1.64e+01,
137,-4.00e-03,1.62e+01,
138,-6.00e-03,1.62e+01,
139,-4.00e-03,1.60e+01,
140,-6.00e-03,1.62e+01,
141,-4.00e-03,1.60e+01,
142,-4.00e-03,1.60e+01,
143,-4.00e-03,1.60e+01,
144,-6.00e-03,1.60e+01,
145,-2.00e-03,1.60e+01,
146,-4.00e-03,1.60e+01,
147,-6.00e-03,1.58e+01,
148,-6.00e-03,1.58e+01,
149,-4.00e-03,1.58e+01,
150,-6.00e-03,1.58e+01,
151,-4.00e-03,1.58e+01,
152,-6.00e-03,1.58e+01,
153,-4.00e-03,1.56e+01,
154,-4.00e-03,1.56e+01,
155,-4.00e-03,1.56e+01,
156,-6.00e-03,1.56e+01,
157,-4.00e-03,1.54e+01,
158,-4.00e-03,1.56e+01,
159,-2.00e-03,1.54e+01,
160,-6.00e-03,1.54e+01,
161,-4.00e-03,1.54e+01,
162,-6.00e-03,1.54e+01,
163,-6.00e-03,1.52e+01,
164,-6.00e-03,1.54e+01,
165,-6.00e-03,1.52e+01,
166,-4.00e-03,1.52e+01,
167,-4.00e-03,1.50e+01,
168,-4.00e-03,1.52e+01,
169,-2.00e-03,1.52e+01,
170,-6.00e-03,1.52e+01,
171,-4.00e-03,1.50e+01,
172,-4.00e-03,1.50e+01,
173,-4.00e-03,1.50e+01,
174,-6.00e-03,1.50e+01,
175,-4.00e-03,1.46e+01,
176,-4.00e-03,1.46e+01,
177,-4.00e-03,1.46e+01,
178,-4.00e-03,1.46e+01,
179,-4.00e-03,1.46e+01,
180,-6.00e-03,1.46e+01,
181,-6.00e-03,1.44e+01,
182,-6.00e-03,1.44e+01,
183,-4.00e-03,1.42e+01,
184,-4.00e-03,1.44e+01,
185,-4.00e-03,1.44e+01,
186,-6.00e-03,1.44e+01,
187,-4.00e-03,1.42e+01,
188,-4.00e-03,1.44e+01,
189,-4.00e-03,1.42e+01,
190,-4.00e-03,1.42e+01,
191,-4.00e-03,1.40e+01,
192,-2.00e-03,1.42e+01,
193,-4.00e-03,1.42e+01,
194,-6.00e-03,1.42e+01,
195,-4.00e-03,1.40e+01,
196,-6.00e-03,1.40e+01,
197,-6.00e-03,1.40e+01,
198,-4.00e-03,1.40e+01,
199,-4.00e-03,1.40e+01,
200,-4.00e-03,1.40e+01,
201,-2.00e-03,1.38e+01,
202,-4.00e-03,1.38e+01,
203,-6.00e-03,1.36e+01,
204,-6.00e-03,1.38e+01,
205,-4.00e-03,1.38e+01,
206,-6.00e-03,1.36e+01,
207,-4.00e-03,1.38e+01,
208,-6.00e-03,1.38e+01,
209,-4.00e-03,1.36e+01,
210,-6.00e-03,1.36e+01,
211,-6.00e-03,1.36e+01,
212,-6.00e-03,1.36e+01,
213,-6.00e-03,1.36e+01,
214,-4.00e-03,1.36e+01,
215,-4.00e-03,1.36e+01,
216,-2.00e-03,1.34e+01,
217,-4.00e-03,1.34e+01,
218,-4.00e-03,1.34e+01,
219,-4.00e-03,1.32e+01,
220,-4.00e-03,1.34e+01,
221,-4.00e-03,1.34e+01,
222,-4.00e-03,1.32e+01,
223,-4.00e-03,1.32e+01,
224,-4.00e-03,1.32e+01,
225,-2.00e-03,1.32e+01,
226,-4.00e-03,1.32e+01,
227,-4.00e-03,1.30e+01,
228,-6.00e-03,1.32e+01,
229,-4.00e-03,1.32e+01,
230,-4.00e-03,1.32e+01,
231,-4.00e-03,1.32e+01,
232,-4.00e-03,1.32e+01,
233,-2.00e-03,1.30e+01,
234,-4.00e-03,1.30e+01,
235,-4.00e-03,1.30e+01,
236,-6.00e-03,1.30e+01,
237,-4.00e-03,1.30e+01,
238,-6.00e-03,1.30e+01,
239,-4.00e-03,1.30e+01,
240,-4.00e-03,1.30e+01,
241,-2.00e-03,1.30e+01,
242,-4.00e-03,1.30e+01,
243,-2.00e-03,1.28e+01,
244,-4.00e-03,1.28e+01,
245,-6.00e-03,1.28e+01,
246,-4.00e-03,1.30e+01,
247,-4.00e-03,1.28e+01,
248,-6.00e-03,1.28e+01,
249,-2.00e-03,1.28e+01,
250,-4.00e-03,1.28e+01,
251,-4.00e-03,1.28e+01,
252,-4.00e-03,1.28e+01,
253,-4.00e-03,1.28e+01,
254,-4.00e-03,1.28e+01,
255,-4.00e-03,1.28e+01,
256,-4.00e-03,1.28e+01,
257,-4.00e-03,1.28e+01,
258,-4.00e-03,1.28e+01,
259,-4.00e-03,1.26e+01,
260,-4.00e-03,1.28e+01,
261,-4.00e-03,1.28e+01,
262,-4.00e-03,1.28e+01,
263,-2.00e-03,1.26e+01,
264,-6.00e-03,1.26e+01,
265,-4.00e-03,1.26e+01,
266,-6.00e-03,1.26e+01,
267,-4.00e-03,1.26e+01,
268,-4.00e-03,1.26e+01,
269,-4.00e-03,1.26e+01,
270,-4.00e-03,1.28e+01,
271,-4.00e-03,1.26e+01,
272,-4.00e-03,1.28e+01,
273,-2.00e-03,1.26e+01,
274,-4.00e-03,1.26e+01,
275,-4.00e-03,1.26e+01,
276,-4.00e-03,1.28e+01,
277,-4.00e-03,1.26e+01,
278,-6.00e-03,1.26e+01,
279,-4.00e-03,1.26e+01,
280,-2.00e-03,1.26e+01,
281,-4.00e-03,1.26e+01,
282,-4.00e-03,1.28e+01,
283,-2.00e-03,1.26e+01,
284,-4.00e-03,1.26e+01,
285,-4.00e-03,1.26e+01,
286,-4.00e-03,1.26e+01,
287,-2.00e-03,1.26e+01,
288,-4.00e-03,1.26e+01,
289,-2.00e-03,1.28e+01,
290,-4.00e-03,1.26e+01,
291,-4.00e-03,1.26e+01,
292,-6.00e-03,1.28e+01,
293,-4.00e-03,1.28e+01,
294,-2.00e-03,1.26e+01,
295,-2.00e-03,1.28e+01,
296,-2.00e-03,1.28e+01,
297,-2.00e-03,1.28e+01,
298,-4.00e-03,1.28e+01,
299,-4.00e-03,1.28e+01,
300,-4.00e-03,1.28e+01,
301,-4.00e-03,1.28e+01,
302,-4.00e-03,1.28e+01,
303,-6.00e-03,1.28e+01,
304,-4.00e-03,1.28e+01,
305,-2.00e-03,1.28e+01,
306,-4.00e-03,1.28e+01,
307,-2.00e-03,1.28e+01,
308,-4.00e-03,1.30e+01,
309,-4.00e-03,1.28e+01,
310,-4.00e-03,1.28e+01,
311,-2.00e-03,1.28e+01,
312,-4.00e-03,1.28e+01,
313,-4.00e-03,1.30e+01,
314,-4.00e-03,1.30e+01,
315,-4.00e-03,1.30e+01,
316,-4.00e-03,1.30e+01,
317,-2.00e-03,1.30e+01,
318,-2.00e-03,1.30e+01,
319,-2.00e-03,1.30e+01,
320,-4.00e-03,1.30e+01,
321,-2.00e-03,1.30e+01,
322,-4.00e-03,1.30e+01,
323,-4.00e-03,1.30e+01,
324,-4.00e-03,1.32e+01,
325,-2.00e-03,1.32e+01,
326,-4.00e-03,1.32e+01,
327,-4.00e-03,1.32e+01,
328,-4.00e-03,1.32e+01,
329,-2.00e-03,1.34e+01,
330,-4.00e-03,1.32e+01,
331,-4.00e-03,1.32e+01,
332,-4.00e-03,1.34e+01,
333,-4.00e-03,1.32e+01,
334,-4.00e-03,1.34e+01,
335,-2.00e-03,1.34e+01,
336,-2.00e-03,1.34e+01,
337,0.00e+00,1.34e+01,
338,-4.00e-03,1.34e+01,
339,-4.00e-03,1.34e+01,
340,-2.00e-03,1.36e+01,
341,-2.00e-03,1.34e+01,
342,-4.00e-03,1.36e+01,
343,-4.00e-03,1.34e+01,
344,-2.00e-03,1.38e+01,
345,-2.00e-03,1.38e+01,
346,-4.00e-03,1.36e+01,
347,-2.00e-03,1.36e+01,
348,-4.00e-03,1.38e+01,
349,-4.00e-03,1.38e+01,
350,-4.00e-03,1.38e+01,
351,-4.00e-03,1.38e+01,
352,-2.00e-03,1.38e+01,
353,-2.00e-03,1.38e+01,
354,-4.00e-03,1.38e+01,
355,-4.00e-03,1.38e+01,
356,-4.00e-03,1.40e+01,
357,-2.00e-03,1.40e+01,
358,-2.00e-03,1.40e+01,
359,-4.00e-03,1.40e+01,
360,-4.00e-03,1.40e+01,
361,-2.00e-03,1.40e+01,
362,-4.00e-03,1.42e+01,
363,-4.00e-03,1.40e+01,
364,-4.00e-03,1.42e+01,
365,-4.00e-03,1.42e+01,
366,-2.00e-03,1.42e+01,
367,-4.00e-03,1.42e+01,
368,-4.00e-03,1.44e+01,
369,0.00e+00,1.44e+01,
370,-6.00e-03,1.44e+01,
371,-4.00e-03,1.44e+01,
372,-4.00e-03,1.44e+01,
373,-4.00e-03,1.44e+01,
374,-4.00e-03,1.44e+01,
375,-2.00e-03,1.46e+01,
376,-4.00e-03,1.46e+01,
377,0.00e+00,1.46e+01,
378,-4.00e-03,1.46e+01,
379,-2.00e-03,1.46e+01,
380,-4.00e-03,1.50e+01,
381,-4.00e-03,1.46e+01,
382,-4.00e-03,1.50e+01,
383,-4.00e-03,1.50e+01,
384,-4.00e-03,1.50e+01,
385,-2.00e-03,1.50e+01,
386,-4.00e-03,1.50e+01,
387,-4.00e-03,1.50e+01,
388,-4.00e-03,1.52e+01,
389,-2.00e-03,1.52e+01,
390,-2.00e-03,1.52e+01,
391,-2.00e-03,1.52e+01,
392,-4.00e-03,1.54e+01,
393,-2.00e-03,1.54e+01,
394,-2.00e-03,1.54e+01,
395,-4.00e-03,1.54e+01,
396,-4.00e-03,1.56e+01,
397,-4.00e-03,1.54e+01,
398,-2.00e-03,1.56e+01,
399,-4.00e-03,1.56e+01,
400,-4.00e-03,1.56e+01,
401,-2.00e-03,1.56e+01,
402,-4.00e-03,1.56e+01,
403,-4.00e-03,1.56e+01,
404,-4.00e-03,1.58e+01,
405,-2.00e-03,1.56e+01,
406,-2.00e-03,1.58e+01,
407,-2.00e-03,1.58e+01,
408,-4.00e-03,1.58e+01,
409,-2.00e-03,1.58e+01,
410,-2.00e-03,1.60e+01,
411,-4.00e-03,1.58e+01,
412,-4.00e-03,1.60e+01,
413,-4.00e-03,1.60e+01,
414,-4.00e-03,1.60e+01,
415,-4.00e-03,1.60e+01,
416,-4.00e-03,1.60e+01,
417,-2.00e-03,1.60e+01,
418,-4.00e-03,1.62e+01,
419,-4.00e-03,1.60e+01,
420,-6.00e-03,1.62e+01,
421,-4.00e-03,1.60e+01,
422,-4.00e-03,1.62e+01,
423,-2.00e-03,1.62e+01,
424,-4.00e-03,1.62e+01,
425,-2.00e-03,1.64e+01,
426,-4.00e-03,1.64e+01,
427,-4.00e-03,1.64e+01,
428,-4.00e-03,1.64e+01,
429,-2.00e-03,1.64e+01,
430,-4.00e-03,1.64e+01,
431,-4.00e-03,1.64e+01,
432,-6.00e-03,1.64e+01,
433,-4.00e-03,1.64e+01,
434,-6.00e-03,1.66e+01,
435,-4.00e-03,1.64e+01,
436,-4.00e-03,1.68e+01,
437,-4.00e-03,1.66e+01,
438,-6.00e-03,1.66e+01,
439,-4.00e-03,1.66e+01,
440,-4.00e-03,1.68e+01,
441,-2.00e-03,1.68e+01,
442,-4.00e-03,1.68e+01,
443,-2.00e-03,1.68e+01,
444,-4.00e-03,1.68e+01,
445,-6.00e-03,1.68e+01,
446,-6.00e-03,1.68e+01,
447,-4.00e-03,1.68e+01,
448,-4.00e-03,1.68e+01,
449,-2.00e-03,1.70e+01,
450,-6.00e-03,1.70e+01,
451,-6.00e-03,1.68e+01,
452,-4.00e-03,1.70e+01,
453,-4.00e-03,1.68e+01,
454,-4.00e-03,1.70e+01,
455,-4.00e-03,1.70e+01,
456,-4.00e-03,1.72e+01,
457,-4.00e-03,1.72e+01,
458,-4.00e-03,1.70e+01,
459,-4.00e-03,1.70e+01,
460,-6.00e-03,1.72e+01,
461,-2.00e-03,1.70e+01,
462,-4.00e-03,1.72e+01,
463,-4.00e-03,1.70e+01,
464,-4.00e-03,1.72e+01,
465,-4.00e-03,1.72e+01,
466,-4.00e-03,1.72e+01,
467,-4.00e-03,1.72e+01,
468,-4.00e-03,1.74e+01,
469,-6.00e-03,1.72e+01,
470,-4.00e-03,1.72e+01,
471,-4.00e-03,1.72e+01,
472,-6.00e-03,1.72e+01,
473,-4.00e-03,1.74e+01,
474,-4.00e-03,1.74e+01,
475,-4.00e-03,1.74e+01,
476,-6.00e-03,1.74e+01,
477,-4.00e-03,1.74e+01,
478,-4.00e-03,1.74e+01,
479,-2.00e-03,1.74e+01,
480,-4.00e-03,1.74e+01,
481,-4.00e-03,1.74e+01,
482,-6.00e-03,1.74e+01,
483,-6.00e-03,1.74e+01,
484,-4.00e-03,1.76e+01,
485,-4.00e-03,1.76e+01,
486,-6.00e-03,1.76e+01,
487,-2.00e-03,1.74e+01,
488,-6.00e-03,1.76e+01,
489,-4.00e-03,1.74e+01,
490,-4.00e-03,1.74e+01,
491,-4.00e-03,1.74e+01,
492,-6.00e-03,1.76e+01,
493,-4.00e-03,1.74e+01,
494,-6.00e-03,1.76e+01,
495,-4.00e-03,1.76e+01,
496,-4.00e-03,1.76e+01,
497,-2.00e-03,1.76e+01,
498,-4.00e-03,1.76e+01,
499,-4.00e-03,1.74e+01,
500,-4.00e-03,1.76e+01,
501,-4.00e-03,1.76e+01,
502,-4.00e-03,1.76e+01,
503,-4.00e-03,1.74e+01,
504,-4.00e-03,1.76e+01,
505,-4.00e-03,1.76e+01,
506,-4.00e-03,1.76e+01,
507,-2.00e-03,1.76e+01,
508,-4.00e-03,1.76e+01,
509,-4.00e-03,1.76e+01,
510,-6.00e-03,1.76e+01,
511,-4.00e-03,1.76e+01,
512,-4.00e-03,1.76e+01,
513,-4.00e-03,1.76e+01,
514,-4.00e-03,1.76e+01,
515,-4.00e-03,1.76e+01,
516,-4.00e-03,1.76e+01,
517,-4.00e-03,1.76e+01,
518,-6.00e-03,1.76e+01,
519,-4.00e-03,1.76e+01,
520,-4.00e-03,1.76e+01,
521,-4.00e-03,1.76e+01,
522,-4.00e-03,1.76e+01,
523,-4.00e-03,1.76e+01,
524,-6.00e-03,1.76e+01,
525,-4.00e-03,1.76e+01,
526,-6.00e-03,1.76e+01,
527,-6.00e-03,1.76e+01,
528,-4.00e-03,1.76e+01,
529,-4.00e-03,1.76e+01,
530,-4.00e-03,1.76e+01,
531,-4.00e-03,1.74e+01,
532,-4.00e-03,1.76e+01,
533,-2.00e-03,1.76e+01,
534,-4.00e-03,1.76e+01,
535,-4.00e-03,1.74e+01,
536,-2.00e-03,1.76e+01,
537,-4.00e-03,1.74e+01,
538,-4.00e-03,1.76e+01,
539,-4.00e-03,1.74e+01,
540,-6.00e-03,1.76e+01,
541,-4.00e-03,1.74e+01,
542,-4.00e-03,1.74e+01,
543,-6.00e-03,1.74e+01,
544,-6.00e-03,1.74e+01,
545,-4.00e-03,1.74e+01,
546,-6.00e-03,1.74e+01,
547,-6.00e-03,1.74e+01,
548,-4.00e-03,1.74e+01,
549,-4.00e-03,1.74e+01,
550,-4.00e-03,1.74e+01,
551,-4.00e-03,1.72e+01,
552,-4.00e-03,1.74e+01,
553,-4.00e-03,1.72e+01,
554,-6.00e-03,1.74e+01,
555,-6.00e-03,1.72e+01,
556,-4.00e-03,1.72e+01,
557,-4.00e-03,1.72e+01,
558,-4.00e-03,1.74e+01,
559,-6.00e-03,1.74e+01,
560,-6.00e-03,1.72e+01,
561,-2.00e-03,1.72e+01,
562,-6.00e-03,1.72e+01,
563,-6.00e-03,1.72e+01,
564,-6.00e-03,1.72e+01,
565,-6.00e-03,1.70e+01,
566,-6.00e-03,1.72e+01,
567,-4.00e-03,1.70e+01,
568,-6.00e-03,1.70e+01,
569,-4.00e-03,1.72e+01,
570,-4.00e-03,1.70e+01,
571,-4.00e-03,1.70e+01,
572,-6.00e-03,1.70e+01,
573,-6.00e-03,1.70e+01,
574,-6.00e-03,1.70e+01,
575,-4.00e-03,1.70e+01,
576,-6.00e-03,1.70e+01,
577,-4.00e-03,1.68e+01,
578,-4.00e-03,1.70e+01,
579,-6.00e-03,1.68e+01,
580,-4.00e-03,1.68e+01,
581,-4.00e-03,1.68e+01,
582,-4.00e-03,1.68e+01,
583,-6.00e-03,1.66e+01,
584,-6.00e-03,1.68e+01,
585,-6.00e-03,1.68e+01,
586,-6.00e-03,1.68e+01,
587,-6.00e-03,1.66e+01,
588,-6.00e-03,1.66e+01,
589,-4.00e-03,1.66e+01,
590,-6.00e-03,1.66e+01,
591,-4.00e-03,1.66e+01,
592,-6.00e-03,1.66e+01,
593,-4.00e-03,1.64e+01,
594,-6.00e-03,1.64e+01,
595,-4.00e-03,1.64e+01,
596,-6.00e-03,1.64e+01,
597,-4.00e-03,1.64e+01,
598,-6.00e-03,1.64e+01,
599,-6.00e-03,1.62e+01,
600,-4.00e-03,1.64e+01,
601,-4.00e-03,1.64e+01,
602,-6.00e-03,1.64e+01,
603,-4.00e-03,1.60e+01,
604,-6.00e-03,1.62e+01,
605,-4.00e-03,1.60e+01,
606,-6.00e-03,1.62e+01,
607,-4.00e-03,1.62e+01,
608,-4.00e-03,1.60e+01,
609,-4.00e-03,1.60e+01,
610,-4.00e-03,1.60e+01,
611,-4.00e-03,1.60e+01,
612,-4.00e-03,1.60e+01,
613,-6.00e-03,1.60e+01,
614,-6.00e-03,1.60e+01,
615,-4.00e-03,1.58e+01,
616,-4.00e-03,1.58e+01,
617,-4.00e-03,1.58e+01,
618,-6.00e-03,1.58e+01,
619,-4.00e-03,1.58e+01,
620,-6.00e-03,1.58e+01,
621,-6.00e-03,1.56e+01,
622,-6.00e-03,1.58e+01,
623,-4.00e-03,1.56e+01,
624,-4.00e-03,1.56e+01,
625,-4.00e-03,1.56e+01,
626,-4.00e-03,1.54e+01,
627,-4.00e-03,1.54e+01,
628,-6.00e-03,1.54e+01,
629,-6.00e-03,1.54e+01,
630,-6.00e-03,1.54e+01,
631,-4.00e-03,1.54e+01,
632,-6.00e-03,1.54e+01,
633,-4.00e-03,1.54e+01,
634,-6.00e-03,1.54e+01,
635,-6.00e-03,1.52e+01,
636,-6.00e-03,1.52e+01,
637,-4.00e-03,1.52e+01,
638,-4.00e-03,1.52e+01,
639,-4.00e-03,1.52e+01,
640,-6.00e-03,1.50e+01,
641,-2.00e-03,1.50e+01,
642,-4.00e-03,1.50e+01,
643,-4.00e-03,1.50e+01,
644,-6.00e-03,1.50e+01,
645,-4.00e-03,1.46e+01,
646,-8.00e-03,1.46e+01,
647,-4.00e-03,1.46e+01,
648,-6.00e-03,1.50e+01,
649,-4.00e-03,1.46e+01,
650,-4.00e-03,1.46e+01,
651,-6.00e-03,1.46e+01,
652,-6.00e-03,1.46e+01,
653,-4.00e-03,1.44e+01,
654,-6.00e-03,1.44e+01,
655,-6.00e-03,1.44e+01,
656,-4.00e-03,1.44e+01,
657,-2.00e-03,1.44e+01,
658,-4.00e-03,1.44e+01,
659,-4.00e-03,1.42e+01,
660,-6.00e-03,1.44e+01,
661,-4.00e-03,1.42e+01,
662,-6.00e-03,1.42e+01,
663,-4.00e-03,1.42e+01,
664,-6.00e-03,1.42e+01,
665,-6.00e-03,1.42e+01,
666,-4.00e-03,1.40e+01,
667,-6.00e-03,1.40e+01,
668,-6.00e-03,1.40e+01,
669,-4.00e-03,1.40e+01,
670,-4.00e-03,1.40e+01,
671,-4.00e-03,1.40e+01,
672,-6.00e-03,1.40e+01,
673,-4.00e-03,1.40e+01,
674,-4.00e-03,1.40e+01,
675,-6.00e-03,1.38e+01,
676,-6.00e-03,1.38e+01,
677,-4.00e-03,1.38e+01,
678,-4.00e-03,1.38e+01,
679,-4.00e-03,1.38e+01,
680,-6.00e-03,1.38e+01,
681,-2.00e-03,1.36e+01,
682,-4.00e-03,1.38e+01,
683,-4.00e-03,1.36e+01,
684,-4.00e-03,1.38e+01,
685,-4.00e-03,1.36e+01,
686,-4.00e-03,1.36e+01,
687,-4.00e-03,1.36e+01,
688,-6.00e-03,1.36e+01,
689,-4.00e-03,1.36e+01,
690,-6.00e-03,1.36e+01,
691,-6.00e-03,1.34e+01,
692,-4.00e-03,1.36e+01,
693,-4.00e-03,1.34e+01,
694,-4.00e-03,1.34e+01,
695,-4.00e-03,1.34e+01,
696,-4.00e-03,1.34e+01,
697,-2.00e-03,1.34e+01,
698,-4.00e-03,1.34e+01,
699,-4.00e-03,1.32e+01,
700,-4.00e-03,1.34e+01,
701,-2.00e-03,1.32e+01,
702,-4.00e-03,1.34e+01,
703,-6.00e-03,1.32e+01,
704,-6.00e-03,1.34e+01,
705,-4.00e-03,1.32e+01,
706,-6.00e-03,1.32e+01,
707,-4.00e-03,1.32e+01,
708,-4.00e-03,1.32e+01,
709,-4.00e-03,1.32e+01,
710,-4.00e-03,1.32e+01,
711,-2.00e-03,1.30e+01,
712,-4.00e-03,1.32e+01,
713,-2.00e-03,1.32e+01,
714,-4.00e-03,1.32e+01,
715,-4.00e-03,1.30e+01,
716,-4.00e-03,1.32e+01,
717,-2.00e-03,1.30e+01,
718,-4.00e-03,1.30e+01,
719,-4.00e-03,1.30e+01,
720,-6.00e-03,1.30e+01,
721,-2.00e-03,1.30e+01,
722,-4.00e-03,1.30e+01,
723,-4.00e-03,1.30e+01,
724,-4.00e-03,1.30e+01,
725,-4.00e-03,1.28e+01,
726,-6.00e-03,1.28e+01,
727,-4.00e-03,1.28e+01,
728,-6.00e-03,1.30e+01,
729,-4.00e-03,1.30e+01,
730,-4.00e-03,1.30e+01,
731,-4.00e-03,1.28e+01,
732,-4.00e-03,1.30e+01,
733,-4.00e-03,1.28e+01,
734,-4.00e-03,1.30e+01,
735,-4.00e-03,1.28e+01,
736,-4.00e-03,1.28e+01,
737,-4.00e-03,1.28e+01,
738,-6.00e-03,1.30e+01,
739,-6.00e-03,1.28e+01,
740,-4.00e-03,1.28e+01,
741,-4.00e-03,1.28e+01,
742,-4.00e-03,1.28e+01,
743,-4.00e-03,1.28e+01,
744,-4.00e-03,1.28e+01,
745,-2.00e-03,1.28e+01,
746,-4.00e-03,1.28e+01,
747,-4.00e-03,1.28e+01,
748,-4.00e-03,1.28e+01,
749,-4.00e-03,1.28e+01,
750,-6.00e-03,1.28e+01,
751,-4.00e-03,1.28e+01,
752,-4.00e-03,1.28e+01,
753,-4.00e-03,1.28e+01,
754,-4.00e-03,1.28e+01,
755,-4.00e-03,1.28e+01,
756,-4.00e-03,1.28e+01,
757,-4.00e-03,1.28e+01,
758,-6.00e-03,1.28e+01,
759,-2.00e-03,1.28e+01,
760,-6.00e-03,1.28e+01,
761,-4.00e-03,1.30e+01,
762,-4.00e-03,1.28e+01,
763,-2.00e-03,1.28e+01,
764,-4.00e-03,1.30e+01,
765,-4.00e-03,1.28e+01,
766,-6.00e-03,1.28e+01,
767,-4.00e-03,1.28e+01,
768,-4.00e-03,1.30e+01,
769,-2.00e-03,1.28e+01,
770,-4.00e-03,1.30e+01,
771,-4.00e-03,1.28e+01,
772,-2.00e-03,1.28e+01,
773,0.00e+00,1.30e+01,
774,-4.00e-03,1.28e+01,
775,-4.00e-03,1.28e+01,
776,-2.00e-03,1.30e+01,
777,-2.00e-03,1.30e+01,
778,-2.00e-03,1.30e+01,
779,-4.00e-03,1.30e+01,
780,-2.00e-03,1.30e+01,
781,-2.00e-03,1.30e+01,
782,-2.00e-03,1.30e+01,
783,-4.00e-03,1.30e+01,
784,-4.00e-03,1.30e+01,
785,-4.00e-03,1.30e+01,
786,-4.00e-03,1.30e+01,
787,-4.00e-03,1.30e+01,
788,-4.00e-03,1.32e+01,
789,-4.00e-03,1.32e+01,
790,-4.00e-03,1.32e+01,
791,-2.00e-03,1.32e+01,
792,-4.00e-03,1.32e+01,
793,-2.00e-03,1.32e+01,
794,-4.00e-03,1.32e+01,
795,-4.00e-03,1.32e+01,
796,-2.00e-03,1.32e+01,
797,-4.00e-03,1.32e+01,
798,-4.00e-03,1.34e+01,
799,-2.00e-03,1.32e+01,
800,-4.00e-03,1.34e+01,
801,-2.00e-03,1.34e+01,
802,-4.00e-03,1.34e+01,
803,-4.00e-03,1.34e+01,
804,-4.00e-03,1.34e+01,
805,-2.00e-03,1.34e+01,
806,-4.00e-03,1.34e+01,
807,-4.00e-03,1.34e+01,
808,-2.00e-03,1.36e+01,
809,-2.00e-03,1.36e+01,
810,-4.00e-03,1.36e+01,
811,-4.00e-03,1.36e+01,
812,-4.00e-03,1.36e+01,
813,-4.00e-03,1.36e+01,
814,-4.00e-03,1.36e+01,
815,-4.00e-03,1.36e+01,
816,-4.00e-03,1.36e+01,
817,0.00e+00,1.36e+01,
818,-4.00e-03,1.36e+01,
819,-4.00e-03,1.38e+01,
820,-4.00e-03,1.38e+01,
821,-4.00e-03,1.38e+01,
822,-4.00e-03,1.38e+01,
823,-4.00e-03,1.38e+01,
824,-4.00e-03,1.40e+01,
825,-2.00e-03,1.38e+01,
826,-4.00e-03,1.40e+01,
827,-2.00e-03,1.40e+01,
828,-4.00e-03,1.40e+01,
829,-2.00e-03,1.40e+01,
830,-4.00e-03,1.40e+01,
831,-2.00e-03,1.40e+01,
832,-4.00e-03,1.40e+01,
833,-2.00e-03,1.42e+01,
834,-2.00e-03,1.42e+01,
